# Blender MTL File: 'game_assets.blend'
# Material Count: 1

newmtl Wood
Ns 280.562504
Ka 1.000000 1.000000 1.000000
Kd 0.420023 0.082710 0.026496
Ks 0.000000 0.000000 0.000000
Ke 0.0 0.0 0.0
Ni 1.450000
d 1.000000
illum 1
