# Blender MTL File: 'game_assets.blend'
# Material Count: 2

newmtl Tent
Ns 225.000000
Ka 1.000000 1.000000 1.000000
Kd 0.497412 0.603827 0.161909
Ks 0.500000 0.500000 0.500000
Ke 0.0 0.0 0.0
Ni 1.450000
d 1.000000
illum 2

newmtl Tent2
Ns 225.000000
Ka 1.000000 1.000000 1.000000
Kd 0.296138 0.287441 0.059511
Ks 0.500000 0.500000 0.500000
Ke 0.0 0.0 0.0
Ni 1.450000
d 1.000000
illum 2
