# Blender v2.80 (sub 75) OBJ File: 'game_assets.blend'
# www.blender.org
mtllib cactus0.mtl
o Cactus_0.002_Cube.005
v 0.356753 -0.273843 -0.008552
v 0.342799 -0.265317 0.443891
v 0.280023 -0.292373 -0.008552
v 0.288548 -0.278419 0.443891
v 0.338223 -0.197112 -0.008552
v 0.329698 -0.211066 0.443891
v 0.261493 -0.215643 -0.008552
v 0.275447 -0.224168 0.443891
v 0.320470 -0.291730 -0.009025
v 0.356667 -0.273790 0.274596
v 0.317146 -0.277965 0.460870
v 0.280076 -0.292287 0.274596
v 0.262135 -0.256090 -0.009025
v 0.275901 -0.252766 0.460870
v 0.261579 -0.215696 0.274596
v 0.297775 -0.197755 -0.009025
v 0.301100 -0.211521 0.460870
v 0.338170 -0.197199 0.274596
v 0.356110 -0.233395 -0.009025
v 0.342345 -0.236720 0.460870
v 0.309123 -0.244743 0.482079
v 0.309123 -0.244743 -0.005886
v 0.363281 -0.231663 0.274596
v 0.296044 -0.190585 0.274596
v 0.254965 -0.257822 0.274596
v 0.322202 -0.298901 0.274596
v 0.281533 -0.289902 0.207969
v 0.263964 -0.217153 0.207969
v 0.336713 -0.199584 0.207969
v 0.354282 -0.272333 0.207969
v 0.358945 -0.232711 0.197067
v 0.297091 -0.194921 0.197067
v 0.259301 -0.256775 0.197067
v 0.321155 -0.294565 0.197067
v 0.355475 -0.273061 0.241283
v 0.280804 -0.291094 0.241283
v 0.262771 -0.216424 0.241283
v 0.337442 -0.198391 0.241283
v 0.296567 -0.192753 0.235832
v 0.321679 -0.296733 0.235832
v 0.191880 -0.273057 0.383398
v 0.180136 -0.260096 0.377139
v 0.187346 -0.289949 0.377139
v 0.172473 -0.293145 0.372219
v 0.157600 -0.296340 0.367299
v 0.165444 -0.264040 0.372219
v 0.150752 -0.267985 0.367299
v 0.155962 -0.281731 0.368618
v 0.172178 -0.277815 0.460003
v 0.168170 -0.270741 0.454155
v 0.171841 -0.285939 0.454155
v 0.162974 -0.292088 0.458790
v 0.155795 -0.293512 0.452129
v 0.157474 -0.269316 0.458790
v 0.150436 -0.271325 0.452129
v 0.164249 -0.279730 0.465797
v 0.150660 -0.283012 0.458889
v 0.432345 -0.226791 0.316203
v 0.415078 -0.230237 0.324086
v 0.408861 -0.202285 0.321172
v 0.402909 -0.174203 0.318803
v 0.420481 -0.172162 0.311053
v 0.438053 -0.170122 0.303302
v 0.443006 -0.197351 0.302520
v 0.449612 -0.223345 0.308320
v 0.451781 -0.197192 0.396726
v 0.444108 -0.199319 0.395494
v 0.441763 -0.186589 0.399030
v 0.438844 -0.175080 0.392779
v 0.446649 -0.173561 0.394080
v 0.451410 -0.173685 0.386613
v 0.452490 -0.184187 0.399676
v 0.456512 -0.184609 0.388111
v 0.456410 -0.196709 0.389191
v -0.233124 0.276215 -0.012539
v -0.256910 0.273217 0.650807
v -0.304079 0.184788 -0.012539
v -0.307078 0.208574 0.650807
v -0.324552 0.347171 -0.012539
v -0.321553 0.323385 0.650807
v -0.395507 0.255743 -0.012539
v -0.371721 0.258742 0.650807
v -0.258328 0.222528 -0.013232
v -0.233271 0.276197 0.402596
v -0.274730 0.235258 0.675700
v -0.304098 0.184935 0.402596
v -0.357767 0.209991 -0.013232
v -0.345037 0.226394 0.675700
v -0.395360 0.255762 0.402596
v -0.370303 0.309430 -0.013232
v -0.353901 0.296701 0.675700
v -0.324533 0.347024 0.402596
v -0.270864 0.321967 -0.013232
v -0.283594 0.305565 0.675700
v -0.314315 0.265979 0.706795
v -0.314315 0.265979 -0.008630
v -0.264233 0.330511 0.402596
v -0.378848 0.316061 0.402596
v -0.364398 0.201447 0.402596
v -0.249783 0.215897 0.402596
v -0.304610 0.189000 0.304912
v -0.391295 0.256274 0.304912
v -0.324021 0.342958 0.304912
v -0.237336 0.275684 0.304912
v -0.268243 0.325345 0.288928
v -0.373681 0.312052 0.288928
v -0.360388 0.206614 0.288928
v -0.254950 0.219907 0.288928
v -0.235304 0.275941 0.353754
v -0.304354 0.186967 0.353754
v -0.393327 0.256018 0.353754
v -0.324277 0.344991 0.353754
v -0.376264 0.314057 0.345762
v -0.252367 0.217902 0.345762
v -0.422735 0.126278 0.562115
v -0.448047 0.130384 0.552938
v -0.412475 0.102777 0.552938
v -0.426591 0.085510 0.545725
v -0.440707 0.068242 0.538512
v -0.461271 0.112424 0.545725
v -0.474494 0.094464 0.538512
v -0.455950 0.083480 0.540445
v -0.440954 0.102802 0.674428
v -0.452018 0.107241 0.665855
v -0.433908 0.093187 0.665855
v -0.438441 0.078029 0.672651
v -0.445364 0.069830 0.662884
v -0.465576 0.099088 0.672651
v -0.471800 0.090347 0.662884
v -0.448286 0.093355 0.682924
v -0.460852 0.077163 0.672796
v -0.189565 0.399277 0.463598
v -0.206195 0.379533 0.475156
v -0.238891 0.405869 0.470883
v -0.271401 0.432597 0.467410
v -0.253136 0.451011 0.456046
v -0.234871 0.469425 0.444683
v -0.204285 0.442761 0.443536
v -0.172936 0.419022 0.452040
v -0.194377 0.450970 0.581656
v -0.201223 0.441513 0.579849
v -0.215555 0.453952 0.585033
v -0.229429 0.464468 0.575869
v -0.221876 0.473348 0.577777
v -0.216307 0.477562 0.566829
v -0.205463 0.466518 0.585980
v -0.200469 0.469715 0.569025
v -0.189516 0.455759 0.570609
v -0.009827 -0.199461 0.000000
v -0.009827 -0.199461 0.085493
v -0.095320 -0.199461 0.000000
v -0.095320 -0.199461 0.085493
v -0.009827 -0.113968 0.000000
v -0.009827 -0.113968 0.085493
v -0.095320 -0.113968 0.000000
v -0.095320 -0.113968 0.085493
vt 0.500000 0.125000
vt 0.625000 0.250000
vt 0.500000 0.250000
vt 0.500000 0.375000
vt 0.625000 0.500000
vt 0.500000 0.500000
vt 0.500000 0.625000
vt 0.625000 0.750000
vt 0.500000 0.750000
vt 0.500000 0.875000
vt 0.625000 1.000000
vt 0.500000 1.000000
vt 0.250000 0.625000
vt 0.375000 0.750000
vt 0.250000 0.750000
vt 0.875000 0.625000
vt 0.750000 0.750000
vt 0.750000 0.625000
vt 0.625000 0.625000
vt 0.750000 0.500000
vt 0.125000 0.750000
vt 0.125000 0.625000
vt 0.125000 0.500000
vt 0.375000 0.500000
vt 0.250000 0.500000
vt 0.465831 0.875000
vt 0.465831 1.000000
vt 0.465831 1.000000
vt 0.500000 1.000000
vt 0.500000 0.875000
vt 0.482915 0.750000
vt 0.482915 0.625000
vt 0.482915 0.500000
vt 0.482915 0.250000
vt 0.465831 0.250000
vt 0.465831 0.250000
vt 0.465831 0.375000
vt 0.465831 0.500000
vt 0.465831 0.500000
vt 0.482915 0.125000
vt 0.482915 0.000000
vt 0.625000 0.000000
vt 0.500000 0.000000
vt 0.375000 0.000000
vt 0.465831 0.125000
vt 0.375000 0.125000
vt 0.375000 0.250000
vt 0.375000 0.375000
vt 0.465831 0.625000
vt 0.375000 0.625000
vt 0.375000 0.875000
vt 0.375000 1.000000
vt 0.465831 0.000000
vt 0.500000 0.250000
vt 0.482915 0.250000
vt 0.465831 0.750000
vt 0.482915 0.750000
vt 0.465831 0.875000
vt 0.500000 0.250000
vt 0.482915 0.250000
vt 0.500000 0.375000
vt 0.500000 0.500000
vt 0.500000 0.375000
vt 0.465831 0.250000
vt 0.465831 0.375000
vt 0.465831 0.500000
vt 0.482915 0.500000
vt 0.500000 0.500000
vt 0.482915 0.375000
vt 0.482915 0.500000
vt 0.465831 0.375000
vt 0.482915 0.000000
vt 0.500000 0.000000
vt 0.500000 0.000000
vt 0.500000 0.750000
vt 0.500000 0.750000
vt 0.465831 1.000000
vt 0.482915 0.750000
vt 0.465831 0.750000
vt 0.465831 0.000000
vt 0.500000 0.875000
vt 0.482915 1.000000
vt 0.482915 0.875000
vt 0.465831 0.875000
vt 0.465831 0.750000
vt 0.465831 0.000000
vt 0.482915 0.000000
vt 0.500000 1.000000
vt 0.500000 0.125000
vt 0.625000 0.250000
vt 0.500000 0.250000
vt 0.500000 0.375000
vt 0.625000 0.500000
vt 0.500000 0.500000
vt 0.500000 0.625000
vt 0.625000 0.750000
vt 0.500000 0.750000
vt 0.500000 0.875000
vt 0.625000 1.000000
vt 0.500000 1.000000
vt 0.250000 0.625000
vt 0.375000 0.750000
vt 0.250000 0.750000
vt 0.875000 0.625000
vt 0.750000 0.750000
vt 0.750000 0.625000
vt 0.625000 0.625000
vt 0.750000 0.500000
vt 0.125000 0.750000
vt 0.125000 0.625000
vt 0.125000 0.500000
vt 0.375000 0.500000
vt 0.250000 0.500000
vt 0.465831 0.875000
vt 0.465831 1.000000
vt 0.465831 1.000000
vt 0.500000 1.000000
vt 0.500000 0.875000
vt 0.482915 0.750000
vt 0.482915 0.625000
vt 0.482915 0.500000
vt 0.482915 0.250000
vt 0.465831 0.250000
vt 0.465831 0.250000
vt 0.465831 0.375000
vt 0.465831 0.500000
vt 0.465831 0.500000
vt 0.482915 0.125000
vt 0.482915 0.000000
vt 0.625000 0.000000
vt 0.500000 0.000000
vt 0.375000 0.000000
vt 0.465831 0.125000
vt 0.375000 0.125000
vt 0.375000 0.250000
vt 0.375000 0.375000
vt 0.465831 0.625000
vt 0.375000 0.625000
vt 0.375000 0.875000
vt 0.375000 1.000000
vt 0.465831 0.000000
vt 0.500000 0.250000
vt 0.482915 0.250000
vt 0.465831 0.750000
vt 0.482915 0.750000
vt 0.465831 0.875000
vt 0.500000 0.250000
vt 0.482915 0.250000
vt 0.500000 0.375000
vt 0.500000 0.500000
vt 0.500000 0.375000
vt 0.465831 0.250000
vt 0.465831 0.375000
vt 0.465831 0.500000
vt 0.482915 0.500000
vt 0.500000 0.500000
vt 0.482915 0.375000
vt 0.482915 0.500000
vt 0.465831 0.375000
vt 0.482915 0.000000
vt 0.500000 0.000000
vt 0.500000 0.000000
vt 0.500000 0.750000
vt 0.500000 0.750000
vt 0.465831 1.000000
vt 0.482915 0.750000
vt 0.465831 0.750000
vt 0.465831 0.000000
vt 0.500000 0.875000
vt 0.482915 1.000000
vt 0.482915 0.875000
vt 0.465831 0.875000
vt 0.465831 0.750000
vt 0.465831 0.000000
vt 0.482915 0.000000
vt 0.500000 1.000000
vt 0.625000 0.125000
vt 0.625000 0.375000
vt 0.625000 0.875000
vt 0.875000 0.750000
vt 0.875000 0.500000
vt 0.625000 0.125000
vt 0.625000 0.375000
vt 0.625000 0.875000
vt 0.875000 0.750000
vt 0.875000 0.500000
vt 0.625000 0.000000
vt 0.375000 0.250000
vt 0.375000 0.000000
vt 0.625000 0.250000
vt 0.375000 0.500000
vt 0.625000 0.500000
vt 0.375000 0.750000
vt 0.625000 0.750000
vt 0.375000 1.000000
vt 0.125000 0.500000
vt 0.125000 0.750000
vt 0.875000 0.500000
vt 0.625000 1.000000
vt 0.875000 0.750000
vn -0.1545 -0.9840 0.0883
vn -0.9840 0.1545 0.0883
vn 0.1545 0.9840 0.0883
vn 0.9840 -0.1545 0.0883
vn -0.0624 -0.0178 -0.9979
vn 0.5629 -0.3439 0.7516
vn 0.3873 0.6340 0.6694
vn -0.6340 0.3873 0.6694
vn -0.3439 -0.5629 0.7516
vn -0.0178 0.0624 -0.9979
vn -0.0127 0.0636 -0.9979
vn 0.0636 0.0127 -0.9979
vn 0.7601 -0.2540 -0.5981
vn -0.6876 -0.0777 0.7219
vn 0.8051 0.5866 0.0883
vn 0.1434 0.9882 -0.0533
vn -0.5786 0.8138 -0.0533
vn -0.5866 0.8051 0.0883
vn 0.0061 -0.9993 -0.0356
vn -0.8260 0.2378 -0.5110
vn -0.8051 -0.5866 0.0883
vn -0.1434 -0.9882 -0.0533
vn 0.5786 -0.8138 -0.0533
vn 0.5866 -0.8051 0.0883
vn 0.4423 -0.8968 -0.0138
vn 0.0157 -0.9998 -0.0138
vn -0.8968 -0.4423 -0.0138
vn -0.9998 -0.0157 -0.0138
vn -0.4423 0.8968 -0.0138
vn -0.0157 0.9998 -0.0138
vn 0.8968 0.4423 -0.0138
vn 0.9998 0.0157 -0.0138
vn 0.5686 -0.8209 -0.0536
vn -0.1312 -0.9899 -0.0536
vn 0.6567 0.4785 0.5829
vn -0.0250 -0.9990 -0.0363
vn -0.5686 0.8209 -0.0536
vn 0.1312 0.9899 -0.0536
vn -0.2794 0.9598 -0.0282
vn 0.5407 0.5673 -0.6212
vn 0.5945 -0.8006 0.0750
vn 0.7518 0.6174 0.2317
vn 0.1983 -0.9795 0.0369
vn -0.9344 -0.3558 -0.0175
vn -0.3063 0.9379 0.1628
vn 0.5597 0.7119 0.4242
vn -0.2959 0.9471 0.1244
vn -0.8524 -0.0486 -0.5206
vn 0.3681 0.6719 0.6427
vn 0.6341 -0.4299 0.6427
vn -0.4583 -0.6286 0.6283
vn -0.6947 0.3502 0.6283
vn -0.9113 -0.4074 -0.0593
vn -0.3009 0.9532 0.0304
vn 0.9243 -0.3233 0.2029
vn -0.2855 0.9544 0.0875
vn 0.3058 -0.9127 0.2709
vn -0.8897 -0.1523 0.4304
vn 0.9656 0.2117 -0.1509
vn -0.2033 0.9758 0.0805
vn -0.2537 0.9668 -0.0291
vn 0.3391 -0.8677 0.3634
vn -0.5519 -0.0467 0.8326
vn 0.3010 -0.9180 0.2581
vn -0.0093 -0.2207 0.9753
vn -0.1437 0.3981 0.9060
vn 0.7667 0.4242 0.4818
vn 0.8502 0.0397 0.5249
vn 0.4400 -0.8720 0.2143
vn 0.8980 0.3920 -0.2000
vn -0.0903 0.9943 0.0570
vn -0.8641 -0.2761 0.4208
vn 0.4933 -0.8654 0.0883
vn -0.8654 -0.4933 0.0883
vn -0.4933 0.8654 0.0883
vn 0.8654 0.4933 0.0883
vn -0.0377 -0.0528 -0.9979
vn 0.6544 0.0825 0.7516
vn -0.0929 0.7371 0.6694
vn -0.7371 -0.0929 0.6694
vn 0.0825 -0.6544 0.7516
vn -0.0528 0.0377 -0.9979
vn -0.0496 0.0418 -0.9979
vn 0.0418 0.0496 -0.9979
vn 0.7525 0.2758 -0.5981
vn -0.4888 -0.4898 0.7219
vn 0.2631 0.9607 0.0883
vn -0.5046 0.8617 -0.0533
vn -0.9600 0.2749 -0.0533
vn -0.9607 0.2631 0.0883
vn 0.6284 -0.7771 -0.0356
vn -0.7939 -0.3296 -0.5110
vn -0.2631 -0.9607 0.0883
vn 0.5046 -0.8617 -0.0533
vn 0.9600 -0.2749 -0.0533
vn 0.9607 -0.2631 0.0883
vn 0.9052 -0.4248 -0.0138
vn 0.6362 -0.7714 -0.0138
vn -0.4248 -0.9052 -0.0138
vn -0.7714 -0.6362 -0.0138
vn -0.9052 0.4248 -0.0138
vn -0.6362 0.7714 -0.0138
vn 0.4248 0.9052 -0.0138
vn 0.7714 0.6362 -0.0138
vn 0.9565 -0.2867 -0.0536
vn 0.5151 -0.8554 -0.0536
vn 0.2146 0.7837 0.5829
vn 0.6039 -0.7962 -0.0363
vn -0.9565 0.2867 -0.0536
vn -0.5151 0.8554 -0.0536
vn -0.8172 0.5756 -0.0282
vn 0.0685 0.7806 -0.6212
vn 0.9641 -0.2547 0.0750
vn 0.2022 0.9515 0.2317
vn 0.7661 -0.6417 0.0369
vn -0.5082 -0.8611 -0.0175
vn -0.8246 0.5418 0.1628
vn -0.0069 0.9055 0.4242
vn -0.8222 0.5554 0.1244
vn -0.6358 -0.5699 -0.5206
vn -0.1317 0.7547 0.6427
vn 0.7638 0.0598 0.6427
vn 0.0341 -0.7772 0.6283
vn -0.7614 -0.1599 0.6283
vn -0.4579 -0.8870 -0.0593
vn -0.8299 0.5571 0.0304
vn 0.9240 0.3241 0.2029
vn -0.8186 0.5676 0.0875
vn 0.8085 -0.5224 0.2709
vn -0.6002 -0.6742 0.4304
vn 0.6225 0.7680 -0.1509
vn -0.7677 0.6357 0.0805
vn -0.8016 0.5972 -0.0291
vn 0.8064 -0.4665 0.3634
vn -0.4021 -0.3809 0.8326
vn 0.8081 -0.5295 0.2581
vn 0.1304 -0.1782 0.9753
vn -0.3607 0.2214 0.9060
vn 0.3345 0.8099 0.4819
vn 0.6396 0.5616 0.5249
vn 0.8880 -0.4069 0.2143
vn 0.4571 0.8666 -0.2000
vn -0.6910 0.7206 0.0570
vn -0.5030 -0.7549 0.4208
vn -0.0497 -0.9927 0.1102
vn -0.9927 0.0497 0.1102
vn 0.0497 0.9927 0.1102
vn 0.9927 -0.0497 0.1102
vn 0.0127 -0.0636 -0.9979
vn 0.6340 -0.3873 0.6694
vn 0.3439 0.5629 0.7516
vn -0.5629 0.3439 0.7516
vn -0.3873 -0.6340 0.6694
vn -0.0636 -0.0127 -0.9979
vn 0.0624 0.0178 -0.9979
vn 0.0178 -0.0624 -0.9979
vn 0.7718 0.0547 -0.6336
vn -0.6883 0.1081 0.7173
vn 0.8606 0.4972 0.1102
vn 0.1550 0.9872 -0.0387
vn -0.5884 0.8076 -0.0387
vn -0.4972 0.8606 0.1102
vn 0.1689 -0.9777 0.1244
vn -0.7807 -0.3458 -0.5206
vn -0.8606 -0.4972 0.1102
vn -0.1550 -0.9872 -0.0387
vn 0.5884 -0.8076 -0.0387
vn 0.4972 -0.8606 0.1102
vn 0.5545 -0.8321 0.0121
vn -0.1136 -0.9935 0.0121
vn -0.8321 -0.5545 0.0121
vn -0.9935 0.1136 0.0121
vn -0.5545 0.8321 0.0121
vn 0.1136 0.9935 0.0121
vn 0.8321 0.5545 0.0121
vn 0.9935 -0.1136 0.0121
vn 0.5774 -0.8155 -0.0385
vn -0.1416 -0.9892 -0.0385
vn 0.8229 -0.3780 0.4242
vn 0.1555 -0.9743 0.1628
vn -0.5774 0.8155 -0.0385
vn 0.1416 0.9892 -0.0385
vn -0.2012 0.9581 -0.2038
vn 0.6564 0.1407 -0.7412
vn 0.1815 -0.9795 0.0875
vn 0.6749 0.7095 0.2029
vn 0.1672 -0.9854 0.0304
vn -0.9968 -0.0534 -0.0593
vn -0.4782 0.8775 -0.0363
vn 0.8027 -0.1260 0.5829
vn -0.4507 0.8920 -0.0356
vn -0.6264 -0.5886 -0.5110
vn 0.3011 0.7031 0.6442
vn 0.5887 -0.4882 0.6442
vn -0.3193 -0.4423 0.8381
vn -0.4859 0.2478 0.8381
vn -0.9938 -0.1099 -0.0175
vn -0.2706 0.9620 0.0369
vn 0.9507 -0.2062 0.2317
vn 0.1636 0.9837 0.0750
vn 0.2116 -0.9328 0.2918
vn -0.9195 -0.0200 0.3926
vn 0.9880 -0.0219 -0.1526
vn -0.0908 0.9943 0.0559
vn -0.1797 0.9720 -0.1515
vn 0.5421 -0.8395 -0.0378
vn -0.5271 -0.3840 0.7581
vn 0.4869 -0.8727 -0.0365
vn -0.0762 -0.2799 0.9570
vn -0.2281 0.4194 0.8787
vn 0.7856 0.5648 0.2526
vn 0.9356 -0.1258 0.3300
vn 0.3071 -0.9113 0.2743
vn 0.9722 0.1811 -0.1481
vn 0.0351 0.9994 0.0058
vn -0.8905 -0.1534 0.4284
vn 0.5806 -0.8067 0.1102
vn -0.8067 -0.5806 0.1102
vn -0.5806 0.8067 0.1102
vn 0.8067 0.5806 0.1102
vn 0.0496 -0.0418 -0.9979
vn 0.7371 0.0929 0.6694
vn -0.0825 0.6544 0.7516
vn -0.6544 -0.0825 0.7516
vn 0.0929 -0.7371 0.6694
vn -0.0418 -0.0496 -0.9979
vn 0.0377 0.0528 -0.9979
vn 0.0528 -0.0377 -0.9979
vn 0.5689 0.5243 -0.6336
vn -0.6053 -0.3451 0.7173
vn 0.3622 0.9256 0.1102
vn -0.4949 0.8681 -0.0387
vn -0.9638 0.2639 -0.0387
vn -0.9256 0.3622 0.1102
vn 0.7421 -0.6586 0.1244
vn -0.3943 -0.7573 -0.5206
vn -0.3622 -0.9256 0.1102
vn 0.4949 -0.8681 -0.0387
vn 0.9638 -0.2639 -0.0387
vn 0.9256 -0.3622 0.1102
vn 0.9525 -0.3043 0.0121
vn 0.5312 -0.8472 0.0121
vn -0.3043 -0.9525 0.0121
vn -0.8472 -0.5312 0.0121
vn -0.9525 0.3043 0.0121
vn -0.5312 0.8472 0.0121
vn 0.3043 0.9525 0.0121
vn 0.8472 0.5312 0.0121
vn 0.9601 -0.2770 -0.0385
vn 0.5066 -0.8613 -0.0385
vn 0.8789 0.2181 0.4242
vn 0.7295 -0.6643 0.1628
vn -0.9601 0.2770 -0.0385
vn -0.5066 0.8613 -0.0385
vn -0.7551 0.6232 -0.2038
vn 0.4251 0.5195 -0.7412
vn 0.7530 -0.6521 0.0875
vn 0.0847 0.9755 0.2029
vn 0.7456 -0.6657 0.0304
vn -0.7456 -0.6637 -0.0593
vn -0.9212 0.3873 -0.0363
vn 0.7059 0.4024 0.5829
vn -0.9088 0.4158 -0.0356
vn -0.1222 -0.8508 -0.5110
vn -0.2035 0.7373 0.6442
vn 0.7647 -0.0141 0.6442
vn 0.0265 -0.5448 0.8381
vn -0.5343 -0.1096 0.8381
vn -0.7080 -0.7060 -0.0175
vn -0.8117 0.5829 0.0369
vn 0.8716 0.4321 0.2317
vn -0.4860 0.8707 0.0750
vn 0.7474 -0.5968 0.2918
vn -0.7060 -0.5894 0.3926
vn 0.7858 0.5994 -0.1526
vn -0.6914 0.7203 0.0559
vn -0.7469 0.6474 -0.1515
vn 0.9474 -0.3177 -0.0378
vn -0.1722 -0.6290 0.7581
vn 0.9250 -0.3781 -0.0365
vn 0.1151 -0.2663 0.9570
vn -0.4399 0.1854 0.8787
vn 0.2614 0.9316 0.2526
vn 0.8096 0.4855 0.3300
vn 0.8086 -0.5205 0.2743
vn 0.6467 0.7482 -0.1481
vn -0.5962 0.8028 0.0058
vn -0.6001 -0.6755 0.4284
vn 0.0000 -1.0000 0.0000
vn -1.0000 0.0000 0.0000
vn 0.0000 1.0000 0.0000
vn 1.0000 0.0000 0.0000
vn 0.0000 0.0000 -1.0000
vn 0.0000 0.0000 1.0000
usemtl Cactus
s off
f 26/1/1 4/2/1 12/3/1
f 25/4/2 8/5/2 15/6/2
f 24/7/3 6/8/3 18/9/3
f 23/10/4 2/11/4 10/12/4
f 22/13/5 5/14/5 19/15/5
f 11/16/6 20/17/6 21/18/6
f 17/19/7 20/17/7 6/8/7
f 14/20/8 17/19/8 8/5/8
f 14/20/9 11/16/9 21/18/9
f 22/13/10 1/21/10 9/22/10
f 3/23/11 22/13/11 9/22/11
f 7/24/12 22/13/12 13/25/12
f 31/26/13 65/27/13 30/28/13
f 23/10/14 59/29/14 60/30/14
f 6/8/15 23/10/15 18/9/15
f 24/7/16 38/31/16 39/32/16
f 37/33/17 24/7/17 39/32/17
f 8/5/18 24/7/18 15/6/18
f 36/34/19 45/35/19 27/36/19
f 33/37/20 47/38/20 28/39/20
f 4/2/21 25/4/21 12/3/21
f 26/1/22 36/34/22 40/40/22
f 35/41/23 26/1/23 40/40/23
f 2/42/24 26/1/24 10/43/24
f 1/44/25 34/45/25 9/46/25
f 34/45/26 3/47/26 9/46/26
f 3/47/27 33/37/27 13/48/27
f 33/37/28 7/24/28 13/48/28
f 7/24/29 32/49/29 16/50/29
f 32/49/30 5/14/30 16/50/30
f 5/14/31 31/26/31 19/51/31
f 31/26/32 1/52/32 19/51/32
f 30/53/33 40/40/33 34/45/33
f 40/40/34 27/36/34 34/45/34
f 25/4/35 43/54/35 12/3/35
f 12/3/36 44/55/36 36/34/36
f 28/39/37 39/32/37 32/49/37
f 39/32/38 29/56/38 32/49/38
f 18/9/39 62/57/39 38/31/39
f 29/56/40 64/58/40 31/26/40
f 44/55/41 51/59/41 52/60/41
f 41/61/42 50/62/42 49/63/42
f 44/55/43 53/64/43 45/35/43
f 48/65/44 55/66/44 47/38/44
f 15/6/45 46/67/45 42/68/45
f 25/4/46 42/68/46 41/61/46
f 37/33/47 47/38/47 46/67/47
f 33/37/48 45/35/48 48/65/48
f 56/69/49 50/62/49 54/70/49
f 51/59/50 56/69/50 52/60/50
f 52/60/51 57/71/51 53/64/51
f 57/71/52 54/70/52 55/66/52
f 48/65/53 53/64/53 57/71/53
f 46/67/54 55/66/54 54/70/54
f 41/61/55 51/59/55 43/54/55
f 46/67/56 50/62/56 42/68/56
f 58/72/57 67/73/57 59/74/57
f 60/30/58 69/75/58 61/76/58
f 64/58/59 74/77/59 65/27/59
f 62/57/60 69/75/60 70/78/60
f 38/31/61 63/79/61 29/56/61
f 10/43/62 58/72/62 59/74/62
f 18/9/63 60/30/63 61/76/63
f 35/41/64 65/80/64 58/72/64
f 68/81/65 66/82/65 72/83/65
f 70/78/66 68/81/66 72/83/66
f 70/78/67 73/84/67 71/85/67
f 73/84/68 66/82/68 74/77/68
f 58/72/69 74/86/69 66/87/69
f 64/58/70 71/85/70 73/84/70
f 62/57/71 71/85/71 63/79/71
f 60/30/72 67/88/72 68/81/72
f 100/89/73 78/90/73 86/91/73
f 99/92/74 82/93/74 89/94/74
f 98/95/75 80/96/75 92/97/75
f 97/98/76 76/99/76 84/100/76
f 96/101/77 79/102/77 93/103/77
f 85/104/78 94/105/78 95/106/78
f 91/107/79 94/105/79 80/96/79
f 88/108/80 91/107/80 82/93/80
f 88/108/81 85/104/81 95/106/81
f 96/101/82 75/109/82 83/110/82
f 77/111/83 96/101/83 83/110/83
f 81/112/84 96/101/84 87/113/84
f 105/114/85 139/115/85 104/116/85
f 97/98/86 133/117/86 134/118/86
f 80/96/87 97/98/87 92/97/87
f 98/95/88 112/119/88 113/120/88
f 111/121/89 98/95/89 113/120/89
f 82/93/90 98/95/90 89/94/90
f 110/122/91 119/123/91 101/124/91
f 107/125/92 121/126/92 102/127/92
f 78/90/93 99/92/93 86/91/93
f 100/89/94 110/122/94 114/128/94
f 109/129/95 100/89/95 114/128/95
f 76/130/96 100/89/96 84/131/96
f 75/132/97 108/133/97 83/134/97
f 108/133/98 77/135/98 83/134/98
f 77/135/99 107/125/99 87/136/99
f 107/125/100 81/112/100 87/136/100
f 81/112/101 106/137/101 90/138/101
f 106/137/102 79/102/102 90/138/102
f 79/102/103 105/114/103 93/139/103
f 105/114/104 75/140/104 93/139/104
f 104/141/105 114/128/105 108/133/105
f 114/128/106 101/124/106 108/133/106
f 99/92/107 117/142/107 86/91/107
f 86/91/108 118/143/108 110/122/108
f 102/127/109 113/120/109 106/137/109
f 113/120/110 103/144/110 106/137/110
f 92/97/111 136/145/111 112/119/111
f 103/144/112 138/146/112 105/114/112
f 118/143/113 125/147/113 126/148/113
f 115/149/114 124/150/114 123/151/114
f 118/143/115 127/152/115 119/123/115
f 122/153/116 129/154/116 121/126/116
f 89/94/117 120/155/117 116/156/117
f 99/92/118 116/156/118 115/149/118
f 111/121/119 121/126/119 120/155/119
f 107/125/120 119/123/120 122/153/120
f 130/157/121 124/150/121 128/158/121
f 125/147/122 130/157/122 126/148/122
f 126/148/123 131/159/123 127/152/123
f 131/159/124 128/158/124 129/154/124
f 122/153/125 127/152/125 131/159/125
f 120/155/126 129/154/126 128/158/126
f 115/149/127 125/147/127 117/142/127
f 120/155/128 124/150/128 116/156/128
f 132/160/129 141/161/129 133/162/129
f 134/118/130 143/163/130 135/164/130
f 138/146/131 148/165/131 139/115/131
f 136/145/132 143/163/132 144/166/132
f 112/119/133 137/167/133 103/144/133
f 84/131/134 132/160/134 133/162/134
f 92/97/135 134/118/135 135/164/135
f 109/129/136 139/168/136 132/160/136
f 142/169/137 140/170/137 146/171/137
f 144/166/138 142/169/138 146/171/138
f 144/166/139 147/172/139 145/173/139
f 147/172/140 140/170/140 148/165/140
f 132/160/141 148/174/141 140/175/141
f 138/146/142 145/173/142 147/172/142
f 136/145/143 145/173/143 137/167/143
f 134/118/144 141/176/144 142/169/144
f 26/1/145 11/177/145 4/2/145
f 25/4/146 14/178/146 8/5/146
f 24/7/147 17/19/147 6/8/147
f 23/10/148 20/179/148 2/11/148
f 22/13/149 16/50/149 5/14/149
f 11/16/150 2/180/150 20/17/150
f 17/19/151 21/18/151 20/17/151
f 14/20/152 21/18/152 17/19/152
f 14/20/153 4/181/153 11/16/153
f 22/13/154 19/15/154 1/21/154
f 3/23/155 13/25/155 22/13/155
f 7/24/156 16/50/156 22/13/156
f 31/26/157 64/58/157 65/27/157
f 23/10/158 10/12/158 59/29/158
f 6/8/159 20/179/159 23/10/159
f 24/7/160 18/9/160 38/31/160
f 37/33/161 15/6/161 24/7/161
f 8/5/162 17/19/162 24/7/162
f 36/34/163 44/55/163 45/35/163
f 33/37/164 48/65/164 47/38/164
f 4/2/165 14/178/165 25/4/165
f 26/1/166 12/3/166 36/34/166
f 35/41/167 10/43/167 26/1/167
f 2/42/168 11/177/168 26/1/168
f 1/44/169 30/53/169 34/45/169
f 34/45/170 27/36/170 3/47/170
f 3/47/171 27/36/171 33/37/171
f 33/37/172 28/39/172 7/24/172
f 7/24/173 28/39/173 32/49/173
f 32/49/174 29/56/174 5/14/174
f 5/14/175 29/56/175 31/26/175
f 31/26/176 30/28/176 1/52/176
f 30/53/177 35/41/177 40/40/177
f 40/40/178 36/34/178 27/36/178
f 25/4/179 41/61/179 43/54/179
f 12/3/180 43/54/180 44/55/180
f 28/39/181 37/33/181 39/32/181
f 39/32/182 38/31/182 29/56/182
f 18/9/183 61/76/183 62/57/183
f 29/56/184 63/79/184 64/58/184
f 44/55/185 43/54/185 51/59/185
f 41/61/186 42/68/186 50/62/186
f 44/55/187 52/60/187 53/64/187
f 48/65/188 57/71/188 55/66/188
f 15/6/189 37/33/189 46/67/189
f 25/4/190 15/6/190 42/68/190
f 37/33/191 28/39/191 47/38/191
f 33/37/192 27/36/192 45/35/192
f 56/69/193 49/63/193 50/62/193
f 51/59/194 49/63/194 56/69/194
f 52/60/195 56/69/195 57/71/195
f 57/71/196 56/69/196 54/70/196
f 48/65/197 45/35/197 53/64/197
f 46/67/198 47/38/198 55/66/198
f 41/61/199 49/63/199 51/59/199
f 46/67/200 54/70/200 50/62/200
f 58/72/201 66/87/201 67/73/201
f 60/30/202 68/81/202 69/75/202
f 64/58/203 73/84/203 74/77/203
f 62/57/204 61/76/204 69/75/204
f 38/31/205 62/57/205 63/79/205
f 10/43/206 35/41/206 58/72/206
f 18/9/207 23/10/207 60/30/207
f 35/41/208 30/53/208 65/80/208
f 68/81/209 67/88/209 66/82/209
f 70/78/210 69/75/210 68/81/210
f 70/78/211 72/83/211 73/84/211
f 73/84/212 72/83/212 66/82/212
f 58/72/213 65/80/213 74/86/213
f 64/58/214 63/79/214 71/85/214
f 62/57/215 70/78/215 71/85/215
f 60/30/216 59/29/216 67/88/216
f 100/89/217 85/182/217 78/90/217
f 99/92/218 88/183/218 82/93/218
f 98/95/219 91/107/219 80/96/219
f 97/98/220 94/184/220 76/99/220
f 96/101/221 90/138/221 79/102/221
f 85/104/222 76/185/222 94/105/222
f 91/107/223 95/106/223 94/105/223
f 88/108/224 95/106/224 91/107/224
f 88/108/225 78/186/225 85/104/225
f 96/101/226 93/103/226 75/109/226
f 77/111/227 87/113/227 96/101/227
f 81/112/228 90/138/228 96/101/228
f 105/114/229 138/146/229 139/115/229
f 97/98/230 84/100/230 133/117/230
f 80/96/231 94/184/231 97/98/231
f 98/95/232 92/97/232 112/119/232
f 111/121/233 89/94/233 98/95/233
f 82/93/234 91/107/234 98/95/234
f 110/122/235 118/143/235 119/123/235
f 107/125/236 122/153/236 121/126/236
f 78/90/237 88/183/237 99/92/237
f 100/89/238 86/91/238 110/122/238
f 109/129/239 84/131/239 100/89/239
f 76/130/240 85/182/240 100/89/240
f 75/132/241 104/141/241 108/133/241
f 108/133/242 101/124/242 77/135/242
f 77/135/243 101/124/243 107/125/243
f 107/125/244 102/127/244 81/112/244
f 81/112/245 102/127/245 106/137/245
f 106/137/246 103/144/246 79/102/246
f 79/102/247 103/144/247 105/114/247
f 105/114/248 104/116/248 75/140/248
f 104/141/249 109/129/249 114/128/249
f 114/128/250 110/122/250 101/124/250
f 99/92/251 115/149/251 117/142/251
f 86/91/252 117/142/252 118/143/252
f 102/127/253 111/121/253 113/120/253
f 113/120/254 112/119/254 103/144/254
f 92/97/255 135/164/255 136/145/255
f 103/144/256 137/167/256 138/146/256
f 118/143/257 117/142/257 125/147/257
f 115/149/258 116/156/258 124/150/258
f 118/143/259 126/148/259 127/152/259
f 122/153/260 131/159/260 129/154/260
f 89/94/261 111/121/261 120/155/261
f 99/92/262 89/94/262 116/156/262
f 111/121/263 102/127/263 121/126/263
f 107/125/264 101/124/264 119/123/264
f 130/157/265 123/151/265 124/150/265
f 125/147/266 123/151/266 130/157/266
f 126/148/267 130/157/267 131/159/267
f 131/159/268 130/157/268 128/158/268
f 122/153/269 119/123/269 127/152/269
f 120/155/270 121/126/270 129/154/270
f 115/149/271 123/151/271 125/147/271
f 120/155/272 128/158/272 124/150/272
f 132/160/273 140/175/273 141/161/273
f 134/118/274 142/169/274 143/163/274
f 138/146/275 147/172/275 148/165/275
f 136/145/276 135/164/276 143/163/276
f 112/119/277 136/145/277 137/167/277
f 84/131/278 109/129/278 132/160/278
f 92/97/279 97/98/279 134/118/279
f 109/129/280 104/141/280 139/168/280
f 142/169/281 141/176/281 140/170/281
f 144/166/282 143/163/282 142/169/282
f 144/166/283 146/171/283 147/172/283
f 147/172/284 146/171/284 140/170/284
f 132/160/285 139/168/285 148/174/285
f 138/146/286 137/167/286 145/173/286
f 136/145/287 144/166/287 145/173/287
f 134/118/288 133/117/288 141/176/288
usemtl White
f 150/187/289 151/188/289 149/189/289
f 152/190/290 155/191/290 151/188/290
f 156/192/291 153/193/291 155/191/291
f 154/194/292 149/195/292 153/193/292
f 151/196/293 153/193/293 149/197/293
f 152/198/294 154/194/294 156/192/294
f 150/187/289 152/190/289 151/188/289
f 152/190/290 156/192/290 155/191/290
f 156/192/291 154/194/291 153/193/291
f 154/194/292 150/199/292 149/195/292
f 151/196/293 155/191/293 153/193/293
f 152/198/294 150/200/294 154/194/294
