# Blender v2.80 (sub 75) OBJ File: 'game_assets.blend'
# www.blender.org
mtllib dead_tree.mtl
o Dead_Tree.004_Cylinder.021
v 0.144323 -0.467777 -0.005074
v 0.140709 -0.457590 0.167051
v 0.085167 -0.450292 -0.005074
v 0.093739 -0.443707 0.167051
v 0.083516 -0.388629 -0.005074
v 0.092428 -0.394746 0.167051
v 0.141652 -0.368003 -0.005074
v 0.138587 -0.378370 0.167051
v 0.179232 -0.416920 -0.005074
v 0.168426 -0.417209 0.167051
v 0.090624 -0.446100 0.416303
v 0.138466 -0.448642 0.416303
v 0.089189 -0.392523 0.416303
v 0.141924 -0.380869 0.421951
v 0.179793 -0.413473 0.405144
v 0.024686 -0.458413 0.711028
v 0.032764 -0.460800 0.711028
v 0.024461 -0.449993 0.711028
v 0.032399 -0.447177 0.711028
v 0.037530 -0.453856 0.711028
v 0.139909 -0.424467 0.542964
v 0.118663 -0.456156 0.536327
v 0.080905 -0.406322 0.532226
v 0.116572 -0.393667 0.540429
v 0.082197 -0.444942 0.529691
v 0.142022 -0.461292 0.045822
v 0.090624 -0.446100 0.045822
v 0.089189 -0.392523 0.045822
v 0.139701 -0.374602 0.045822
v 0.172353 -0.417104 0.045822
v 0.130343 -0.458724 0.476315
v 0.128137 -0.384135 0.478366
v 0.086410 -0.445521 0.472997
v 0.160524 -0.419227 0.500914
v 0.085047 -0.399422 0.474264
v 0.341582 -0.422007 0.559924
v 0.341847 -0.416835 0.558250
v 0.340418 -0.427396 0.560987
v 0.334836 -0.425006 0.565825
v 0.335893 -0.415848 0.563653
v 0.335175 -0.420274 0.564920
v 0.270900 -0.431461 0.488043
v 0.273914 -0.410900 0.504825
v 0.269533 -0.385254 0.489313
v 0.293675 -0.405684 0.450866
v 0.265847 -0.426359 0.458972
v 0.267841 -0.385251 0.459564
v 0.172353 -0.417104 0.346125
v 0.142022 -0.461292 0.346125
v 0.090624 -0.446100 0.346125
v 0.085889 -0.398838 0.356649
v 0.139701 -0.374602 0.346125
v -0.152062 -0.341756 0.471691
v -0.151633 -0.348538 0.472709
v -0.156127 -0.343198 0.463796
v -0.155698 -0.349980 0.464814
v -0.064245 -0.364711 0.417580
v -0.063427 -0.395271 0.417580
v -0.065186 -0.390311 0.385862
v -0.064058 -0.365238 0.385806
v 0.142022 -0.461292 0.290787
v 0.090624 -0.446100 0.290787
v 0.139701 -0.374602 0.290787
v 0.172353 -0.417104 0.290787
v 0.089189 -0.392523 0.290787
v 0.078351 -0.616037 0.402768
v 0.071104 -0.614935 0.402887
v 0.077780 -0.619046 0.395847
v 0.070533 -0.617944 0.395965
v 0.104658 -0.552778 0.344106
v 0.104658 -0.552778 0.309211
v 0.072247 -0.543199 0.309211
v 0.072247 -0.543199 0.344106
v 0.114745 -0.459035 -0.005074
v 0.116569 -0.456271 0.167051
v 0.116323 -0.453696 0.416303
v 0.028725 -0.459607 0.711028
v 0.100430 -0.450549 0.533009
v 0.115748 -0.457676 0.045822
v 0.108377 -0.452122 0.474656
v 0.112330 -0.462740 0.361524
v 0.112649 -0.469306 0.280752
v 0.074727 -0.615486 0.402828
v 0.074156 -0.618495 0.395906
v 0.088453 -0.547989 0.352100
v 0.088453 -0.547989 0.305494
v 0.118511 -0.430609 0.578090
v 0.069108 -0.415449 0.569597
v 0.100710 -0.457127 0.572841
v 0.098980 -0.404851 0.576085
v 0.070177 -0.447757 0.567591
v 0.085443 -0.452442 0.570216
v 0.056090 -0.339382 0.592485
v 0.057231 -0.335753 0.590871
v 0.052157 -0.335346 0.589954
v 0.051946 -0.340258 0.593513
v 0.063183 -0.365434 0.552997
v 0.082110 -0.358719 0.556067
v 0.058396 -0.370036 0.570565
v 0.073804 -0.364570 0.574378
v 0.112584 -0.378316 -0.005074
v 0.115508 -0.386558 0.167051
v 0.114445 -0.383563 0.416303
v 0.028430 -0.448585 0.711028
v 0.097699 -0.397064 0.532010
v 0.114445 -0.383563 0.045822
v 0.106592 -0.391779 0.476315
v 0.114445 -0.383563 0.346125
v 0.114445 -0.383563 0.290787
v 0.082543 -0.405920 0.581688
v 0.054355 -0.333751 0.591699
v 0.053443 -0.339081 0.594789
v 0.065027 -0.367684 0.577605
v 0.073662 -0.361716 0.551016
v 0.084341 -0.419461 -0.005074
v 0.090240 -0.419628 0.167051
v 0.074743 -0.416433 0.431270
v 0.024574 -0.454203 0.711028
v 0.081551 -0.425632 0.530959
v 0.089907 -0.419311 0.045822
v 0.085729 -0.422472 0.473631
v 0.080677 -0.422586 0.340083
v -0.151847 -0.345147 0.472200
v -0.155913 -0.346589 0.464305
v -0.063836 -0.379991 0.377551
v -0.063836 -0.379991 0.427157
v 0.086859 -0.420393 0.260210
v 0.069642 -0.431603 0.568594
v 0.023906 0.385190 -0.009109
v 0.019361 0.366326 0.299858
v 0.095751 0.300936 -0.009109
v 0.076406 0.299429 0.299858
v 0.037822 0.206571 -0.009109
v 0.030411 0.224504 0.299858
v -0.069825 0.232505 -0.009109
v -0.055061 0.245095 0.299858
v -0.078426 0.342897 -0.009109
v -0.061889 0.332746 0.299858
v 0.083436 0.299976 0.747268
v 0.013968 0.350672 0.747268
v 0.033104 0.217987 0.747268
v -0.057631 0.252122 0.757407
v -0.082647 0.338262 0.727238
v 0.194674 0.253897 1.276304
v 0.184864 0.265401 1.276304
v 0.186765 0.241012 1.276304
v 0.172066 0.244553 1.276304
v 0.170892 0.259626 1.276304
v -0.011886 0.315723 0.974626
v 0.051114 0.342572 0.962714
v 0.059084 0.230625 0.955352
v -0.006961 0.246536 0.970076
v 0.094976 0.289978 0.950802
v 0.021013 0.373181 0.082250
v 0.083436 0.299976 0.082250
v 0.033104 0.217987 0.082250
v -0.060426 0.240520 0.082250
v -0.067899 0.336435 0.082250
v 0.036064 0.357876 0.854991
v -0.033694 0.243527 0.858672
v 0.089206 0.294977 0.849035
v -0.048028 0.328039 0.899147
v 0.046094 0.224306 0.851310
v -0.317628 0.509603 1.005069
v -0.323093 0.502084 1.002066
v -0.310598 0.516567 1.006978
v -0.304544 0.507505 1.015663
v -0.315105 0.494766 1.011763
v -0.309689 0.500720 1.014037
v -0.202054 0.454576 0.876043
v -0.226731 0.426603 0.906166
v -0.245268 0.383738 0.878323
v -0.261564 0.438117 0.809310
v -0.199454 0.441951 0.823860
v -0.242726 0.382075 0.824923
v -0.067899 0.336435 0.621298
v 0.021013 0.373181 0.621298
v 0.083436 0.299976 0.621298
v 0.044255 0.224252 0.640190
v -0.060426 0.240519 0.621298
v 0.346227 -0.094725 0.846690
v 0.352226 -0.084105 0.848518
v 0.353755 -0.096538 0.832518
v 0.359754 -0.085918 0.834346
v 0.236634 0.025835 0.749560
v 0.265342 0.072601 0.749560
v 0.263130 0.063417 0.692627
v 0.236869 0.026812 0.692525
v 0.021013 0.373181 0.521967
v 0.083436 0.299976 0.521967
v -0.060426 0.240519 0.521967
v -0.067899 0.336435 0.521967
v 0.033104 0.217987 0.521967
v 0.268384 0.543550 0.722974
v 0.278203 0.534793 0.723187
v 0.272191 0.547517 0.710550
v 0.282010 0.538760 0.710763
v 0.166841 0.474178 0.617674
v 0.166841 0.474178 0.555038
v 0.206204 0.428017 0.555038
v 0.206204 0.428017 0.617674
v 0.059828 0.343063 -0.009109
v 0.054377 0.340692 0.299858
v 0.052224 0.336579 0.747268
v 0.189769 0.259649 1.276304
v 0.073045 0.316275 0.956758
v 0.056988 0.342002 0.082250
v 0.062635 0.326427 0.852013
v 0.067091 0.346270 0.648940
v 0.073044 0.356457 0.503953
v 0.273293 0.539172 0.723080
v 0.277100 0.543138 0.710656
v 0.186522 0.451097 0.632023
v 0.186522 0.451097 0.548365
v 0.026315 0.303998 1.037678
v 0.085769 0.232796 1.022432
v 0.079069 0.326443 1.028256
v 0.030456 0.246121 1.034079
v 0.115813 0.282437 1.018833
v 0.097441 0.304440 1.023544
v 0.030826 0.105631 1.063518
v 0.025554 0.101290 1.060621
v 0.032787 0.095708 1.058975
v 0.037916 0.102888 1.065363
v 0.045681 0.151764 0.992636
v 0.010634 0.160208 0.998147
v 0.057389 0.153997 1.024171
v 0.028860 0.160870 1.031014
v -0.016002 0.219538 -0.009109
v -0.012325 0.234799 0.299858
v -0.013661 0.229253 0.747268
v 0.179415 0.242782 1.276304
v 0.024754 0.233153 0.954963
v -0.013661 0.229253 0.082250
v 0.006200 0.233917 0.854991
v -0.013661 0.229253 0.621298
v -0.013661 0.229253 0.521967
v 0.056226 0.231626 1.044137
v 0.027918 0.095462 1.062107
v 0.034512 0.102585 1.067654
v 0.045111 0.156955 1.036807
v 0.026277 0.156439 0.989081
v 0.066787 0.253753 -0.009109
v 0.058079 0.259784 0.299858
v 0.078257 0.239796 0.774135
v 0.190719 0.247454 1.276304
v 0.077030 0.260301 0.953077
v 0.058270 0.258982 0.082250
v 0.067650 0.259642 0.850173
v 0.075359 0.254865 0.610452
v 0.349227 -0.089415 0.847604
v 0.356755 -0.091228 0.833432
v 0.250988 0.049218 0.677709
v 0.250988 0.049218 0.766752
v 0.063914 0.257622 0.467079
v 0.100791 0.257616 1.020633
v -0.409336 -0.158053 -0.006288
v -0.399525 -0.148933 0.207003
v -0.418535 -0.082170 -0.006288
v -0.406829 -0.088682 0.207003
v -0.349208 -0.049971 -0.006288
v -0.351784 -0.063116 0.207003
v -0.297163 -0.105955 -0.006288
v -0.310460 -0.107567 0.207003
v -0.334323 -0.172753 -0.006288
v -0.339966 -0.160604 0.207003
v -0.411083 -0.086315 0.515868
v -0.390450 -0.141983 0.515868
v -0.350848 -0.058339 0.515868
v -0.311662 -0.112591 0.522867
v -0.330127 -0.171696 0.502040
v -0.457510 -0.017370 0.881082
v -0.456254 -0.027731 0.881082
v -0.448044 -0.012973 0.881082
v -0.440938 -0.020618 0.881082
v -0.446012 -0.029738 0.881082
v -0.362243 -0.131736 0.672822
v -0.408734 -0.123153 0.664598
v -0.370617 -0.055701 0.659516
v -0.338686 -0.090048 0.669681
v -0.413909 -0.076161 0.656375
v -0.403090 -0.152247 0.056781
v -0.411083 -0.086315 0.056781
v -0.350848 -0.058339 0.056781
v -0.305628 -0.106981 0.056781
v -0.337915 -0.165019 0.056781
v -0.405912 -0.137700 0.590233
v -0.322157 -0.098515 0.592774
v -0.412496 -0.081238 0.586121
v -0.346146 -0.152609 0.620716
v -0.360733 -0.057020 0.587692
v -0.260281 -0.359916 0.693838
v -0.254269 -0.357675 0.691764
v -0.266983 -0.361242 0.695155
v -0.267009 -0.353718 0.701151
v -0.256073 -0.350417 0.698459
v -0.261461 -0.351777 0.700029
v -0.305790 -0.284169 0.604766
v -0.280921 -0.277487 0.625561
v -0.253904 -0.259894 0.606340
v -0.265271 -0.297399 0.558698
v -0.302470 -0.275913 0.568742
v -0.254733 -0.257968 0.569476
v -0.337915 -0.165019 0.428906
v -0.403090 -0.152247 0.428906
v -0.411083 -0.086315 0.428906
v -0.359654 -0.057690 0.441948
v -0.305628 -0.106981 0.428906
v -0.411729 0.241030 0.584503
v -0.419232 0.237208 0.585764
v -0.415369 0.244945 0.574719
v -0.422871 0.241123 0.575981
v -0.394659 0.129857 0.517450
v -0.429016 0.113900 0.517450
v -0.424240 0.118341 0.478147
v -0.395167 0.129385 0.478077
v -0.403090 -0.152247 0.360334
v -0.411083 -0.086315 0.360334
v -0.305628 -0.106981 0.360334
v -0.337915 -0.165019 0.360334
v -0.350848 -0.058339 0.360334
v -0.610410 -0.155914 0.499097
v -0.612719 -0.147130 0.499244
v -0.614114 -0.156744 0.490520
v -0.616423 -0.147960 0.490667
v -0.525522 -0.154732 0.426404
v -0.525522 -0.154732 0.383164
v -0.530562 -0.113157 0.383164
v -0.530562 -0.113157 0.426404
v -0.413935 -0.120111 -0.006288
v -0.409894 -0.120827 0.207003
v -0.407087 -0.119281 0.515868
v -0.456882 -0.022550 0.881082
v -0.411322 -0.099657 0.660487
v -0.411896 -0.120584 0.056781
v -0.409204 -0.109469 0.588177
v -0.419337 -0.119186 0.447988
v -0.426648 -0.122777 0.347898
v -0.611564 -0.151522 0.499170
v -0.615268 -0.152352 0.490593
v -0.528042 -0.133945 0.436310
v -0.528042 -0.133945 0.378557
v -0.379751 -0.110418 0.716349
v -0.386800 -0.046771 0.705824
v -0.418666 -0.103209 0.709844
v -0.360057 -0.075537 0.713864
v -0.423022 -0.063873 0.703340
v -0.420844 -0.083541 0.706592
v -0.306679 0.005439 0.734187
v -0.301990 0.005926 0.732187
v -0.304023 0.011896 0.731051
v -0.309713 0.009722 0.735461
v -0.332824 -0.015439 0.685255
v -0.315880 -0.033665 0.689059
v -0.340412 -0.012257 0.707024
v -0.326619 -0.027094 0.711749
v -0.323185 -0.077963 -0.006288
v -0.331122 -0.085342 0.207003
v -0.328238 -0.082660 0.515868
v -0.444491 -0.016795 0.881082
v -0.351829 -0.070251 0.659248
v -0.328238 -0.082660 0.056781
v -0.341445 -0.077767 0.590233
v -0.328238 -0.082660 0.428906
v -0.328238 -0.082660 0.360334
v -0.369355 -0.057367 0.720808
v -0.301127 0.010181 0.733213
v -0.307639 0.008598 0.737042
v -0.334476 -0.018643 0.715748
v -0.323443 -0.025530 0.682800
v -0.383872 -0.066070 -0.006288
v -0.381162 -0.072862 0.207003
v -0.385148 -0.053664 0.534415
v -0.452777 -0.015172 0.881082
v -0.392263 -0.065931 0.657946
v -0.380966 -0.072327 0.056781
v -0.386614 -0.069129 0.586907
v -0.389228 -0.063440 0.421419
v -0.415480 0.239119 0.585133
v -0.419120 0.243034 0.575350
v -0.411837 0.121879 0.467848
v -0.411837 0.121879 0.529318
v -0.383694 -0.069392 0.322443
v -0.404911 -0.055322 0.704582
vt 0.900000 0.606618
vt 0.800000 1.000000
vt 0.800000 0.606618
vt 0.700000 0.606618
vt 0.600000 1.000000
vt 0.600000 0.606618
vt 0.500000 0.606618
vt 0.400000 1.000000
vt 0.400000 0.606618
vt 0.200000 1.000000
vt 0.000000 1.000000
vt 0.000000 1.000000
vt 0.200000 0.606618
vt 0.200000 1.000000
vt 0.000000 0.606618
vt 0.000000 1.000000
vt 0.200000 1.000000
vt 0.000000 1.000000
vt 0.900000 1.000000
vt 1.000000 1.000000
vt 0.900000 1.000000
vt 0.600000 1.000000
vt 0.500000 1.000000
vt 0.500000 1.000000
vt 0.400000 1.000000
vt 0.200000 1.000000
vt 0.600000 1.000000
vt 0.700000 1.000000
vt 0.700000 1.000000
vt 0.364127 0.407082
vt 0.021746 0.324164
vt 0.250000 0.055836
vt 0.600000 1.000000
vt 0.500000 1.000000
vt 0.500000 1.000000
vt 0.900000 1.000000
vt 1.000000 1.000000
vt 0.900000 1.000000
vt 0.400000 1.000000
vt 0.200000 1.000000
vt 0.800000 1.000000
vt 0.700000 1.000000
vt 0.700000 1.000000
vt 0.700000 1.000000
vt 0.800000 1.000000
vt 0.700000 1.000000
vt 0.200000 1.000000
vt 0.400000 1.000000
vt 0.200000 1.000000
vt 0.900000 1.000000
vt 1.000000 1.000000
vt 0.900000 1.000000
vt 0.600000 1.000000
vt 0.500000 1.000000
vt 0.500000 1.000000
vt 0.000000 1.000000
vt 0.000000 1.000000
vt 0.000000 0.500000
vt 0.200000 0.500000
vt 0.400000 0.500000
vt 0.500000 0.500000
vt 0.700000 0.500000
vt 0.600000 0.500000
vt 0.900000 0.500000
vt 0.800000 0.500000
vt 0.200000 1.000000
vt 0.400000 1.000000
vt 0.400000 1.000000
vt 0.600000 1.000000
vt 1.000000 1.000000
vt 0.000000 1.000000
vt 0.200000 1.000000
vt 0.700000 1.000000
vt 0.800000 1.000000
vt 0.200000 1.000000
vt 0.000000 1.000000
vt 0.000000 1.000000
vt 0.400000 1.000000
vt 0.400000 1.000000
vt 1.000000 1.000000
vt 1.000000 1.000000
vt 1.000000 1.000000
vt 0.200000 1.000000
vt 1.000000 1.000000
vt 0.400000 1.000000
vt 0.400000 1.000000
vt 0.000000 1.000000
vt 0.800000 1.000000
vt 0.700000 1.000000
vt 0.700000 1.000000
vt 0.400000 1.000000
vt 0.200000 1.000000
vt 0.600000 1.000000
vt 0.500000 1.000000
vt 0.000000 1.000000
vt 0.000000 1.000000
vt 0.000000 1.000000
vt 0.000000 1.000000
vt 0.800000 1.000000
vt 0.700000 1.000000
vt 0.800000 1.000000
vt 0.800000 1.000000
vt 0.600000 1.000000
vt 0.600000 1.000000
vt 0.700000 1.000000
vt 0.600000 1.000000
vt 0.800000 1.000000
vt 0.800000 1.000000
vt 0.000000 1.000000
vt 1.000000 1.000000
vt 0.900000 1.000000
vt 0.900000 1.000000
vt 0.500000 1.000000
vt 0.700000 1.000000
vt 0.900000 1.000000
vt 1.000000 1.000000
vt 0.900000 1.000000
vt 0.800000 1.000000
vt 0.800000 1.000000
vt 0.800000 1.000000
vt 1.000000 1.000000
vt 0.900000 1.000000
vt 0.900000 1.000000
vt 0.800000 1.000000
vt 1.000000 1.000000
vt 1.000000 1.000000
vt 1.000000 0.606618
vt 1.000000 0.500000
vt 0.800000 1.000000
vt 1.000000 1.000000
vt 0.500000 1.000000
vt 0.600000 1.000000
vt 0.500000 1.000000
vt 0.500000 1.000000
vt 0.600000 1.000000
vt 0.600000 1.000000
vt 0.500000 1.000000
vt 0.400000 1.000000
vt 0.400000 1.000000
vt 0.400000 1.000000
vt 0.400000 1.000000
vt 0.600000 1.000000
vt 0.600000 1.000000
vt 0.400000 1.000000
vt 0.600000 1.000000
vt 0.800000 1.000000
vt 0.900000 0.606618
vt 0.800000 1.000000
vt 0.800000 0.606618
vt 0.700000 0.606618
vt 0.600000 1.000000
vt 0.600000 0.606618
vt 0.500000 0.606618
vt 0.400000 1.000000
vt 0.400000 0.606618
vt 0.200000 1.000000
vt 0.000000 1.000000
vt 0.000000 1.000000
vt 0.200000 0.606618
vt 0.000000 1.000000
vt 0.000000 0.606618
vt 0.000000 1.000000
vt 0.200000 1.000000
vt 0.000000 1.000000
vt 0.900000 1.000000
vt 1.000000 1.000000
vt 0.900000 1.000000
vt 0.600000 1.000000
vt 0.500000 1.000000
vt 0.500000 1.000000
vt 0.400000 1.000000
vt 0.200000 1.000000
vt 0.600000 1.000000
vt 0.700000 1.000000
vt 0.700000 1.000000
vt 0.364127 0.407082
vt 0.021746 0.324164
vt 0.250000 0.055836
vt 0.600000 1.000000
vt 0.500000 1.000000
vt 0.500000 1.000000
vt 0.900000 1.000000
vt 1.000000 1.000000
vt 0.900000 1.000000
vt 0.400000 1.000000
vt 0.200000 1.000000
vt 0.800000 1.000000
vt 0.700000 1.000000
vt 0.700000 1.000000
vt 0.700000 1.000000
vt 0.800000 1.000000
vt 0.700000 1.000000
vt 0.200000 1.000000
vt 0.400000 1.000000
vt 0.200000 1.000000
vt 0.900000 1.000000
vt 1.000000 1.000000
vt 0.900000 1.000000
vt 0.600000 1.000000
vt 0.500000 1.000000
vt 0.500000 1.000000
vt 0.000000 1.000000
vt 0.000000 1.000000
vt 0.000000 0.500000
vt 0.200000 0.500000
vt 0.400000 0.500000
vt 0.500000 0.500000
vt 0.700000 0.500000
vt 0.600000 0.500000
vt 0.900000 0.500000
vt 0.800000 0.500000
vt 0.200000 1.000000
vt 0.400000 1.000000
vt 0.400000 1.000000
vt 0.600000 1.000000
vt 1.000000 1.000000
vt 0.000000 1.000000
vt 0.200000 1.000000
vt 0.700000 1.000000
vt 0.800000 1.000000
vt 0.200000 1.000000
vt 0.000000 1.000000
vt 0.000000 1.000000
vt 0.400000 1.000000
vt 0.400000 1.000000
vt 1.000000 1.000000
vt 1.000000 1.000000
vt 1.000000 1.000000
vt 0.200000 1.000000
vt 1.000000 1.000000
vt 0.400000 1.000000
vt 0.400000 1.000000
vt 0.000000 1.000000
vt 0.800000 1.000000
vt 0.700000 1.000000
vt 0.700000 1.000000
vt 0.400000 1.000000
vt 0.200000 1.000000
vt 0.600000 1.000000
vt 0.500000 1.000000
vt 0.000000 1.000000
vt 0.000000 1.000000
vt 0.000000 1.000000
vt 0.000000 1.000000
vt 0.800000 1.000000
vt 0.700000 1.000000
vt 0.800000 1.000000
vt 0.800000 1.000000
vt 0.600000 1.000000
vt 0.600000 1.000000
vt 0.700000 1.000000
vt 0.600000 1.000000
vt 0.800000 1.000000
vt 0.800000 1.000000
vt 0.200000 1.000000
vt 1.000000 1.000000
vt 0.900000 1.000000
vt 0.900000 1.000000
vt 0.500000 1.000000
vt 0.700000 1.000000
vt 1.000000 1.000000
vt 0.900000 1.000000
vt 0.900000 1.000000
vt 0.800000 1.000000
vt 0.800000 1.000000
vt 0.800000 1.000000
vt 1.000000 1.000000
vt 0.900000 1.000000
vt 0.900000 1.000000
vt 0.800000 1.000000
vt 1.000000 1.000000
vt 1.000000 1.000000
vt 1.000000 1.000000
vt 1.000000 0.606618
vt 1.000000 0.500000
vt 0.800000 1.000000
vt 1.000000 1.000000
vt 0.500000 1.000000
vt 0.600000 1.000000
vt 0.500000 1.000000
vt 0.500000 1.000000
vt 0.600000 1.000000
vt 0.600000 1.000000
vt 0.500000 1.000000
vt 0.400000 1.000000
vt 0.400000 1.000000
vt 0.400000 1.000000
vt 0.400000 1.000000
vt 0.600000 1.000000
vt 0.600000 1.000000
vt 0.400000 1.000000
vt 0.600000 1.000000
vt 0.800000 1.000000
vt 0.900000 0.606618
vt 0.800000 1.000000
vt 0.800000 0.606618
vt 0.700000 0.606618
vt 0.600000 1.000000
vt 0.600000 0.606618
vt 0.500000 0.606618
vt 0.400000 1.000000
vt 0.400000 0.606618
vt 0.200000 1.000000
vt 0.000000 1.000000
vt 0.000000 1.000000
vt 0.200000 1.000000
vt 0.200000 0.606618
vt 0.000000 1.000000
vt 0.000000 0.606618
vt 0.000000 1.000000
vt 0.200000 1.000000
vt 0.000000 1.000000
vt 0.900000 1.000000
vt 1.000000 1.000000
vt 0.900000 1.000000
vt 0.600000 1.000000
vt 0.500000 1.000000
vt 0.500000 1.000000
vt 0.400000 1.000000
vt 0.200000 1.000000
vt 0.600000 1.000000
vt 0.700000 1.000000
vt 0.700000 1.000000
vt 0.364127 0.407082
vt 0.021746 0.324164
vt 0.250000 0.055836
vt 0.600000 1.000000
vt 0.500000 1.000000
vt 0.500000 1.000000
vt 0.900000 1.000000
vt 1.000000 1.000000
vt 0.900000 1.000000
vt 0.400000 1.000000
vt 0.200000 1.000000
vt 0.800000 1.000000
vt 0.700000 1.000000
vt 0.700000 1.000000
vt 0.700000 1.000000
vt 0.800000 1.000000
vt 0.700000 1.000000
vt 0.200000 1.000000
vt 0.400000 1.000000
vt 0.200000 1.000000
vt 0.900000 1.000000
vt 1.000000 1.000000
vt 0.900000 1.000000
vt 0.600000 1.000000
vt 0.500000 1.000000
vt 0.500000 1.000000
vt 0.000000 1.000000
vt 0.000000 1.000000
vt 0.000000 0.500000
vt 0.200000 0.500000
vt 0.400000 0.500000
vt 0.500000 0.500000
vt 0.700000 0.500000
vt 0.600000 0.500000
vt 0.900000 0.500000
vt 0.800000 0.500000
vt 0.200000 1.000000
vt 0.400000 1.000000
vt 0.400000 1.000000
vt 0.600000 1.000000
vt 1.000000 1.000000
vt 0.000000 1.000000
vt 0.200000 1.000000
vt 0.700000 1.000000
vt 0.800000 1.000000
vt 0.200000 1.000000
vt 0.000000 1.000000
vt 0.000000 1.000000
vt 0.400000 1.000000
vt 0.400000 1.000000
vt 1.000000 1.000000
vt 1.000000 1.000000
vt 1.000000 1.000000
vt 0.200000 1.000000
vt 1.000000 1.000000
vt 0.400000 1.000000
vt 0.400000 1.000000
vt 0.000000 1.000000
vt 0.800000 1.000000
vt 0.700000 1.000000
vt 0.700000 1.000000
vt 0.400000 1.000000
vt 0.200000 1.000000
vt 0.600000 1.000000
vt 0.500000 1.000000
vt 0.000000 1.000000
vt 0.000000 1.000000
vt 0.000000 1.000000
vt 0.000000 1.000000
vt 0.800000 1.000000
vt 0.700000 1.000000
vt 0.800000 1.000000
vt 0.800000 1.000000
vt 0.600000 1.000000
vt 0.600000 1.000000
vt 0.700000 1.000000
vt 0.600000 1.000000
vt 0.800000 1.000000
vt 0.800000 1.000000
vt 1.000000 1.000000
vt 0.900000 1.000000
vt 0.900000 1.000000
vt 0.500000 1.000000
vt 0.700000 1.000000
vt 1.000000 1.000000
vt 0.900000 1.000000
vt 0.900000 1.000000
vt 0.800000 1.000000
vt 0.800000 1.000000
vt 0.800000 1.000000
vt 1.000000 1.000000
vt 0.900000 1.000000
vt 0.900000 1.000000
vt 0.800000 1.000000
vt 1.000000 1.000000
vt 1.000000 1.000000
vt 1.000000 1.000000
vt 1.000000 0.606618
vt 1.000000 0.500000
vt 0.800000 1.000000
vt 1.000000 1.000000
vt 0.500000 1.000000
vt 0.600000 1.000000
vt 0.500000 1.000000
vt 0.500000 1.000000
vt 0.600000 1.000000
vt 0.600000 1.000000
vt 0.500000 1.000000
vt 0.400000 1.000000
vt 0.400000 1.000000
vt 0.400000 1.000000
vt 0.400000 1.000000
vt 0.600000 1.000000
vt 0.600000 1.000000
vt 0.400000 1.000000
vt 0.600000 1.000000
vt 0.800000 1.000000
vt 0.434661 0.190000
vt 0.478254 0.324164
vt 0.250000 0.490000
vt 0.108932 0.055836
vt 0.391068 0.055836
vt 0.000000 1.000000
vt 1.000000 1.000000
vt 1.000000 1.000000
vt 0.434661 0.190000
vt 0.478254 0.324164
vt 0.250000 0.490000
vt 0.108932 0.055836
vt 0.391068 0.055836
vt 0.000000 1.000000
vt 1.000000 1.000000
vt 0.434661 0.190000
vt 0.478254 0.324164
vt 0.250000 0.490000
vt 0.108932 0.055836
vt 0.391068 0.055836
vt 0.000000 1.000000
vt 1.000000 1.000000
vn -0.4183 -0.9079 0.0287
vn -0.9993 -0.0268 0.0262
vn -0.3342 0.9421 0.0262
vn 0.8161 -0.5602 0.1423
vn 0.7927 0.6090 0.0262
vn 0.8242 -0.5657 0.0262
vn 0.7680 -0.5272 0.3636
vn 0.2202 -0.9649 0.1433
vn -0.4717 0.8818 0.0000
vn 0.7856 0.6036 -0.1362
vn 0.5419 0.4567 0.7055
vn 0.0000 0.0000 1.0000
vn -0.5900 0.8072 0.0194
vn -0.2798 -0.9465 -0.1608
vn 0.6693 0.5466 0.5033
vn -0.9528 -0.0127 -0.3035
vn -0.9968 -0.0285 -0.0742
vn 0.7073 0.5703 0.4178
vn -0.2916 -0.9564 -0.0139
vn -0.3371 0.9408 0.0354
vn 0.7290 -0.6631 0.1702
vn 0.8196 -0.5626 0.1087
vn 0.7883 0.6056 0.1087
vn -0.3324 0.9369 0.1087
vn -0.9937 -0.0266 0.1087
vn -0.2818 -0.9533 0.1087
vn -0.6401 0.3146 0.7009
vn -0.3332 0.9390 0.0850
vn -0.2869 -0.9579 -0.0132
vn -0.6736 0.1851 0.7156
vn -0.9686 -0.0354 0.2461
vn 0.6567 0.0070 0.7541
vn 0.6302 0.1174 0.7675
vn 0.7738 -0.2793 -0.5685
vn 0.4190 0.9077 -0.0237
vn -0.1976 -0.9501 0.2413
vn 0.8902 -0.1809 -0.4181
vn 0.2516 0.6306 -0.7341
vn 0.2028 -0.9579 -0.2034
vn 0.0163 0.9980 0.0618
vn 0.3439 -0.6262 -0.6997
vn 0.0199 -0.6339 0.7731
vn -0.0630 0.4977 0.8651
vn -0.9677 -0.2386 -0.0814
vn 0.7930 0.6092 0.0000
vn -0.3344 0.9424 0.0000
vn 0.9267 -0.3759 0.0000
vn 0.8245 -0.5659 0.0000
vn -0.8899 0.0122 0.4560
vn -0.4825 -0.8691 -0.1091
vn 0.1092 0.9664 -0.2328
vn -0.7026 -0.3882 -0.5963
vn -0.3584 -0.5566 -0.7495
vn 0.1782 0.9839 -0.0153
vn -0.3371 -0.9415 0.0000
vn 0.1144 0.5298 0.8404
vn 0.8242 -0.5657 -0.0257
vn -0.0542 -0.9918 -0.1156
vn -0.3343 0.9421 -0.0257
vn 0.7927 0.6090 -0.0257
vn -0.9889 -0.1437 -0.0371
vn -0.1311 -0.9052 0.4044
vn -0.9966 0.0614 0.0555
vn -0.0877 -0.7788 -0.6212
vn 0.1020 0.5843 0.8051
vn -0.4368 0.0229 0.8993
vn 0.1171 -0.3305 -0.9365
vn -0.9826 0.1860 0.0000
vn 0.9258 -0.3781 0.0000
vn -0.4782 -0.0755 -0.8750
vn 0.4584 -0.2063 0.8645
vn 0.4983 0.4690 0.7292
vn -0.1248 -0.7505 -0.6490
vn -0.7317 -0.6808 -0.0316
vn -0.2870 -0.9579 -0.0115
vn -0.2798 -0.9468 -0.1591
vn -0.6084 -0.7936 -0.0000
vn -0.1363 -0.9903 0.0288
vn -0.2654 -0.9516 -0.1549
vn -0.9528 -0.0120 -0.3034
vn 0.6684 0.5479 0.5030
vn -0.2653 -0.9516 -0.1553
vn -0.1041 0.7958 -0.5965
vn 0.7439 -0.5688 0.3507
vn -0.7319 0.4312 0.5277
vn -0.9630 -0.0232 -0.2684
vn 0.6312 -0.1953 0.7506
vn 0.7516 0.0560 0.6573
vn 0.7322 0.4782 0.4850
vn 0.2661 0.2221 0.9380
vn -0.9130 -0.2218 -0.3424
vn -0.2055 0.3514 -0.9134
vn 0.2407 0.5842 -0.7751
vn -0.5966 -0.1575 0.7870
vn -0.4726 -0.5999 0.6456
vn 0.4259 0.2525 0.8688
vn 0.0234 0.8420 -0.5389
vn -0.1041 0.9941 0.0321
vn -0.2223 0.9690 0.1074
vn 0.0476 0.9461 0.3203
vn -0.1145 0.9898 0.0852
vn -0.9527 -0.0120 -0.3037
vn -0.9931 0.1138 -0.0280
vn -0.1620 -0.5122 0.8434
vn -0.0604 0.4867 -0.8715
vn -0.6598 -0.1522 -0.7359
vn -0.9724 0.2319 -0.0265
vn -0.8558 0.5173 0.0004
vn -0.9968 -0.0274 -0.0745
vn -0.9526 -0.0127 -0.3038
vn 0.2450 -0.5102 0.8244
vn 0.8460 0.5324 0.0287
vn 0.8519 -0.5230 0.0262
vn -0.2341 -0.9719 0.0262
vn -0.3781 0.9148 0.1423
vn -0.9966 -0.0776 0.0262
vn -0.3818 0.9239 0.0262
vn -0.3558 0.8609 0.3636
vn 0.3421 0.9287 0.1433
vn -0.0860 -0.9963 -0.0000
vn -0.9877 -0.0770 -0.1362
vn -0.7033 -0.0869 0.7055
vn 0.0538 -0.9984 0.0194
vn 0.7510 0.6404 -0.1608
vn -0.8591 -0.0928 0.5033
vn 0.8053 -0.5094 -0.3035
vn 0.8508 -0.5202 -0.0742
vn -0.9039 -0.0918 0.4178
vn 0.7664 0.6423 -0.0139
vn -0.2310 -0.9723 0.0354
vn -0.2489 0.9534 0.1702
vn -0.3797 0.9187 0.1087
vn -0.9911 -0.0772 0.1087
vn -0.2328 -0.9664 0.1087
vn 0.8472 -0.5201 0.1087
vn 0.7564 0.6450 0.1087
vn 0.3647 -0.6130 0.7009
vn -0.2334 -0.9687 0.0850
vn 0.7632 0.6461 -0.0132
vn 0.4634 -0.5228 0.7155
vn 0.8309 -0.4990 0.2461
vn -0.5541 0.3526 0.7541
vn -0.5922 0.2456 0.7675
vn -0.4959 0.6564 -0.5685
vn -0.8465 -0.5319 -0.0237
vn 0.6842 0.6883 0.2413
vn -0.6472 0.6375 -0.4181
vn -0.5550 -0.3911 -0.7341
vn 0.3529 0.9133 -0.2034
vn -0.5583 -0.8273 0.0618
vn 0.0536 0.7124 -0.6997
vn 0.3293 0.5420 0.7731
vn -0.2188 -0.4514 0.8651
vn 0.9411 -0.3282 -0.0814
vn -0.9970 -0.0777 0.0000
vn -0.2342 -0.9722 0.0000
vn -0.5713 0.8207 0.0000
vn -0.3820 0.9242 0.0000
vn 0.7390 -0.4959 0.4560
vn 0.8786 0.4649 -0.1091
vn -0.6189 -0.7502 -0.2328
vn 0.8007 -0.0582 -0.5963
vn 0.6041 0.2708 -0.7495
vn -0.6863 -0.7271 -0.0153
vn 0.7963 0.6049 0.0000
vn -0.3850 -0.3815 0.8404
vn -0.3818 0.9239 -0.0257
vn 0.5867 0.8015 -0.1156
vn -0.2341 -0.9719 -0.0257
vn -0.9967 -0.0776 -0.0257
vn 0.9071 -0.4193 -0.0371
vn 0.6039 0.6869 0.4044
vn 0.8015 -0.5954 0.0555
vn 0.4985 0.6047 -0.6212
vn -0.4044 -0.4339 0.8051
vn 0.3535 -0.2576 0.8993
vn 0.0822 0.3409 -0.9365
vn 0.7218 -0.6921 0.0000
vn -0.5694 0.8221 0.0000
vn 0.4419 -0.1977 -0.8750
vn -0.2715 0.4230 0.8645
vn -0.6735 -0.1210 0.7292
vn 0.5141 0.5607 -0.6490
vn 0.9847 0.1711 -0.0316
vn 0.7633 0.6460 -0.0115
vn 0.7512 0.6406 -0.1591
vn 0.9430 0.3329 -0.0000
vn 0.6547 0.7554 0.0288
vn 0.7418 0.6525 -0.1549
vn 0.8049 -0.5100 -0.3034
vn -0.8591 -0.0942 0.5030
vn 0.7417 0.6525 -0.1553
vn -0.3471 -0.7237 -0.5965
vn -0.3129 0.8827 0.3507
vn 0.3779 -0.7608 0.5277
vn 0.8196 -0.5062 -0.2684
vn -0.4223 0.5082 0.7506
vn -0.6603 0.3633 0.6573
vn -0.8745 -0.0011 0.4850
vn -0.3442 -0.0408 0.9380
vn 0.8861 -0.3125 -0.3424
vn -0.0196 -0.4066 -0.9134
vn -0.5205 -0.3581 -0.7751
vn 0.5858 -0.1936 0.7870
vn 0.7234 0.2447 0.6456
vn -0.4947 0.0209 0.8688
vn -0.4792 -0.6928 -0.5389
vn -0.4553 -0.8897 0.0321
vn -0.3426 -0.9333 0.1074
vn -0.5563 -0.7668 0.3203
vn -0.4442 -0.8919 0.0852
vn 0.8048 -0.5100 -0.3037
vn 0.7700 -0.6374 -0.0280
vn 0.4153 0.3408 0.8434
vn -0.2150 -0.4408 -0.8715
vn 0.6359 -0.2326 -0.7359
vn 0.6882 -0.7250 -0.0265
vn 0.4347 -0.9006 0.0004
vn 0.8502 -0.5211 -0.0745
vn 0.8052 -0.5093 -0.3038
vn 0.0732 0.5612 0.8244
vn -0.9993 0.0237 0.0287
vn -0.4211 0.9066 0.0262
vn 0.7321 0.6806 0.0262
vn -0.1904 -0.9713 0.1423
vn 0.8736 -0.4860 0.0262
vn -0.1922 -0.9810 0.0262
vn -0.1792 -0.9142 0.3636
vn -0.7983 -0.5850 0.1433
vn 0.6222 0.7828 -0.0000
vn 0.8657 -0.4816 -0.1362
vn 0.6343 -0.3162 0.7055
vn 0.5068 0.8618 0.0194
vn -0.9798 -0.1188 -0.1608
vn 0.7673 -0.3974 0.5033
vn -0.3897 0.8695 -0.3035
vn -0.4217 0.9037 -0.0742
vn 0.8041 -0.4229 0.4178
vn -0.9936 -0.1119 -0.0139
vn 0.7298 0.6828 0.0354
vn -0.3194 -0.9322 0.1702
vn -0.1912 -0.9755 0.1087
vn 0.8687 -0.4833 0.1087
vn 0.7281 0.6768 0.1087
vn -0.4187 0.9016 0.1087
vn -0.9868 -0.1196 0.1087
vn 0.0347 0.7124 0.7009
vn 0.7297 0.6784 0.0850
vn -0.9931 -0.1168 -0.0132
vn -0.0974 0.6918 0.7155
vn -0.4168 0.8750 0.2461
vn 0.2670 -0.6000 0.7541
vn 0.3579 -0.5319 0.7675
vn 0.0507 -0.8211 -0.5685
vn 0.9994 -0.0245 -0.0237
vn -0.9505 -0.1956 0.2413
vn 0.1872 -0.8889 -0.4181
vn 0.6787 0.0193 -0.7341
vn -0.7988 -0.5662 -0.2034
vn 0.9225 0.3810 0.0618
vn -0.4383 -0.5642 -0.6997
vn -0.5740 -0.2698 0.7731
vn 0.4318 0.2553 0.8651
vn -0.6030 0.7936 -0.0814
vn 0.8739 -0.4861 0.0000
vn 0.7324 0.6809 0.0000
vn 0.0227 -0.9997 0.0000
vn -0.1923 -0.9813 0.0000
vn -0.3419 0.8217 0.4560
vn -0.9892 0.0980 -0.1091
vn 0.9304 0.2833 -0.2328
vn -0.6352 0.4909 -0.5963
vn -0.6532 0.1081 -0.7495
vn 0.9738 0.2268 -0.0153
vn -0.9979 -0.0642 0.0000
vn 0.5317 0.1052 0.8404
vn -0.1922 -0.9810 -0.0257
vn -0.9319 -0.3438 -0.1156
vn 0.7322 0.6807 -0.0257
vn 0.8736 -0.4860 -0.0257
vn -0.5243 0.8507 -0.0371
vn -0.8829 -0.2389 0.4044
vn -0.3391 0.9391 0.0555
vn -0.7496 -0.2285 -0.6212
vn 0.5768 0.1382 0.8051
vn -0.1523 0.4101 0.8993
vn -0.2569 -0.2387 -0.9365
vn -0.2192 0.9757 0.0000
vn 0.0203 -0.9998 0.0000
vn -0.2591 0.4090 -0.8750
vn -0.0075 -0.5026 0.8645
vn 0.6282 -0.2713 0.7292
vn -0.7384 -0.1833 -0.6490
vn -0.9153 0.4015 -0.0316
vn -0.9931 -0.1166 -0.0115
vn -0.9931 -0.1167 -0.0115
vn -0.9801 -0.1188 -0.1591
vn -0.9699 0.2435 -0.0000
vn -0.9630 -0.2678 0.0288
vn -0.9788 -0.1340 -0.1549
vn -0.3891 0.8698 -0.3034
vn 0.7681 -0.3962 0.5030
vn -0.9787 -0.1341 -0.1553
vn 0.6892 0.4114 -0.5965
vn -0.2269 -0.9086 0.3507
vn 0.1054 0.8429 0.5277
vn -0.4034 0.8748 -0.2684
vn 0.0711 -0.6569 0.7506
vn 0.3496 -0.6676 0.6573
vn 0.7295 -0.4823 0.4850
vn 0.3094 -0.1562 0.9380
vn -0.5659 0.7500 -0.3424
vn 0.2410 0.3281 -0.9134
vn 0.6317 0.0109 -0.7751
vn -0.3813 0.4851 0.7870
vn -0.7382 0.1957 0.6456
vn 0.4008 -0.2908 0.8688
vn 0.7822 0.3126 -0.5389
vn 0.8712 0.4900 0.0321
vn 0.8013 0.5886 0.1074
vn 0.8874 0.3317 0.3203
vn 0.8631 0.4979 0.0852
vn -0.3890 0.8697 -0.3037
vn -0.2896 0.9567 -0.0280
vn -0.5345 -0.0545 0.8434
vn 0.4228 0.2486 -0.8715
vn -0.4015 0.5452 -0.7359
vn -0.1730 0.9846 -0.0265
vn 0.1353 0.9908 0.0004
vn -0.4207 0.9041 -0.0745
vn -0.3896 0.8694 -0.3038
vn -0.3711 -0.4273 0.8244
vn -0.4821 -0.8760 0.0134
vn -0.9962 0.0876 0.0030
vn 0.6424 -0.7656 -0.0339
vn 0.7429 -0.5686 0.3531
vn 0.1421 -0.9729 0.1826
vn -0.3333 0.9393 -0.0810
vn 0.6626 0.7478 0.0424
vn 0.5476 0.1580 0.8217
vn -0.3318 0.9352 0.1237
vn -0.2652 -0.9515 -0.1557
vn 0.6853 0.5265 0.5032
vn -0.9524 -0.0255 -0.3039
vn -0.9969 -0.0275 -0.0738
vn 0.6362 0.7360 0.2316
vn -0.2868 -0.9579 -0.0148
vn -0.4809 0.8740 0.0697
vn 0.7614 -0.5737 0.3018
vn -0.4182 -0.9078 0.0325
vn -0.6426 0.3053 0.7027
vn -0.3404 0.9362 0.0871
vn 0.2205 -0.9663 -0.1325
vn -0.6949 -0.3908 0.6036
vn -0.8926 -0.4466 -0.0618
vn 0.6288 0.1025 0.7708
vn 0.6766 0.1951 0.7100
vn 0.4960 -0.8000 -0.3376
vn 0.2828 0.9492 0.1382
vn 0.2780 -0.9367 -0.2127
vn 0.5740 0.8000 -0.1744
vn 0.2384 0.6492 -0.7223
vn 0.2140 -0.9677 -0.1336
vn 0.0079 1.0000 -0.0003
vn 0.3126 -0.6806 -0.6627
vn 0.0366 -0.5483 0.8355
vn -0.0669 0.5080 0.8588
vn -0.9210 -0.3896 0.0000
vn -0.4527 0.8895 0.0626
vn 0.9415 -0.3304 0.0660
vn -0.2850 -0.9062 0.3123
vn 0.2208 0.9752 -0.0149
vn -0.6870 -0.1502 -0.7109
vn -0.3517 -0.3698 -0.8600
vn 0.1961 0.9739 -0.1140
vn -0.3117 -0.9413 -0.1299
vn 0.0954 0.4862 0.8687
vn 0.2731 -0.9615 -0.0317
vn -0.9837 -0.1776 -0.0282
vn -0.1311 -0.9051 0.4044
vn -0.9997 0.0229 0.0000
vn -0.1272 -0.7684 -0.6272
vn -0.1894 0.6241 0.7580
vn -0.5333 0.0834 0.8418
vn 0.3847 -0.3307 -0.8618
vn -0.2771 -0.2097 -0.9377
vn 0.3830 -0.2068 0.9003
vn 0.1021 0.5843 0.8051
vn -0.3501 -0.7110 -0.6098
vn -0.4789 -0.8702 -0.1163
vn -0.2834 -0.9589 -0.0127
vn -0.1363 -0.9902 0.0291
vn -0.2790 -0.9440 0.1762
vn -0.0546 -0.9984 0.0119
vn -0.2645 -0.9518 -0.1550
vn -0.9529 -0.0127 -0.3031
vn 0.6699 0.5470 0.5021
vn -0.2644 -0.9518 -0.1553
vn -0.3601 0.6680 -0.6513
vn 0.7417 -0.5710 0.3520
vn -0.7563 0.4049 0.5139
vn -0.9820 -0.0813 -0.1705
vn 0.4236 -0.3131 0.8500
vn 0.8570 0.2286 0.4618
vn 0.7169 0.4811 0.5046
vn 0.3009 0.2273 0.9261
vn -0.9273 -0.2122 -0.3082
vn -0.2875 0.3318 -0.8985
vn 0.2526 0.5858 -0.7701
vn -0.6686 -0.2308 0.7069
vn -0.2284 -0.5677 0.7910
vn 0.6459 0.2971 0.7033
vn 0.4706 0.8154 -0.3372
vn -0.3403 0.9366 0.0837
vn -0.3296 0.9290 0.1685
vn -0.9955 0.0876 -0.0354
vn -0.1634 -0.5271 0.8340
vn -0.0411 0.5777 -0.8152
vn -0.5460 0.4028 -0.7346
vn -0.9843 0.1610 -0.0718
vn -0.9519 -0.0255 -0.3053
vn 0.4991 0.1595 0.8518
vn -0.9896 -0.1438 0.0023
vn 0.8821 0.4709 0.0134
vn 0.7869 -0.6171 0.0030
vn -0.1204 0.9921 -0.0339
vn -0.3122 0.8820 0.3531
vn 0.4119 0.8928 0.1826
vn -0.2334 -0.9690 -0.0810
vn -0.9633 -0.2649 0.0424
vn -0.5451 0.1665 0.8217
vn -0.2324 -0.9647 0.1237
vn 0.7416 0.6526 -0.1557
vn -0.8615 -0.0671 0.5032
vn 0.8119 -0.4984 -0.3039
vn 0.8503 -0.5211 -0.0738
vn -0.9348 -0.2695 0.2316
vn 0.7631 0.6461 -0.0148
vn -0.0741 -0.9948 0.0697
vn -0.3249 0.8963 0.3018
vn 0.8459 0.5324 0.0325
vn 0.3718 -0.6066 0.7027
vn -0.2257 -0.9703 0.0871
vn 0.3426 0.9301 -0.1325
vn 0.7956 -0.0518 0.6036
vn 0.9917 -0.1129 -0.0618
vn -0.5828 0.2573 0.7708
vn -0.6734 0.2058 0.7100
vn 0.0210 0.9410 -0.3376
vn -0.7550 -0.6410 0.1382
vn 0.2783 0.9366 -0.2127
vn -0.9177 -0.3571 -0.1744
vn -0.5541 -0.4139 -0.7223
vn 0.3488 0.9276 -0.1336
vn -0.5524 -0.8336 -0.0003
vn 0.1095 0.7409 -0.6627
vn 0.2686 0.4795 0.8355
vn -0.2212 -0.4622 0.8588
vn 0.9843 -0.1762 -0.0000
vn -0.1061 -0.9924 0.0626
vn -0.6086 0.7907 0.0660
vn 0.7334 0.6038 0.3123
vn -0.7173 -0.6966 -0.0149
vn 0.6577 -0.2492 -0.7109
vn 0.4965 0.1179 -0.8600
vn -0.6959 -0.7091 -0.1140
vn 0.7749 0.6186 -0.1299
vn -0.3452 -0.3553 0.8687
vn 0.2959 0.9547 -0.0317
vn 0.9212 -0.3881 -0.0282
vn 0.8252 -0.5649 0.0000
vn 0.5259 0.5745 -0.6272
vn -0.1819 -0.6264 0.7580
vn 0.4013 -0.3609 0.8418
vn -0.1418 0.4870 -0.8618
vn 0.3466 0.0245 -0.9377
vn -0.2080 0.3823 0.9003
vn 0.6814 0.4047 -0.6098
vn 0.8762 0.4678 -0.1163
vn 0.7609 0.6488 -0.0127
vn 0.6547 0.7554 0.0291
vn 0.7490 0.6387 0.1762
vn 0.5907 0.8068 0.0119
vn 0.7412 0.6532 -0.1550
vn 0.8054 -0.5094 -0.3031
vn -0.8598 -0.0927 0.5021
vn 0.7411 0.6532 -0.1553
vn -0.0629 -0.7563 -0.6513
vn -0.3099 0.8832 0.3520
vn 0.4128 -0.7520 0.5138
vn 0.8672 -0.4678 -0.1705
vn -0.1841 0.4936 0.8500
vn -0.8429 0.2763 0.4618
vn -0.8633 -0.0119 0.5046
vn -0.3762 -0.0262 0.9262
vn 0.8928 -0.3284 -0.3082
vn 0.0599 -0.4350 -0.8985
vn -0.5314 -0.3530 -0.7701
vn 0.6862 -0.1715 0.7069
vn 0.5011 0.3511 0.7910
vn -0.7033 0.1036 0.7033
vn -0.8393 -0.4264 -0.3372
vn -0.2261 -0.9705 0.0837
vn -0.2309 -0.9583 0.1685
vn 0.7864 -0.6167 -0.0354
vn 0.4246 0.3525 0.8340
vn -0.2809 -0.5065 -0.8152
vn 0.2377 -0.6355 -0.7346
vn 0.7369 -0.6722 -0.0718
vn 0.8116 -0.4982 -0.3053
vn -0.5052 0.1388 0.8518
vn 0.9077 -0.4196 0.0023
vn -0.9954 0.0949 0.0134
vn -0.3149 0.9491 0.0030
vn -0.4479 -0.8935 -0.0339
vn -0.2272 -0.9076 0.3531
vn -0.8366 -0.5165 0.1826
vn 0.7300 0.6786 -0.0810
vn 0.9493 -0.3115 0.0424
vn 0.3623 -0.4400 0.8217
vn 0.7268 0.6757 0.1237
vn -0.9787 -0.1341 -0.1557
vn 0.7552 -0.4201 0.5032
vn -0.4013 0.8641 -0.3039
vn -0.4208 0.9042 -0.0738
vn 0.9280 -0.2919 0.2316
vn -0.9930 -0.1169 -0.0148
vn 0.6114 0.7882 0.0697
vn -0.2244 -0.9266 0.3018
vn -0.9992 0.0237 0.0325
vn 0.0253 0.7110 0.7027
vn 0.7243 0.6840 0.0871
vn -0.7995 -0.5859 -0.1325
vn -0.6345 0.4828 0.6036
vn -0.7642 0.6421 -0.0618
vn 0.3436 -0.5365 0.7708
vn 0.4475 -0.5437 0.7100
vn -0.5375 -0.7727 -0.3376
vn 0.9835 0.1171 0.1382
vn -0.7495 -0.6269 -0.2127
vn 0.9621 -0.2095 -0.1744
vn 0.6905 0.0388 -0.7223
vn -0.8033 -0.5804 -0.1336
vn 0.9210 0.3895 -0.0003
vn -0.5006 -0.5570 -0.6627
vn -0.4888 -0.2512 0.8355
vn 0.4397 0.2630 0.8588
vn -0.7230 0.6908 0.0000
vn 0.6368 0.7685 0.0626
vn 0.0703 -0.9953 0.0660
vn -0.9449 -0.0980 0.3123
vn 0.9828 0.1843 -0.0149
vn -0.4105 0.5711 -0.7109
vn -0.4790 0.1761 -0.8600
vn 0.9718 0.2065 -0.1140
vn -0.9877 -0.0874 -0.1299
vn 0.4841 0.1054 0.8687
vn -0.7741 -0.6322 -0.0317
vn -0.5534 0.8325 -0.0282
vn -0.8829 -0.2388 0.4044
vn -0.3757 0.9268 0.0000
vn -0.7558 -0.1882 -0.6272
vn 0.4977 0.4215 0.7580
vn -0.1350 0.5226 0.8418
vn -0.1509 -0.4843 -0.8618
vn -0.3024 0.1711 -0.9377
vn -0.0379 -0.4336 0.9003
vn -0.7916 0.0392 -0.6098
vn -0.8828 -0.2389 0.4044
vn -0.9887 0.0943 -0.1163
vn -0.9927 -0.1203 -0.0127
vn -0.9630 -0.2678 0.0291
vn -0.9772 -0.1185 0.1762
vn -0.9381 -0.3461 0.0119
vn -0.9787 -0.1349 -0.1550
vn -0.3898 0.8696 -0.3031
vn 0.7679 -0.3978 0.5021
vn -0.9786 -0.1350 -0.1553
vn 0.4703 0.5956 -0.6513
vn -0.2298 -0.9074 0.3520
vn 0.0715 0.8549 0.5138
vn -0.4643 0.8691 -0.1705
vn -0.1193 -0.5131 0.8500
vn 0.5499 -0.6960 0.4618
vn 0.7261 -0.4671 0.5046
vn 0.3281 -0.1860 0.9262
vn -0.5627 0.7670 -0.3082
vn 0.1905 0.3956 -0.8985
vn 0.6379 0.0006 -0.7701
vn -0.4771 0.5221 0.7069
vn -0.6116 -0.0157 0.7910
vn 0.5290 -0.4749 0.7033
vn 0.9352 -0.1084 -0.3372
vn 0.7247 0.6840 0.0837
vn 0.7219 0.6711 0.1685
vn -0.3147 0.9485 -0.0354
vn -0.5486 -0.0592 0.8340
vn 0.5140 0.2669 -0.8152
vn 0.1531 0.6610 -0.7346
vn -0.2428 0.9674 -0.0718
vn -0.4011 0.8637 -0.3052
vn 0.3444 -0.3948 0.8518
vn -0.5247 0.8513 0.0023
usemtl Wood
s off
f 79/1/1 4/2/1 27/3/1
f 120/4/2 6/5/2 28/6/2
f 106/7/3 8/8/3 29/9/3
f 48/10/4 12/11/4 49/12/4
f 8/8/5 30/13/5 29/9/5
f 10/14/6 26/15/6 30/13/6
f 89/16/7 20/17/7 17/18/7
f 81/19/8 12/20/8 76/21/8
f 51/22/9 103/23/9 108/24/9
f 52/25/10 15/26/10 48/10/10
f 57/27/11 123/28/11 126/29/11
f 77/30/12 20/31/12 104/32/12
f 88/33/13 104/34/13 110/35/13
f 92/36/14 17/37/14 77/38/14
f 90/39/15 20/17/15 87/40/15
f 91/41/16 118/42/16 128/43/16
f 121/44/17 25/45/17 119/46/17
f 34/47/18 24/48/18 21/49/18
f 80/50/19 22/51/19 78/52/19
f 35/53/20 105/54/20 107/55/20
f 34/47/21 22/56/21 31/57/21
f 30/13/22 1/58/22 9/59/22
f 7/60/23 30/13/23 9/59/23
f 101/61/24 29/9/24 7/60/24
f 115/62/25 28/6/25 5/63/25
f 74/64/26 27/3/26 3/65/26
f 43/66/27 40/67/27 44/68/27
f 13/69/28 107/55/28 103/23/28
f 76/21/29 31/70/29 80/50/29
f 43/66/30 39/71/30 41/72/30
f 117/73/31 33/74/31 121/44/31
f 36/75/32 39/71/32 38/76/32
f 36/75/33 40/67/33 41/72/33
f 46/77/34 36/75/34 38/76/34
f 44/68/35 37/78/35 47/79/35
f 42/80/36 38/81/36 39/82/36
f 45/83/37 37/78/37 36/75/37
f 15/26/38 47/79/38 45/83/38
f 31/70/39 46/84/39 42/80/39
f 32/85/40 47/79/40 14/86/40
f 15/26/41 46/77/41 12/11/41
f 34/47/42 42/87/42 43/66/42
f 34/47/43 44/68/43 32/85/43
f 62/88/44 122/89/44 127/90/44
f 63/91/45 48/10/45 64/92/45
f 65/93/46 108/24/46 109/94/46
f 70/95/47 68/96/47 71/97/47
f 64/92/48 49/12/48 61/98/48
f 56/99/49 123/28/49 124/100/49
f 58/101/50 56/99/50 59/102/50
f 57/27/51 55/103/51 53/104/51
f 59/102/52 124/100/52 125/105/52
f 122/89/53 59/102/53 125/105/53
f 13/69/54 60/106/54 57/27/54
f 11/107/55 59/102/55 50/108/55
f 117/73/56 57/27/56 126/29/56
f 2/109/57 64/92/57 61/98/57
f 2/110/58 82/111/58 75/112/58
f 6/5/59 109/94/59 102/113/59
f 10/14/60 63/91/60 64/92/60
f 4/2/61 127/90/61 116/114/61
f 84/115/62 66/116/62 83/117/62
f 73/118/63 69/119/63 67/120/63
f 71/121/64 84/115/64 86/122/64
f 85/123/65 67/120/65 83/117/65
f 81/19/66 73/118/66 85/123/66
f 82/111/67 71/121/67 86/122/67
f 50/108/68 72/124/68 73/118/68
f 49/12/69 71/97/69 61/98/69
f 82/111/70 72/124/70 62/88/70
f 81/19/71 70/125/71 49/126/71
f 85/123/72 66/116/72 70/125/72
f 72/124/73 84/115/73 69/119/73
f 84/115/62 67/120/62 69/119/62
f 4/2/74 82/111/74 62/88/74
f 11/107/75 80/50/75 33/74/75
f 26/127/26 74/64/26 1/128/26
f 80/50/75 25/45/75 33/74/75
f 91/41/76 77/38/76 16/129/76
f 81/19/77 11/107/77 50/108/77
f 2/110/78 79/1/78 26/127/78
f 25/45/79 92/36/79 91/41/79
f 25/45/80 128/43/80 119/46/80
f 24/48/81 87/40/81 21/49/81
f 78/52/82 89/130/82 92/36/82
f 114/131/83 95/132/83 111/133/83
f 22/56/84 87/40/84 89/16/84
f 95/132/85 112/134/85 111/133/85
f 99/135/86 95/132/86 97/136/86
f 113/137/87 93/138/87 112/134/87
f 100/139/88 94/140/88 93/138/88
f 90/39/89 98/141/89 100/139/89
f 110/35/90 100/139/90 113/137/90
f 88/33/91 97/136/91 23/142/91
f 23/142/92 114/131/92 105/54/92
f 105/54/93 98/141/93 24/48/93
f 110/35/94 99/135/94 88/33/94
f 113/137/95 96/143/95 99/135/95
f 111/133/96 93/138/96 94/140/96
f 114/131/97 94/140/97 98/141/97
f 8/8/59 109/94/59 63/91/59
f 109/94/46 52/25/46 63/91/46
f 103/23/98 32/85/98 14/86/98
f 28/6/24 101/61/24 5/63/24
f 32/85/99 105/54/99 24/48/99
f 110/35/100 19/144/100 90/39/100
f 52/25/101 103/23/101 14/86/101
f 6/5/3 106/7/3 28/6/3
f 119/46/102 88/33/102 23/142/102
f 6/5/103 127/90/103 65/93/103
f 117/73/104 58/101/104 11/107/104
f 51/22/105 125/105/105 60/106/105
f 60/106/106 124/100/106 55/103/106
f 55/103/49 123/28/49 53/104/49
f 65/93/107 122/89/107 51/22/107
f 117/73/108 35/53/108 13/69/108
f 27/3/25 115/62/25 3/65/25
f 121/44/109 23/142/109 35/53/109
f 128/43/110 18/145/110 88/33/110
f 126/29/111 54/146/111 58/101/111
f 4/2/2 120/4/2 27/3/2
f 207/147/112 132/148/112 155/149/112
f 248/150/113 134/151/113 156/152/113
f 234/153/114 136/154/114 157/155/114
f 176/156/115 140/157/115 177/158/115
f 136/154/116 158/159/116 157/155/116
f 158/159/117 130/160/117 154/161/117
f 217/162/118 148/163/118 145/164/118
f 209/165/119 140/166/119 204/167/119
f 179/168/120 231/169/120 236/170/120
f 180/171/121 143/172/121 176/156/121
f 185/173/122 251/174/122 254/175/122
f 205/176/12 148/177/12 232/178/12
f 216/179/123 232/180/123 238/181/123
f 220/182/124 145/183/124 205/184/124
f 218/185/125 148/163/125 215/186/125
f 219/187/126 246/188/126 256/189/126
f 249/190/127 153/191/127 247/192/127
f 162/193/128 152/194/128 149/195/128
f 208/196/129 150/197/129 206/198/129
f 163/199/130 233/200/130 235/201/130
f 162/193/131 150/202/131 159/203/131
f 158/159/132 129/204/132 137/205/132
f 157/155/133 137/205/133 135/206/133
f 229/207/134 157/155/134 135/206/134
f 243/208/135 156/152/135 133/209/135
f 202/210/136 155/149/136 131/211/136
f 171/212/137 168/213/137 172/214/137
f 141/215/138 235/201/138 231/169/138
f 204/167/139 159/216/139 208/196/139
f 171/212/140 167/217/140 169/218/140
f 245/219/141 161/220/141 249/190/141
f 164/221/142 167/217/142 166/222/142
f 164/221/143 168/213/143 169/218/143
f 174/223/144 164/221/144 166/222/144
f 172/214/145 165/224/145 175/225/145
f 170/226/146 166/227/146 167/228/146
f 173/229/147 165/224/147 164/221/147
f 143/172/148 175/225/148 173/229/148
f 159/216/149 174/230/149 170/226/149
f 160/231/150 175/225/150 142/232/150
f 143/172/151 174/223/151 140/157/151
f 162/193/152 170/233/152 171/212/152
f 162/193/153 172/214/153 160/231/153
f 190/234/154 250/235/154 255/236/154
f 191/237/155 176/156/155 192/238/155
f 193/239/156 236/170/156 237/240/156
f 198/241/157 196/242/157 199/243/157
f 189/244/158 176/156/158 177/158/158
f 184/245/159 251/174/159 252/246/159
f 186/247/160 184/245/160 187/248/160
f 185/173/161 183/249/161 181/250/161
f 187/248/162 252/246/162 253/251/162
f 250/235/163 187/248/163 253/251/163
f 141/215/164 188/252/164 185/173/164
f 139/253/165 187/248/165 178/254/165
f 245/219/166 185/173/166 254/175/166
f 138/255/167 189/244/167 130/160/167
f 130/256/168 210/257/168 203/258/168
f 134/151/169 237/240/169 230/259/169
f 136/154/170 192/238/170 138/255/170
f 132/148/171 255/236/171 244/260/171
f 196/261/172 211/262/172 212/263/172
f 201/264/173 197/265/173 195/266/173
f 199/267/174 212/263/174 214/268/174
f 213/269/175 195/266/175 211/262/175
f 209/165/176 201/264/176 213/269/176
f 210/257/177 199/267/177 214/268/177
f 178/254/178 200/270/178 201/264/178
f 177/158/179 199/243/179 189/244/179
f 210/257/180 200/270/180 190/234/180
f 209/165/181 198/271/181 177/272/181
f 213/269/182 194/273/182 198/271/182
f 200/270/183 212/263/183 197/265/183
f 197/265/172 211/262/172 195/266/172
f 132/148/184 210/257/184 190/234/184
f 139/253/185 208/196/185 161/220/185
f 154/274/136 202/210/136 129/275/136
f 208/196/185 153/191/185 161/220/185
f 219/187/186 205/184/186 144/276/186
f 209/165/187 139/253/187 178/254/187
f 130/256/188 207/147/188 154/274/188
f 153/191/189 220/182/189 219/187/189
f 153/191/190 256/189/190 247/192/190
f 152/194/191 215/186/191 149/195/191
f 206/198/192 217/277/192 220/182/192
f 242/278/193 223/279/193 239/280/193
f 150/202/194 215/186/194 217/162/194
f 223/279/195 240/281/195 239/280/195
f 227/282/196 223/279/196 225/283/196
f 241/284/197 221/285/197 240/281/197
f 228/286/198 222/287/198 221/285/198
f 218/185/199 226/288/199 228/286/199
f 238/181/200 228/286/200 241/284/200
f 216/179/201 225/283/201 151/289/201
f 151/289/202 242/278/202 233/200/202
f 233/200/203 226/288/203 152/194/203
f 238/181/204 227/282/204 216/179/204
f 241/284/205 224/290/205 227/282/205
f 239/280/206 221/285/206 222/287/206
f 242/278/207 222/287/207 226/288/207
f 136/154/169 237/240/169 191/237/169
f 237/240/156 180/171/156 191/237/156
f 231/169/208 160/231/208 142/232/208
f 156/152/134 229/207/134 133/209/134
f 160/231/209 233/200/209 152/194/209
f 238/181/210 147/291/210 218/185/210
f 180/171/211 231/169/211 142/232/211
f 134/151/114 234/153/114 156/152/114
f 247/192/212 216/179/212 151/289/212
f 134/151/213 255/236/213 193/239/213
f 245/219/214 186/247/214 139/253/214
f 179/168/215 253/251/215 188/252/215
f 188/252/216 252/246/216 183/249/216
f 183/249/159 251/174/159 181/250/159
f 193/239/217 250/235/217 179/168/217
f 245/219/218 163/199/218 141/215/218
f 155/149/135 243/208/135 131/211/135
f 249/190/219 151/289/219 163/199/219
f 256/189/220 146/292/220 216/179/220
f 254/175/221 182/293/221 186/247/221
f 132/148/113 248/150/113 155/149/113
f 335/294/222 260/295/222 283/296/222
f 376/297/223 262/298/223 284/299/223
f 362/300/224 264/301/224 285/302/224
f 304/303/225 268/304/225 305/305/225
f 285/302/226 266/306/226 286/307/226
f 286/307/227 258/308/227 282/309/227
f 345/310/228 276/311/228 273/312/228
f 337/313/229 268/314/229 332/315/229
f 307/316/230 359/317/230 364/318/230
f 308/319/231 271/320/231 304/303/231
f 313/321/232 379/322/232 382/323/232
f 333/324/12 276/325/12 360/326/12
f 344/327/233 360/328/233 366/329/233
f 348/330/234 273/331/234 333/332/234
f 346/333/235 276/311/235 343/334/235
f 347/335/236 374/336/236 384/337/236
f 377/338/237 281/339/237 375/340/237
f 290/341/238 280/342/238 277/343/238
f 336/344/239 278/345/239 334/346/239
f 291/347/240 361/348/240 363/349/240
f 290/341/241 278/350/241 287/351/241
f 286/307/242 257/352/242 265/353/242
f 285/302/243 265/353/243 263/354/243
f 357/355/244 285/302/244 263/354/244
f 371/356/245 284/299/245 261/357/245
f 330/358/246 283/296/246 259/359/246
f 299/360/247 296/361/247 300/362/247
f 269/363/248 363/349/248 359/317/248
f 332/315/249 287/364/249 336/344/249
f 299/360/250 295/365/250 297/366/250
f 373/367/251 289/368/251 377/338/251
f 292/369/252 295/365/252 294/370/252
f 292/369/253 296/361/253 297/366/253
f 302/371/254 292/369/254 294/370/254
f 300/362/255 293/372/255 303/373/255
f 298/374/256 294/375/256 295/376/256
f 301/377/257 293/372/257 292/369/257
f 271/320/258 303/373/258 301/377/258
f 287/364/259 302/378/259 298/374/259
f 288/379/260 303/373/260 270/380/260
f 271/320/261 302/371/261 268/304/261
f 290/341/262 298/381/262 299/360/262
f 290/341/263 300/362/263 288/379/263
f 318/382/264 378/383/264 383/384/264
f 319/385/265 304/303/265 320/386/265
f 321/387/266 364/318/266 365/388/266
f 326/389/267 324/390/267 327/391/267
f 320/386/268 305/305/268 317/392/268
f 312/393/269 379/322/269 380/394/269
f 314/395/270 312/393/270 315/396/270
f 313/321/271 311/397/271 309/398/271
f 315/396/272 380/394/272 381/399/272
f 378/383/273 315/396/273 381/399/273
f 269/363/274 316/400/274 313/321/274
f 267/401/275 315/396/275 306/402/275
f 373/367/276 313/321/276 382/323/276
f 258/308/277 320/386/277 317/392/277
f 258/403/278 338/404/278 331/405/278
f 262/298/279 365/388/279 358/406/279
f 266/306/280 319/385/280 320/386/280
f 260/295/281 383/384/281 372/407/281
f 324/408/282 339/409/282 340/410/282
f 329/411/283 325/412/283 323/413/283
f 327/414/284 340/410/284 342/415/284
f 341/416/285 323/413/285 339/409/285
f 337/313/286 329/411/286 341/416/286
f 338/404/287 327/414/287 342/415/287
f 306/402/288 328/417/288 329/411/288
f 305/305/289 327/391/289 317/392/289
f 338/404/290 328/417/290 318/382/290
f 337/313/291 326/418/291 305/419/291
f 341/416/292 322/420/292 326/418/292
f 328/417/293 340/410/293 325/412/293
f 340/410/282 323/413/282 325/412/282
f 260/295/294 338/404/294 318/382/294
f 267/401/295 336/344/295 289/368/295
f 282/421/246 330/358/246 257/422/246
f 336/344/296 281/339/296 289/368/296
f 347/335/297 333/332/297 272/423/297
f 337/313/298 267/401/298 306/402/298
f 258/403/299 335/294/299 282/421/299
f 281/339/300 348/330/300 347/335/300
f 281/339/301 384/337/301 375/340/301
f 280/342/302 343/334/302 277/343/302
f 334/346/303 345/424/303 348/330/303
f 370/425/304 351/426/304 367/427/304
f 278/350/305 343/334/305 345/310/305
f 351/426/306 368/428/306 367/427/306
f 355/429/307 351/426/307 353/430/307
f 369/431/308 349/432/308 368/428/308
f 356/433/309 350/434/309 349/432/309
f 346/333/310 354/435/310 356/433/310
f 366/329/311 356/433/311 369/431/311
f 344/327/312 353/430/312 279/436/312
f 279/436/313 370/425/313 361/348/313
f 361/348/314 354/435/314 280/342/314
f 366/329/315 355/429/315 344/327/315
f 369/431/316 352/437/316 355/429/316
f 367/427/317 349/432/317 350/434/317
f 370/425/318 350/434/318 354/435/318
f 264/301/279 365/388/279 319/385/279
f 365/388/266 308/319/266 319/385/266
f 359/317/319 288/379/319 270/380/319
f 284/299/244 357/355/244 261/357/244
f 288/379/320 361/348/320 280/342/320
f 366/329/321 275/438/321 346/333/321
f 308/319/322 359/317/322 270/380/322
f 262/298/224 362/300/224 284/299/224
f 375/340/323 344/327/323 279/436/323
f 262/298/324 383/384/324 321/387/324
f 373/367/325 314/395/325 267/401/325
f 307/316/326 381/399/326 316/400/326
f 316/400/327 380/394/327 311/397/327
f 311/397/269 379/322/269 309/398/269
f 321/387/328 378/383/328 307/316/328
f 373/367/329 291/347/329 269/363/329
f 283/296/245 371/356/245 259/359/245
f 377/338/330 279/436/330 291/347/330
f 384/337/331 274/439/331 344/327/331
f 382/323/332 310/440/332 314/395/332
f 260/295/223 376/297/223 283/296/223
f 79/1/333 75/112/333 4/2/333
f 120/4/334 116/114/334 6/5/334
f 106/7/3 102/113/3 8/8/3
f 48/10/335 15/26/335 12/11/335
f 8/8/5 10/14/5 30/13/5
f 10/14/6 2/109/6 26/15/6
f 89/16/336 87/40/336 20/17/336
f 81/19/337 49/126/337 12/20/337
f 51/22/338 13/69/338 103/23/338
f 52/25/339 14/86/339 15/26/339
f 57/27/340 53/104/340 123/28/340
f 118/441/12 16/442/12 77/30/12
f 77/30/12 17/443/12 20/31/12
f 20/31/12 19/444/12 104/32/12
f 104/32/12 18/445/12 118/441/12
f 118/441/12 77/30/12 104/32/12
f 88/33/341 18/145/341 104/34/341
f 92/36/342 89/130/342 17/37/342
f 90/39/343 19/144/343 20/17/343
f 91/41/344 16/129/344 118/42/344
f 121/44/345 33/74/345 25/45/345
f 34/47/346 32/85/346 24/48/346
f 80/50/347 31/70/347 22/51/347
f 35/53/348 23/142/348 105/54/348
f 34/47/349 21/49/349 22/56/349
f 30/13/22 26/15/22 1/58/22
f 7/60/23 29/9/23 30/13/23
f 101/61/24 106/7/24 29/9/24
f 115/62/25 120/4/25 28/6/25
f 74/64/350 79/1/350 27/3/350
f 43/66/351 41/72/351 40/67/351
f 13/69/352 35/53/352 107/55/352
f 76/21/353 12/20/353 31/70/353
f 43/66/354 42/87/354 39/71/354
f 117/73/355 11/107/355 33/74/355
f 36/75/356 41/72/356 39/71/356
f 36/75/357 37/78/357 40/67/357
f 46/77/358 45/83/358 36/75/358
f 44/68/359 40/67/359 37/78/359
f 42/80/360 46/84/360 38/81/360
f 45/83/361 47/79/361 37/78/361
f 15/26/362 14/86/362 47/79/362
f 31/70/363 12/20/363 46/84/363
f 32/85/364 44/68/364 47/79/364
f 15/26/365 45/83/365 46/77/365
f 34/47/366 31/57/366 42/87/366
f 34/47/367 43/66/367 44/68/367
f 62/88/368 50/108/368 122/89/368
f 63/91/45 52/25/45 48/10/45
f 65/93/369 51/22/369 108/24/369
f 70/95/370 66/446/370 68/96/370
f 64/92/48 48/10/48 49/12/48
f 56/99/49 54/146/49 123/28/49
f 58/101/371 54/146/371 56/99/371
f 57/27/372 60/106/372 55/103/372
f 59/102/373 56/99/373 124/100/373
f 122/89/374 50/108/374 59/102/374
f 13/69/375 51/22/375 60/106/375
f 11/107/376 58/101/376 59/102/376
f 117/73/377 13/69/377 57/27/377
f 2/109/57 10/14/57 64/92/57
f 2/110/378 61/447/378 82/111/378
f 6/5/59 65/93/59 109/94/59
f 10/14/60 8/8/60 63/91/60
f 4/2/379 62/88/379 127/90/379
f 84/115/380 68/448/380 66/116/380
f 73/118/381 72/124/381 69/119/381
f 71/121/382 68/448/382 84/115/382
f 85/123/383 73/118/383 67/120/383
f 81/19/384 50/108/384 73/118/384
f 82/111/385 61/447/385 71/121/385
f 50/108/68 62/88/68 72/124/68
f 49/12/69 70/95/69 71/97/69
f 82/111/386 86/122/386 72/124/386
f 81/19/387 85/123/387 70/125/387
f 85/123/388 83/117/388 66/116/388
f 72/124/389 86/122/389 84/115/389
f 84/115/62 83/117/62 67/120/62
f 4/2/390 75/112/390 82/111/390
f 11/107/391 76/21/391 80/50/391
f 26/127/392 79/1/392 74/64/392
f 80/50/19 78/52/19 25/45/19
f 91/41/82 92/36/82 77/38/82
f 81/19/393 76/21/393 11/107/393
f 2/110/394 75/112/394 79/1/394
f 25/45/395 78/52/395 92/36/395
f 25/45/396 91/41/396 128/43/396
f 24/48/397 90/39/397 87/40/397
f 78/52/398 22/51/398 89/130/398
f 114/131/399 97/136/399 95/132/399
f 22/56/400 21/49/400 87/40/400
f 95/132/401 96/143/401 112/134/401
f 99/135/402 96/143/402 95/132/402
f 113/137/403 100/139/403 93/138/403
f 100/139/404 98/141/404 94/140/404
f 90/39/405 24/48/405 98/141/405
f 110/35/406 90/39/406 100/139/406
f 88/33/407 99/135/407 97/136/407
f 23/142/408 97/136/408 114/131/408
f 105/54/409 114/131/409 98/141/409
f 110/35/410 113/137/410 99/135/410
f 113/137/411 112/134/411 96/143/411
f 111/133/412 112/134/412 93/138/412
f 114/131/413 111/133/413 94/140/413
f 8/8/59 102/113/59 109/94/59
f 109/94/46 108/24/46 52/25/46
f 103/23/414 107/55/414 32/85/414
f 28/6/24 106/7/24 101/61/24
f 32/85/20 107/55/20 105/54/20
f 110/35/415 104/34/415 19/144/415
f 52/25/46 108/24/46 103/23/46
f 6/5/3 102/113/3 106/7/3
f 119/46/16 128/43/16 88/33/16
f 6/5/416 116/114/416 127/90/416
f 117/73/417 126/29/417 58/101/417
f 51/22/418 122/89/418 125/105/418
f 60/106/419 125/105/419 124/100/419
f 55/103/49 124/100/49 123/28/49
f 65/93/420 127/90/420 122/89/420
f 117/73/31 121/44/31 35/53/31
f 27/3/25 120/4/25 115/62/25
f 121/44/17 119/46/17 23/142/17
f 128/43/421 118/42/421 18/145/421
f 126/29/422 123/28/422 54/146/422
f 4/2/423 116/114/423 120/4/423
f 207/147/424 203/258/424 132/148/424
f 248/150/425 244/260/425 134/151/425
f 234/153/114 230/259/114 136/154/114
f 176/156/426 143/172/426 140/157/426
f 136/154/116 138/255/116 158/159/116
f 158/159/117 138/255/117 130/160/117
f 217/162/427 215/186/427 148/163/427
f 209/165/428 177/272/428 140/166/428
f 179/168/429 141/215/429 231/169/429
f 180/171/430 142/232/430 143/172/430
f 185/173/431 181/250/431 251/174/431
f 246/449/12 144/450/12 205/176/12
f 205/176/12 145/451/12 148/177/12
f 148/177/12 147/452/12 232/178/12
f 232/178/12 146/453/12 246/449/12
f 246/449/12 205/176/12 232/178/12
f 216/179/432 146/292/432 232/180/432
f 220/182/433 217/277/433 145/183/433
f 218/185/434 147/291/434 148/163/434
f 219/187/435 144/276/435 246/188/435
f 249/190/436 161/220/436 153/191/436
f 162/193/437 160/231/437 152/194/437
f 208/196/438 159/216/438 150/197/438
f 163/199/439 151/289/439 233/200/439
f 162/193/440 149/195/440 150/202/440
f 158/159/132 154/161/132 129/204/132
f 157/155/133 158/159/133 137/205/133
f 229/207/134 234/153/134 157/155/134
f 243/208/135 248/150/135 156/152/135
f 202/210/441 207/147/441 155/149/441
f 171/212/442 169/218/442 168/213/442
f 141/215/443 163/199/443 235/201/443
f 204/167/444 140/166/444 159/216/444
f 171/212/445 170/233/445 167/217/445
f 245/219/446 139/253/446 161/220/446
f 164/221/447 169/218/447 167/217/447
f 164/221/448 165/224/448 168/213/448
f 174/223/449 173/229/449 164/221/449
f 172/214/450 168/213/450 165/224/450
f 170/226/451 174/230/451 166/227/451
f 173/229/452 175/225/452 165/224/452
f 143/172/453 142/232/453 175/225/453
f 159/216/454 140/166/454 174/230/454
f 160/231/455 172/214/455 175/225/455
f 143/172/456 173/229/456 174/223/456
f 162/193/457 159/203/457 170/233/457
f 162/193/458 171/212/458 172/214/458
f 190/234/459 178/254/459 250/235/459
f 191/237/155 180/171/155 176/156/155
f 193/239/460 179/168/460 236/170/460
f 198/241/461 194/454/461 196/242/461
f 189/244/158 192/238/158 176/156/158
f 184/245/159 182/293/159 251/174/159
f 186/247/462 182/293/462 184/245/462
f 185/173/463 188/252/463 183/249/463
f 187/248/464 184/245/464 252/246/464
f 250/235/465 178/254/465 187/248/465
f 141/215/466 179/168/466 188/252/466
f 139/253/467 186/247/467 187/248/467
f 245/219/468 141/215/468 185/173/468
f 138/255/167 192/238/167 189/244/167
f 130/256/469 189/455/469 210/257/469
f 134/151/169 193/239/169 237/240/169
f 136/154/170 191/237/170 192/238/170
f 132/148/470 190/234/470 255/236/470
f 196/261/172 194/273/172 211/262/172
f 201/264/471 200/270/471 197/265/471
f 199/267/472 196/261/472 212/263/472
f 213/269/473 201/264/473 195/266/473
f 209/165/474 178/254/474 201/264/474
f 210/257/475 189/455/475 199/267/475
f 178/254/178 190/234/178 200/270/178
f 177/158/179 198/241/179 199/243/179
f 210/257/476 214/268/476 200/270/476
f 209/165/477 213/269/477 198/271/477
f 213/269/175 211/262/175 194/273/175
f 200/270/478 214/268/478 212/263/478
f 197/265/172 212/263/172 211/262/172
f 132/148/479 203/258/479 210/257/479
f 139/253/480 204/167/480 208/196/480
f 154/274/481 207/147/481 202/210/481
f 208/196/129 206/198/129 153/191/129
f 219/187/192 220/182/192 205/184/192
f 209/165/482 204/167/482 139/253/482
f 130/256/483 203/258/483 207/147/483
f 153/191/484 206/198/484 220/182/484
f 153/191/485 219/187/485 256/189/485
f 152/194/486 218/185/486 215/186/486
f 206/198/487 150/197/487 217/277/487
f 242/278/488 225/283/488 223/279/488
f 150/202/489 149/195/489 215/186/489
f 223/279/490 224/290/490 240/281/490
f 227/282/491 224/290/491 223/279/491
f 241/284/492 228/286/492 221/285/492
f 228/286/493 226/288/493 222/287/493
f 218/185/494 152/194/494 226/288/494
f 238/181/495 218/185/495 228/286/495
f 216/179/496 227/282/496 225/283/496
f 151/289/497 225/283/497 242/278/497
f 233/200/498 242/278/498 226/288/498
f 238/181/499 241/284/499 227/282/499
f 241/284/500 240/281/500 224/290/500
f 239/280/501 240/281/501 221/285/501
f 242/278/502 239/280/502 222/287/502
f 136/154/169 230/259/169 237/240/169
f 237/240/156 236/170/156 180/171/156
f 231/169/503 235/201/503 160/231/503
f 156/152/134 234/153/134 229/207/134
f 160/231/130 235/201/130 233/200/130
f 238/181/504 232/180/504 147/291/504
f 180/171/156 236/170/156 231/169/156
f 134/151/114 230/259/114 234/153/114
f 247/192/126 256/189/126 216/179/126
f 134/151/505 244/260/505 255/236/505
f 245/219/506 254/175/506 186/247/506
f 179/168/507 250/235/507 253/251/507
f 188/252/508 253/251/508 252/246/508
f 183/249/159 252/246/159 251/174/159
f 193/239/509 255/236/509 250/235/509
f 245/219/141 249/190/141 163/199/141
f 155/149/135 248/150/135 243/208/135
f 249/190/127 247/192/127 151/289/127
f 256/189/510 246/188/510 146/292/510
f 254/175/511 251/174/511 182/293/511
f 132/148/512 244/260/512 248/150/512
f 335/294/513 331/405/513 260/295/513
f 376/297/514 372/407/514 262/298/514
f 362/300/224 358/406/224 264/301/224
f 304/303/515 271/320/515 268/304/515
f 285/302/226 264/301/226 266/306/226
f 286/307/227 266/306/227 258/308/227
f 345/310/516 343/334/516 276/311/516
f 337/313/517 305/419/517 268/314/517
f 307/316/518 269/363/518 359/317/518
f 308/319/519 270/380/519 271/320/519
f 313/321/520 309/398/520 379/322/520
f 374/456/12 272/457/12 333/324/12
f 333/324/12 273/458/12 276/325/12
f 276/325/12 275/459/12 360/326/12
f 360/326/12 274/460/12 374/456/12
f 374/456/12 333/324/12 360/326/12
f 344/327/521 274/439/521 360/328/521
f 348/330/522 345/424/522 273/331/522
f 346/333/523 275/438/523 276/311/523
f 347/335/524 272/423/524 374/336/524
f 377/338/525 289/368/525 281/339/525
f 290/341/526 288/379/526 280/342/526
f 336/344/527 287/364/527 278/345/527
f 291/347/528 279/436/528 361/348/528
f 290/341/529 277/343/529 278/350/529
f 286/307/242 282/309/242 257/352/242
f 285/302/243 286/307/243 265/353/243
f 357/355/244 362/300/244 285/302/244
f 371/356/245 376/297/245 284/299/245
f 330/358/530 335/294/530 283/296/530
f 299/360/531 297/366/531 296/361/531
f 269/363/532 291/347/532 363/349/532
f 332/315/533 268/314/533 287/364/533
f 299/360/534 298/381/534 295/365/534
f 373/367/535 267/401/535 289/368/535
f 292/369/536 297/366/536 295/365/536
f 292/369/537 293/372/537 296/361/537
f 302/371/538 301/377/538 292/369/538
f 300/362/539 296/361/539 293/372/539
f 298/374/540 302/378/540 294/375/540
f 301/377/541 303/373/541 293/372/541
f 271/320/542 270/380/542 303/373/542
f 287/364/543 268/314/543 302/378/543
f 288/379/544 300/362/544 303/373/544
f 271/320/545 301/377/545 302/371/545
f 290/341/546 287/351/546 298/381/546
f 290/341/547 299/360/547 300/362/547
f 318/382/548 306/402/548 378/383/548
f 319/385/265 308/319/265 304/303/265
f 321/387/549 307/316/549 364/318/549
f 326/389/550 322/461/550 324/390/550
f 320/386/268 304/303/268 305/305/268
f 312/393/269 310/440/269 379/322/269
f 314/395/551 310/440/551 312/393/551
f 313/321/552 316/400/552 311/397/552
f 315/396/553 312/393/553 380/394/553
f 378/383/554 306/402/554 315/396/554
f 269/363/555 307/316/555 316/400/555
f 267/401/556 314/395/556 315/396/556
f 373/367/557 269/363/557 313/321/557
f 258/308/277 266/306/277 320/386/277
f 258/403/558 317/462/558 338/404/558
f 262/298/279 321/387/279 365/388/279
f 266/306/280 264/301/280 319/385/280
f 260/295/559 318/382/559 383/384/559
f 324/408/560 322/420/560 339/409/560
f 329/411/561 328/417/561 325/412/561
f 327/414/562 324/408/562 340/410/562
f 341/416/563 329/411/563 323/413/563
f 337/313/564 306/402/564 329/411/564
f 338/404/565 317/462/565 327/414/565
f 306/402/288 318/382/288 328/417/288
f 305/305/289 326/389/289 327/391/289
f 338/404/566 342/415/566 328/417/566
f 337/313/567 341/416/567 326/418/567
f 341/416/285 339/409/285 322/420/285
f 328/417/568 342/415/568 340/410/568
f 340/410/569 339/409/569 323/413/569
f 260/295/570 331/405/570 338/404/570
f 267/401/571 332/315/571 336/344/571
f 282/421/572 335/294/572 330/358/572
f 336/344/239 334/346/239 281/339/239
f 347/335/303 348/330/303 333/332/303
f 337/313/573 332/315/573 267/401/573
f 258/403/574 331/405/574 335/294/574
f 281/339/575 334/346/575 348/330/575
f 281/339/576 347/335/576 384/337/576
f 280/342/577 346/333/577 343/334/577
f 334/346/578 278/345/578 345/424/578
f 370/425/579 353/430/579 351/426/579
f 278/350/580 277/343/580 343/334/580
f 351/426/581 352/437/581 368/428/581
f 355/429/582 352/437/582 351/426/582
f 369/431/583 356/433/583 349/432/583
f 356/433/584 354/435/584 350/434/584
f 346/333/585 280/342/585 354/435/585
f 366/329/586 346/333/586 356/433/586
f 344/327/587 355/429/587 353/430/587
f 279/436/588 353/430/588 370/425/588
f 361/348/589 370/425/589 354/435/589
f 366/329/590 369/431/590 355/429/590
f 369/431/591 368/428/591 352/437/591
f 367/427/592 368/428/592 349/432/592
f 370/425/593 367/427/593 350/434/593
f 264/301/279 358/406/279 365/388/279
f 365/388/266 364/318/266 308/319/266
f 359/317/594 363/349/594 288/379/594
f 284/299/244 362/300/244 357/355/244
f 288/379/240 363/349/240 361/348/240
f 366/329/595 360/328/595 275/438/595
f 308/319/266 364/318/266 359/317/266
f 262/298/224 358/406/224 362/300/224
f 375/340/236 384/337/236 344/327/236
f 262/298/596 372/407/596 383/384/596
f 373/367/597 382/323/597 314/395/597
f 307/316/598 378/383/598 381/399/598
f 316/400/599 381/399/599 380/394/599
f 311/397/269 380/394/269 379/322/269
f 321/387/600 383/384/600 378/383/600
f 373/367/251 377/338/251 291/347/251
f 283/296/245 376/297/245 371/356/245
f 377/338/237 375/340/237 279/436/237
f 384/337/601 374/336/601 274/439/601
f 382/323/602 379/322/602 310/440/602
f 260/295/603 372/407/603 376/297/603
