# Blender v2.80 (sub 75) OBJ File: 'game_assets.blend'
# www.blender.org
mtllib extractor.mtl
o Cube.000_Cube.001
v -0.094068 0.347178 0.377297
v -0.094068 0.347178 0.388213
v -0.084614 0.352636 0.377297
v -0.084614 0.352636 0.388213
v -0.044945 0.262095 0.377297
v -0.044945 0.262095 0.388213
v -0.035491 0.267553 0.377297
v -0.035491 0.267553 0.388213
v -0.039727 0.321830 0.487726
v -0.224075 0.215396 0.487726
v -0.022589 0.292146 0.471220
v -0.206937 0.185712 0.471220
v -0.018356 0.284814 0.434130
v -0.202704 0.178381 0.434130
v -0.030216 0.305356 0.404387
v -0.214564 0.198923 0.404387
v -0.049238 0.338303 0.404387
v -0.233586 0.231869 0.404387
v -0.061098 0.358845 0.434130
v -0.245446 0.252411 0.434130
v -0.056865 0.351513 0.471220
v -0.241213 0.245080 0.471220
v -0.056085 0.312385 0.498467
v -0.034748 0.275429 0.477917
v -0.186380 0.187884 0.477917
v -0.207717 0.224841 0.498467
v -0.029479 0.266302 0.431740
v -0.181111 0.178757 0.431740
v -0.044244 0.291876 0.394710
v -0.195876 0.204331 0.394710
v -0.067926 0.332894 0.394710
v -0.219558 0.245350 0.394710
v -0.082691 0.358469 0.431740
v -0.234323 0.270924 0.431740
v -0.077422 0.349341 0.477917
v -0.229054 0.261797 0.477917
v -0.059768 0.310259 0.498467
v -0.069697 0.304526 0.498467
v -0.194105 0.232700 0.498467
v -0.204034 0.226967 0.498467
v -0.182697 0.190011 0.477917
v -0.172768 0.195743 0.477917
v -0.048361 0.267570 0.477917
v -0.038431 0.273303 0.477917
v -0.177428 0.180883 0.431740
v -0.167498 0.186616 0.431740
v -0.043091 0.258443 0.431740
v -0.033162 0.264175 0.431740
v -0.192193 0.206458 0.394710
v -0.182264 0.212190 0.394710
v -0.057856 0.284017 0.394710
v -0.047927 0.289750 0.394710
v -0.215875 0.247476 0.394710
v -0.205946 0.253209 0.394710
v -0.081538 0.325035 0.394710
v -0.071609 0.330768 0.394710
v -0.230640 0.273050 0.431740
v -0.220711 0.278783 0.431740
v -0.096304 0.350610 0.431740
v -0.086374 0.356342 0.431740
v -0.225371 0.263923 0.477917
v -0.215441 0.269656 0.477917
v -0.091034 0.341482 0.477917
v -0.081105 0.347215 0.477917
v -0.059768 0.310259 0.506174
v -0.069697 0.304526 0.506174
v -0.194105 0.232700 0.506174
v -0.204034 0.226967 0.506174
v -0.179685 0.184792 0.482722
v -0.169755 0.190525 0.482722
v -0.045348 0.262352 0.482722
v -0.035419 0.268084 0.482722
v -0.173671 0.174376 0.430025
v -0.163741 0.180109 0.430025
v -0.039334 0.251935 0.430025
v -0.029405 0.257668 0.430025
v -0.190521 0.203562 0.387766
v -0.180592 0.209294 0.387766
v -0.056184 0.281121 0.387766
v -0.046255 0.286854 0.387766
v -0.217547 0.250372 0.387766
v -0.207618 0.256105 0.387766
v -0.083210 0.327931 0.387766
v -0.073281 0.333664 0.387766
v -0.234397 0.279558 0.430025
v -0.224468 0.285290 0.430025
v -0.100061 0.357117 0.430025
v -0.090131 0.362850 0.430025
v -0.228383 0.269141 0.482722
v -0.218454 0.274874 0.482722
v -0.094047 0.346701 0.482722
v -0.084117 0.352433 0.482722
v -0.228311 0.269673 0.377297
v -0.228311 0.269673 0.388213
v -0.218857 0.275131 0.377297
v -0.218857 0.275131 0.388213
v -0.179188 0.184589 0.377297
v -0.179188 0.184589 0.388213
v -0.169734 0.190047 0.377297
v -0.169734 0.190047 0.388213
v 0.449169 0.081634 0.000000
v 0.449169 0.081634 0.129331
v 0.570417 -0.128372 0.000000
v 0.570417 -0.128372 0.129331
v 0.239163 -0.039613 0.000000
v 0.239163 -0.039613 0.226328
v 0.360410 -0.249620 0.000000
v 0.360410 -0.249620 0.226328
v 0.449169 0.081634 0.048499
v 0.570417 -0.128372 0.048499
v 0.360410 -0.249620 0.048499
v 0.239163 -0.039613 0.048499
v -0.103745 0.387631 0.378604
v -0.103745 0.387631 0.391650
v -0.092446 0.394154 0.378604
v -0.092446 0.394154 0.391650
v -0.045037 0.285947 0.378604
v -0.045037 0.285947 0.391650
v -0.033739 0.292470 0.378604
v -0.033739 0.292470 0.391650
v -0.027435 0.337649 0.410980
v -0.247752 0.210449 0.410980
v -0.050168 0.377024 0.410980
v -0.270485 0.249824 0.410980
v -0.026553 0.290974 0.443670
v -0.207771 0.186348 0.443670
v -0.044200 0.321539 0.399415
v -0.225417 0.216913 0.399415
v -0.072502 0.370560 0.399415
v -0.253720 0.265934 0.399415
v -0.090149 0.401125 0.443670
v -0.271366 0.296499 0.443670
v -0.203369 0.188890 0.443670
v -0.191503 0.195741 0.443670
v -0.042821 0.281582 0.443670
v -0.030955 0.288433 0.443670
v -0.221016 0.219454 0.399415
v -0.209149 0.226305 0.399415
v -0.060468 0.312146 0.399415
v -0.048601 0.318998 0.399415
v -0.249318 0.268476 0.399415
v -0.237452 0.275327 0.399415
v -0.088770 0.361168 0.399415
v -0.076904 0.368019 0.399415
v -0.266965 0.299040 0.443670
v -0.255098 0.305891 0.443670
v -0.106417 0.391732 0.443670
v -0.094550 0.398584 0.443670
v -0.198879 0.181113 0.441621
v -0.187013 0.187964 0.441621
v -0.038331 0.273805 0.441621
v -0.026465 0.280656 0.441621
v -0.219017 0.215993 0.391116
v -0.207151 0.222844 0.391116
v -0.058470 0.308685 0.391116
v -0.046603 0.315536 0.391116
v -0.251316 0.271937 0.391116
v -0.239450 0.278788 0.391116
v -0.090769 0.364629 0.391116
v -0.078902 0.371480 0.391116
v -0.271455 0.306817 0.441621
v -0.259588 0.313668 0.441621
v -0.110907 0.399509 0.441621
v -0.099040 0.406360 0.441621
v -0.264181 0.295004 0.378604
v -0.264181 0.295004 0.391650
v -0.252883 0.301527 0.378604
v -0.252883 0.301527 0.391650
v -0.205473 0.193319 0.378604
v -0.205473 0.193319 0.391650
v -0.194175 0.199842 0.378604
v -0.194175 0.199842 0.391650
v -0.060964 0.480220 0.000000
v -0.068941 0.422542 0.404158
v 0.302779 -0.149800 0.000000
v 0.248839 -0.127869 0.404158
v -0.550979 0.197310 0.000000
v -0.497039 0.175380 0.404158
v -0.187237 -0.432710 0.000000
v -0.179259 -0.375032 0.404158
v -0.060964 0.480220 0.404158
v 0.302779 -0.149800 0.404158
v -0.187237 -0.432710 0.404158
v -0.550979 0.197310 0.404158
v -0.068941 0.422542 0.379244
v 0.248839 -0.127869 0.379244
v -0.179259 -0.375032 0.379244
v -0.497039 0.175380 0.379244
v -0.060964 0.480220 0.080832
v 0.302779 -0.149800 0.080832
v -0.187237 -0.432710 0.080832
v -0.550979 0.197310 0.080832
v 0.302779 -0.149800 0.000000
v 0.280662 -0.183297 0.242495
v 0.424026 -0.359806 0.000000
v 0.383959 -0.362211 0.242495
v -0.117235 -0.392294 0.000000
v -0.077167 -0.389889 0.242495
v 0.004013 -0.602301 0.000000
v 0.026129 -0.568804 0.242495
v 0.302779 -0.149800 0.242495
v 0.424026 -0.359806 0.242495
v 0.004013 -0.602301 0.242495
v -0.117235 -0.392294 0.242495
v 0.280662 -0.183297 0.220667
v 0.383959 -0.362211 0.220667
v 0.026129 -0.568804 0.220667
v -0.077167 -0.389889 0.220667
v 0.302779 -0.149800 0.080738
v 0.424026 -0.359806 0.080738
v 0.004013 -0.602301 0.080738
v -0.117235 -0.392294 0.080738
v 0.149043 0.601468 0.000000
v 0.149043 0.601468 0.080832
v 0.270291 0.391461 0.000000
v 0.270291 0.391461 0.080832
v -0.060964 0.480220 0.000000
v -0.060964 0.480220 0.080832
v 0.060284 0.270214 0.000000
v 0.060284 0.270214 0.080832
v 0.149346 0.358448 0.080832
v 0.135840 0.381842 0.889147
v 0.048469 0.371509 0.080832
v 0.065455 0.390955 0.889147
v 0.025251 0.473474 0.080832
v 0.049255 0.462099 0.889147
v 0.111778 0.523431 0.080832
v 0.109628 0.496955 0.889147
v 0.188473 0.452341 0.080832
v 0.163140 0.447353 0.889147
v 0.137593 0.378805 0.784195
v 0.063250 0.388430 0.784195
v 0.046139 0.463576 0.784195
v 0.109907 0.500392 0.784195
v 0.166429 0.448001 0.784195
v 0.061980 0.386977 0.723782
v 0.044344 0.464426 0.723782
v 0.110068 0.502371 0.723782
v 0.168323 0.448374 0.723782
v 0.138603 0.377056 0.723782
v 0.059502 0.384140 0.605842
v 0.040842 0.466086 0.605842
v 0.110381 0.506234 0.605842
v 0.172019 0.449102 0.605842
v 0.140574 0.373643 0.605842
v 0.057897 0.382302 0.529475
v 0.038574 0.467160 0.529475
v 0.110585 0.508736 0.529475
v 0.174412 0.449573 0.529475
v 0.141850 0.371433 0.529475
v -0.550979 0.197310 0.242495
v -0.690983 0.116478 0.242495
v -0.187237 -0.432710 0.242495
v -0.327241 -0.513542 0.242495
v -0.197784 0.410041 0.000000
v -0.197784 0.410041 0.161663
v -0.298661 0.423102 0.000000
v -0.298661 0.423102 0.161663
v -0.321880 0.525067 0.000000
v -0.321880 0.525067 0.161663
v -0.235352 0.575023 0.000000
v -0.235352 0.575023 0.161663
v -0.158657 0.503933 0.000000
v -0.158657 0.503933 0.161663
v -0.197784 0.410041 0.080832
v -0.298661 0.423102 0.080832
v -0.321880 0.525067 0.080832
v -0.235352 0.575023 0.080832
v -0.158657 0.503933 0.080832
v -0.575415 -0.019027 0.000000
v -0.575415 -0.019027 0.242495
v -0.605582 0.000891 0.000000
v -0.605582 0.000891 0.242495
v -0.577581 0.017057 0.000000
v -0.577581 0.017057 0.242495
v -0.575415 -0.019027 0.090936
v -0.605582 0.000891 0.090936
v -0.577581 0.017057 0.090936
v -0.373336 -0.369038 0.000000
v -0.373336 -0.369038 0.242495
v -0.403503 -0.349120 0.000000
v -0.403503 -0.349120 0.242495
v -0.375502 -0.332954 0.000000
v -0.375502 -0.332954 0.242495
v -0.373336 -0.369038 0.090936
v -0.403503 -0.349120 0.090936
v -0.375502 -0.332954 0.090936
v -0.023418 0.242152 0.378604
v -0.023418 0.242152 0.391650
v -0.012120 0.248675 0.378604
v -0.012120 0.248675 0.391650
v 0.035290 0.140468 0.378604
v 0.035290 0.140468 0.391650
v 0.046588 0.146991 0.378604
v 0.046588 0.146991 0.391650
v 0.067066 0.167620 0.446527
v 0.052892 0.192170 0.410980
v -0.167425 0.064970 0.410980
v 0.030159 0.231545 0.410980
v -0.190158 0.104345 0.410980
v 0.015985 0.256095 0.446527
v 0.053773 0.145495 0.443670
v -0.127444 0.040869 0.443670
v 0.036127 0.176060 0.399415
v -0.145090 0.071434 0.399415
v 0.007824 0.225081 0.399415
v -0.173393 0.120455 0.399415
v -0.009822 0.255646 0.443670
v -0.191039 0.151020 0.443670
v -0.123043 0.043411 0.443670
v -0.111176 0.050262 0.443670
v 0.037505 0.136103 0.443670
v 0.049372 0.142954 0.443670
v -0.140689 0.073975 0.399415
v -0.128822 0.080826 0.399415
v 0.019859 0.166667 0.399415
v 0.031726 0.173519 0.399415
v -0.168992 0.122997 0.399415
v -0.157125 0.129848 0.399415
v -0.008444 0.215689 0.399415
v 0.003423 0.222540 0.399415
v -0.186638 0.153561 0.443670
v -0.174771 0.160412 0.443670
v -0.026090 0.246253 0.443670
v -0.014223 0.253105 0.443670
v -0.118553 0.035634 0.441621
v -0.106686 0.042485 0.441621
v 0.041995 0.128326 0.441621
v 0.053862 0.135177 0.441621
v -0.138691 0.070514 0.391116
v -0.126824 0.077365 0.391116
v 0.021857 0.163206 0.391116
v 0.033724 0.170058 0.391116
v -0.170990 0.126458 0.391116
v -0.159123 0.133309 0.391116
v -0.010442 0.219150 0.391116
v 0.001425 0.226001 0.391116
v -0.191128 0.161338 0.441621
v -0.179261 0.168189 0.441621
v -0.030580 0.254030 0.441621
v -0.018713 0.260881 0.441621
v -0.183854 0.149525 0.378604
v -0.183854 0.149525 0.391650
v -0.172556 0.156048 0.378604
v -0.172556 0.156048 0.391650
v -0.125146 0.047840 0.378604
v -0.125146 0.047840 0.391650
v -0.113848 0.054363 0.378604
v -0.113848 0.054363 0.391650
v -0.021316 0.219615 0.377297
v -0.021316 0.219615 0.388213
v -0.011862 0.225073 0.377297
v -0.011862 0.225073 0.388213
v 0.027807 0.134532 0.377297
v 0.027807 0.134532 0.388213
v 0.037261 0.139990 0.377297
v 0.037261 0.139990 0.388213
v 0.033025 0.194266 0.487726
v -0.151323 0.087833 0.487726
v 0.050163 0.164583 0.471220
v -0.134185 0.058149 0.471220
v 0.054396 0.157251 0.434130
v -0.129952 0.050818 0.434130
v 0.042536 0.177793 0.404387
v -0.141812 0.071360 0.404387
v 0.023514 0.210740 0.404387
v -0.160834 0.104306 0.404387
v 0.011654 0.231282 0.434130
v -0.172694 0.124848 0.434130
v 0.015887 0.223950 0.471220
v -0.168461 0.117517 0.471220
v 0.016667 0.184822 0.498467
v 0.038004 0.147866 0.477917
v -0.113628 0.060321 0.477917
v -0.134965 0.097277 0.498467
v 0.043273 0.138738 0.431740
v -0.108358 0.051194 0.431740
v 0.028508 0.164313 0.394710
v -0.123124 0.076768 0.394710
v 0.004826 0.205331 0.394710
v -0.146806 0.117787 0.394710
v -0.009939 0.230906 0.431740
v -0.161571 0.143361 0.431740
v -0.004670 0.221778 0.477917
v -0.156301 0.134234 0.477917
v 0.012984 0.182696 0.498467
v 0.003055 0.176963 0.498467
v -0.121353 0.105136 0.498467
v -0.131282 0.099404 0.498467
v -0.109945 0.062448 0.477917
v -0.100016 0.068180 0.477917
v 0.024392 0.140007 0.477917
v 0.034321 0.145740 0.477917
v -0.104676 0.053320 0.431740
v -0.094746 0.059053 0.431740
v 0.029661 0.130879 0.431740
v 0.039591 0.136612 0.431740
v -0.119441 0.078895 0.394710
v -0.109512 0.084627 0.394710
v 0.014896 0.156454 0.394710
v 0.024825 0.162187 0.394710
v -0.143123 0.119913 0.394710
v -0.133193 0.125646 0.394710
v -0.008786 0.197472 0.394710
v 0.001143 0.203205 0.394710
v -0.157888 0.145487 0.431740
v -0.147959 0.151220 0.431740
v -0.023552 0.223047 0.431740
v -0.013622 0.228779 0.431740
v -0.152619 0.136360 0.477917
v -0.142689 0.142093 0.477917
v -0.018282 0.213919 0.477917
v -0.008353 0.219652 0.477917
v 0.012984 0.182696 0.506174
v 0.003055 0.176963 0.506174
v -0.121353 0.105136 0.506174
v -0.131282 0.099404 0.506174
v -0.106932 0.057229 0.482722
v -0.097003 0.062962 0.482722
v 0.027404 0.134789 0.482722
v 0.037334 0.140521 0.482722
v -0.100919 0.046813 0.430025
v -0.090989 0.052546 0.430025
v 0.033418 0.124372 0.430025
v 0.043347 0.130105 0.430025
v -0.117769 0.075999 0.387766
v -0.107840 0.081731 0.387766
v 0.016568 0.153558 0.387766
v 0.026497 0.159291 0.387766
v -0.144795 0.122809 0.387766
v -0.134865 0.128542 0.387766
v -0.010458 0.200368 0.387766
v -0.000529 0.206101 0.387766
v -0.161645 0.151994 0.430025
v -0.151716 0.157727 0.430025
v -0.027308 0.229554 0.430025
v -0.017379 0.235287 0.430025
v -0.155631 0.141578 0.482722
v -0.145702 0.147311 0.482722
v -0.021295 0.219138 0.482722
v -0.011365 0.224870 0.482722
v -0.155559 0.142110 0.377297
v -0.155559 0.142110 0.388213
v -0.146105 0.147568 0.377297
v -0.146105 0.147568 0.388213
v -0.106436 0.057026 0.377297
v -0.106436 0.057026 0.388213
v -0.096982 0.062484 0.377297
v -0.096982 0.062484 0.388213
vt 0.536934 0.490822
vt 0.529080 0.481753
vt 0.536934 0.481753
vt 0.635708 0.490822
vt 0.565027 0.481753
vt 0.635708 0.481753
vt 0.488272 0.490822
vt 0.496126 0.481753
vt 0.488272 0.481753
vt 0.560493 0.490822
vt 0.631174 0.481753
vt 0.560493 0.481753
vt 0.565027 0.488272
vt 0.631174 0.536934
vt 0.635708 0.529080
vt 0.635708 0.529080
vt 0.560493 0.496126
vt 0.565027 0.488272
vt 0.529545 0.631345
vt 0.500611 0.610560
vt 0.531312 0.628285
vt 0.613620 0.565341
vt 0.606183 0.526981
vt 0.610560 0.565341
vt 0.609242 0.526981
vt 0.618449 0.496219
vt 0.512508 0.621508
vt 0.548349 0.638122
vt 0.514274 0.618449
vt 0.641181 0.496219
vt 0.650388 0.526981
vt 0.638122 0.496219
vt 0.535384 0.504258
vt 0.508015 0.504258
vt 0.521700 0.573490
vt 0.653447 0.526981
vt 0.646010 0.565341
vt 0.562012 0.646010
vt 0.634775 0.559778
vt 0.585457 0.559778
vt 0.596432 0.504258
vt 0.610116 0.491791
vt 0.571570 0.487656
vt 0.585457 0.477555
vt 0.521700 0.644934
vt 0.498845 0.613620
vt 0.563988 0.526981
vt 0.579367 0.528966
vt 0.630697 0.559778
vt 0.585233 0.496219
vt 0.627181 0.528966
vt 0.621508 0.496219
vt 0.596432 0.483891
vt 0.619308 0.515217
vt 0.623801 0.499692
vt 0.535384 0.652835
vt 0.508015 0.637033
vt 0.499692 0.504258
vt 0.527483 0.526981
vt 0.509545 0.528966
vt 0.567828 0.526981
vt 0.546583 0.496219
vt 0.506028 0.559778
vt 0.523105 0.565341
vt 0.546359 0.559778
vt 0.552449 0.528966
vt 0.632971 0.523105
vt 0.602271 0.505380
vt 0.560246 0.649070
vt 0.546359 0.659171
vt 0.600504 0.508440
vt 0.566774 0.637762
vt 0.595742 0.516689
vt 0.626442 0.534413
vt 0.526165 0.565341
vt 0.642139 0.526981
vt 0.534413 0.565341
vt 0.538791 0.526981
vt 0.518277 0.496219
vt 0.515217 0.496219
vt 0.629873 0.496219
vt 0.526525 0.496219
vt 0.583467 0.498603
vt 0.585233 0.495544
vt 0.519036 0.610200
vt 0.612779 0.526525
vt 0.578705 0.506852
vt 0.486337 0.526981
vt 0.495544 0.496219
vt 0.483278 0.526981
vt 0.494586 0.526981
vt 0.610200 0.496219
vt 0.506852 0.496219
vt 0.490715 0.565341
vt 0.487656 0.565341
vt 0.602312 0.565341
vt 0.498964 0.565341
vt 0.569804 0.490715
vt 0.505374 0.602312
vt 0.565042 0.498964
vt 0.576299 0.505463
vt 0.619947 0.519665
vt 0.581061 0.497214
vt 0.511868 0.617060
vt 0.555517 0.631262
vt 0.516631 0.608811
vt 0.648453 0.490822
vt 0.640599 0.481753
vt 0.648453 0.481753
vt 0.571323 0.490822
vt 0.500642 0.481753
vt 0.571323 0.481753
vt 0.599792 0.490822
vt 0.607645 0.481753
vt 0.599792 0.481753
vt 0.496108 0.490822
vt 0.566789 0.481753
vt 0.496108 0.481753
vt 0.500642 0.599792
vt 0.566789 0.648453
vt 0.571323 0.640599
vt 0.571323 0.640599
vt 0.496108 0.607645
vt 0.500642 0.599792
vt 0.410580 0.275762
vt 0.236123 0.208613
vt 0.410580 0.208613
vt -0.015070 0.275762
vt 0.159388 0.208613
vt -0.015070 0.208613
vt 0.260111 0.208613
vt 0.085654 0.275762
vt 0.085654 0.208613
vt 0.135399 0.159388
vt 0.410580 0.085654
vt 0.236123 -0.015070
vt 0.135399 0.159388
vt 0.410580 0.085654
vt 0.309857 0.260111
vt 0.741696 0.504068
vt 0.218323 0.235473
vt 0.741696 0.235473
vt 0.207264 0.504068
vt 0.614331 0.235473
vt 0.207264 0.235473
vt -0.016698 0.504068
vt 0.506675 0.235473
vt -0.016698 0.235473
vt 0.916501 0.504068
vt 0.509433 0.235473
vt 0.916501 0.235473
vt 0.031217 0.504068
vt 0.488457 0.483371
vt 0.488457 0.504068
vt 0.693781 0.516061
vt 0.218323 0.207264
vt 0.741696 0.509433
vt 0.031217 0.607704
vt 0.236540 0.252073
vt 0.506675 0.916501
vt -0.016698 0.614331
vt 0.488457 0.871692
vt 0.236540 0.252073
vt 0.488457 0.871692
vt 0.031217 0.607704
vt 0.693781 0.504068
vt 0.236540 0.483371
vt 0.236540 0.504068
vt 0.871692 0.504068
vt 0.516061 0.483371
vt 0.516061 0.504068
vt 0.252073 0.504068
vt 0.607704 0.483371
vt 0.607704 0.504068
vt 0.218323 0.369770
vt 0.043865 0.235395
vt 0.218323 0.235395
vt 0.106540 0.369770
vt 0.455456 0.235395
vt 0.106540 0.235395
vt -0.157581 0.369770
vt 0.016876 0.235395
vt -0.157581 0.235395
vt 0.522894 0.369770
vt 0.225636 0.351637
vt 0.225636 0.369770
vt 0.041867 0.139826
vt 0.218323 0.207264
vt 0.190496 0.225636
vt -0.129754 0.437083
vt 0.043865 0.106540
vt 0.018874 0.522894
vt -0.157581 0.455456
vt 0.016876 0.556179
vt 0.041867 0.139826
vt 0.018874 0.522894
vt -0.129754 0.437083
vt 0.139826 0.369770
vt 0.437083 0.351637
vt 0.437083 0.369770
vt -0.129754 0.369770
vt 0.018874 0.351637
vt 0.018874 0.369770
vt 0.190496 0.369770
vt 0.041867 0.351637
vt 0.041867 0.369770
vt 0.345944 0.906960
vt 0.406246 0.819774
vt 0.344487 0.819774
vt 0.665443 0.819774
vt 0.726641 0.906960
vt 0.727868 0.819774
vt 0.417872 0.906960
vt 0.367487 0.819774
vt 0.420461 0.819774
vt 0.714392 0.323265
vt 0.755597 0.367719
vt 0.726641 0.417872
vt 0.367719 0.906960
vt 0.320533 0.819774
vt 0.714930 0.819774
vt 0.659970 0.906960
vt 0.657447 0.819774
vt 0.343649 0.769587
vt 0.409360 0.671611
vt 0.342011 0.671611
vt 0.661879 0.671611
vt 0.728575 0.769587
vt 0.729953 0.671611
vt 0.421951 0.769587
vt 0.367093 0.671611
vt 0.424861 0.671611
vt 0.367353 0.769587
vt 0.315889 0.671611
vt 0.715844 0.671611
vt 0.655994 0.769587
vt 0.653159 0.671611
vt 0.340951 0.608172
vt 0.418525 0.235473
vt 0.334724 0.235473
vt 0.651387 0.235473
vt 0.730846 0.608172
vt 0.736091 0.235473
vt 0.426745 0.608172
vt 0.365932 0.235473
vt 0.437813 0.235473
vt 0.366924 0.608172
vt 0.302220 0.235473
vt 0.718535 0.235473
vt 0.651323 0.608172
vt 0.640536 0.235473
vt 0.623093 0.302621
vt 0.706894 0.235473
vt 0.623093 0.235473
vt 0.694246 0.302621
vt 0.778950 0.235473
vt 0.694246 0.235473
vt 0.726182 0.302621
vt 0.654302 0.235473
vt 0.726182 0.235473
vt 0.820451 0.654302
vt 0.694246 0.706894
vt 0.761394 0.590589
vt 0.654302 0.302621
vt 0.590589 0.235473
vt 0.761394 0.302621
vt 0.683395 0.235473
vt 0.761394 0.235473
vt 0.476497 0.490822
vt 0.468643 0.481753
vt 0.476497 0.481753
vt 0.529739 0.490822
vt 0.459058 0.481753
vt 0.529739 0.481753
vt 0.427836 0.490822
vt 0.435689 0.481753
vt 0.427836 0.481753
vt 0.454523 0.490822
vt 0.525204 0.481753
vt 0.454523 0.481753
vt 0.459058 0.427836
vt 0.525204 0.476497
vt 0.529739 0.468643
vt 0.459058 0.427836
vt 0.525204 0.476497
vt 0.454523 0.435689
vt 0.423575 0.570908
vt 0.394641 0.550123
vt 0.425342 0.567848
vt 0.553183 0.565341
vt 0.545746 0.526981
vt 0.550123 0.565341
vt 0.548805 0.526981
vt 0.558012 0.496219
vt 0.408304 0.558012
vt 0.440613 0.580744
vt 0.442379 0.577685
vt 0.580744 0.496219
vt 0.589951 0.526981
vt 0.577685 0.496219
vt 0.429415 0.504258
vt 0.402045 0.504258
vt 0.415730 0.573490
vt 0.593010 0.526981
vt 0.585573 0.565341
vt 0.454276 0.588633
vt 0.456042 0.585573
vt 0.534896 0.528967
vt 0.528806 0.559778
vt 0.479488 0.559778
vt 0.504147 0.431354
vt 0.465601 0.427219
vt 0.479488 0.417118
vt 0.415730 0.584497
vt 0.392875 0.553183
vt 0.458018 0.526981
vt 0.473397 0.528967
vt 0.566744 0.528967
vt 0.570260 0.559778
vt 0.490462 0.504258
vt 0.479264 0.496219
vt 0.576596 0.504258
vt 0.517831 0.439255
vt 0.479264 0.435107
vt 0.513338 0.454780
vt 0.429415 0.592398
vt 0.406538 0.561071
vt 0.402045 0.576596
vt 0.439255 0.504258
vt 0.467046 0.526981
vt 0.449108 0.528967
vt 0.461858 0.526981
vt 0.440613 0.496219
vt 0.445591 0.559778
vt 0.462668 0.565341
vt 0.440389 0.559778
vt 0.446479 0.528967
vt 0.528806 0.445591
vt 0.496301 0.444944
vt 0.440389 0.598734
vt 0.525235 0.465728
vt 0.527001 0.462668
vt 0.460805 0.577325
vt 0.489772 0.456252
vt 0.520473 0.473976
vt 0.470106 0.526981
vt 0.581702 0.526981
vt 0.473976 0.565341
vt 0.478354 0.526981
vt 0.457840 0.496219
vt 0.454780 0.496219
vt 0.569436 0.496219
vt 0.466088 0.496219
vt 0.477497 0.438166
vt 0.413067 0.549763
vt 0.506810 0.466088
vt 0.472735 0.446415
vt 0.425900 0.526981
vt 0.435107 0.496219
vt 0.422841 0.526981
vt 0.434149 0.526981
vt 0.549763 0.496219
vt 0.446415 0.496219
vt 0.430278 0.565341
vt 0.427219 0.565341
vt 0.541875 0.565341
vt 0.438527 0.565341
vt 0.494535 0.448003
vt 0.399404 0.541875
vt 0.459072 0.438527
vt 0.475091 0.436778
vt 0.509215 0.467477
vt 0.513978 0.459229
vt 0.405899 0.556623
vt 0.449547 0.570825
vt 0.410661 0.548374
vt 0.588016 0.490822
vt 0.580162 0.481753
vt 0.588016 0.481753
vt 0.465353 0.490822
vt 0.394672 0.481753
vt 0.465353 0.481753
vt 0.539355 0.490822
vt 0.547208 0.481753
vt 0.539355 0.481753
vt 0.390138 0.490822
vt 0.460819 0.481753
vt 0.390138 0.481753
vt 0.394672 0.539355
vt 0.460819 0.588016
vt 0.465353 0.580162
vt 0.394672 0.539355
vt 0.460819 0.588016
vt 0.390138 0.547208
vt 0.529080 0.490822
vt 0.565027 0.490822
vt 0.496126 0.490822
vt 0.631174 0.490822
vt 0.560493 0.496126
vt 0.631174 0.536934
vt 0.546583 0.641181
vt 0.490950 0.528966
vt 0.497041 0.559778
vt 0.649070 0.565341
vt 0.610116 0.573490
vt 0.623801 0.504258
vt 0.640866 0.528966
vt 0.497041 0.630697
vt 0.571570 0.565341
vt 0.637033 0.504258
vt 0.560246 0.565341
vt 0.634775 0.506028
vt 0.631205 0.526165
vt 0.536074 0.620037
vt 0.530543 0.526981
vt 0.637762 0.565341
vt 0.617542 0.518277
vt 0.553111 0.629873
vt 0.498603 0.496219
vt 0.597934 0.526981
vt 0.615185 0.527914
vt 0.550755 0.639511
vt 0.640599 0.490822
vt 0.500642 0.490822
vt 0.607645 0.490822
vt 0.566789 0.490822
vt 0.496108 0.607645
vt 0.566789 0.648453
vt 0.236123 0.275762
vt 0.159388 0.356340
vt 0.260111 0.356340
vt 0.309857 0.260111
vt 0.236123 -0.015070
vt 0.218323 0.504068
vt 0.614331 0.504068
vt 0.506675 0.504068
vt 0.509433 0.504068
vt 0.031217 0.483371
vt 0.693781 0.516061
vt 0.693781 0.483371
vt 0.871692 0.483371
vt 0.252073 0.483371
vt 0.043865 0.369770
vt 0.455456 0.369770
vt 0.016876 0.369770
vt 0.522894 0.351637
vt 0.190496 0.225636
vt 0.139826 0.351637
vt -0.129754 0.351637
vt 0.190496 0.351637
vt 0.404414 0.906960
vt 0.667541 0.906960
vt 0.667541 0.404414
vt 0.659970 0.345944
vt 0.323265 0.906960
vt 0.714392 0.906960
vt 0.407301 0.769587
vt 0.664236 0.769587
vt 0.318960 0.769587
vt 0.715240 0.769587
vt 0.410693 0.608172
vt 0.660353 0.608172
vt 0.313901 0.608172
vt 0.716236 0.608172
vt 0.706894 0.302621
vt 0.778950 0.302621
vt 0.778950 0.726182
vt 0.683395 0.623093
vt 0.590589 0.302621
vt 0.683395 0.302621
vt 0.468643 0.490822
vt 0.459058 0.490822
vt 0.435689 0.490822
vt 0.525204 0.490822
vt 0.454523 0.435689
vt 0.529739 0.468643
vt 0.561071 0.496219
vt 0.384980 0.528967
vt 0.391071 0.559778
vt 0.588633 0.565341
vt 0.504147 0.573490
vt 0.517831 0.504258
vt 0.391071 0.570260
vt 0.465601 0.565341
vt 0.490462 0.423454
vt 0.454276 0.565341
vt 0.430104 0.559600
vt 0.465728 0.565341
vt 0.577325 0.565341
vt 0.511572 0.457840
vt 0.447142 0.569436
vt 0.438166 0.496219
vt 0.537497 0.526981
vt 0.463834 0.430278
vt 0.470329 0.445026
vt 0.444785 0.579074
vt 0.580162 0.490822
vt 0.394672 0.490822
vt 0.547208 0.490822
vt 0.460819 0.490822
vt 0.390138 0.547208
vt 0.465353 0.580162
vt 0.566774 0.565341
vt 0.579762 0.525556
vt 0.571109 0.569333
vt 0.514274 0.496219
vt 0.487623 0.525556
vt 0.493029 0.526981
vt 0.626442 0.565341
vt 0.639430 0.525556
vt 0.634025 0.526981
vt 0.519036 0.496219
vt 0.492386 0.525556
vt 0.516631 0.490450
vt 0.631205 0.565341
vt 0.644193 0.525556
vt 0.635540 0.569333
vt 0.578705 0.496219
vt 0.552054 0.525556
vt 0.557459 0.526981
vt 0.531312 0.582413
vt 0.566347 0.569333
vt 0.562012 0.565341
vt 0.562222 0.526981
vt 0.581061 0.490450
vt 0.583467 0.496219
vt 0.536074 0.582413
vt 0.536074 0.588815
vt 0.550755 0.490450
vt 0.511868 0.490450
vt 0.595742 0.582413
vt 0.630777 0.569333
vt 0.555517 0.490450
vt 0.553111 0.496219
vt 0.500611 0.565341
vt 0.531312 0.588815
vt 0.600504 0.582413
vt 0.600504 0.588815
vt 0.630777 0.536916
vt 0.600504 0.508440
vt 0.635540 0.528668
vt 0.566347 0.648513
vt 0.536074 0.620037
vt 0.571109 0.640264
vt 0.541912 0.525556
vt 0.528668 0.569333
vt 0.533664 0.525556
vt 0.653509 0.525556
vt 0.640264 0.569333
vt 0.645260 0.525556
vt 0.519665 0.490450
vt 0.639511 0.490450
vt 0.631262 0.490450
vt 0.491465 0.525556
vt 0.497214 0.490450
vt 0.483216 0.525556
vt 0.594813 0.525556
vt 0.617060 0.490450
vt 0.608811 0.490450
vt 0.496461 0.569333
vt 0.488212 0.569333
vt 0.608057 0.569333
vt 0.599809 0.569333
vt 0.595742 0.516689
vt 0.565469 0.488212
vt 0.531312 0.628285
vt 0.501038 0.599809
vt 0.569804 0.565341
vt 0.556816 0.525556
vt 0.575000 0.525556
vt 0.569594 0.526981
vt 0.565042 0.565341
vt 0.560707 0.569333
vt 0.617542 0.496219
vt 0.638787 0.526981
vt 0.505374 0.565341
vt 0.497791 0.526981
vt 0.615185 0.490450
vt 0.612779 0.496219
vt 0.496276 0.569333
vt 0.574357 0.526981
vt 0.565469 0.569333
vt 0.548349 0.496219
vt 0.595742 0.588815
vt 0.619947 0.490450
vt 0.501038 0.569333
vt 0.576299 0.490450
vt 0.085654 0.168324
vt 0.260111 0.168324
vt 0.159388 0.168324
vt -0.015070 0.168324
vt 0.236123 0.168324
vt 0.410580 0.168324
vt 0.509433 0.168324
vt 0.916501 0.168324
vt 0.506675 0.168324
vt -0.016698 0.168324
vt 0.614331 0.168324
vt 0.207264 0.168324
vt 0.218323 0.168324
vt 0.741696 0.168324
vt 0.016876 0.168324
vt -0.157581 0.168324
vt 0.455456 0.168324
vt 0.106540 0.168324
vt 0.043865 0.168324
vt 0.218323 0.168324
vt 0.842419 0.235473
vt 0.667961 0.168324
vt 0.842419 0.168324
vt 0.234252 0.235473
vt 0.408710 0.168324
vt 0.234252 0.168324
vt 0.509433 0.235473
vt 0.334976 0.168324
vt 0.509433 0.168324
vt 0.567238 0.408710
vt 0.842419 0.334976
vt 0.741696 0.509433
vt 0.683395 0.168324
vt 0.761394 0.168324
vt 0.590589 0.168324
vt 0.654302 0.168324
vt 0.726182 0.168324
vt 0.778950 0.168324
vt 0.694246 0.168324
vt 0.706894 0.168324
vt 0.623093 0.168324
vt 0.460805 0.565341
vt 0.473793 0.525556
vt 0.465140 0.569333
vt 0.387059 0.526981
vt 0.405899 0.490451
vt 0.381653 0.525556
vt 0.520473 0.565341
vt 0.533461 0.525556
vt 0.528055 0.526981
vt 0.391821 0.526981
vt 0.410661 0.490451
vt 0.413067 0.496219
vt 0.525235 0.565341
vt 0.538223 0.525556
vt 0.529570 0.569333
vt 0.472735 0.496219
vt 0.446084 0.525556
vt 0.451490 0.526981
vt 0.425342 0.582413
vt 0.460377 0.569333
vt 0.456042 0.565341
vt 0.477497 0.496219
vt 0.450846 0.525556
vt 0.475091 0.490451
vt 0.430104 0.582413
vt 0.430104 0.588815
vt 0.442379 0.496219
vt 0.408304 0.496219
vt 0.489772 0.582413
vt 0.524808 0.569333
vt 0.449547 0.490451
vt 0.447142 0.496219
vt 0.394641 0.565341
vt 0.425342 0.588815
vt 0.494535 0.582413
vt 0.494535 0.588815
vt 0.524808 0.476479
vt 0.494535 0.448003
vt 0.529570 0.468231
vt 0.465140 0.579827
vt 0.425342 0.567848
vt 0.430104 0.559600
vt 0.473227 0.525556
vt 0.476479 0.569333
vt 0.468231 0.569333
vt 0.593072 0.525556
vt 0.579827 0.569333
vt 0.584823 0.525556
vt 0.459229 0.490451
vt 0.481475 0.525556
vt 0.579074 0.490451
vt 0.570825 0.490451
vt 0.422780 0.525556
vt 0.445026 0.490451
vt 0.436778 0.490451
vt 0.542625 0.525556
vt 0.548374 0.490451
vt 0.534376 0.525556
vt 0.436024 0.569333
vt 0.427775 0.569333
vt 0.539372 0.569333
vt 0.489772 0.456252
vt 0.459499 0.427775
vt 0.390306 0.547621
vt 0.395069 0.539372
vt 0.463834 0.565341
vt 0.456252 0.526981
vt 0.469030 0.525556
vt 0.463625 0.526981
vt 0.454737 0.569333
vt 0.459072 0.565341
vt 0.532817 0.526981
vt 0.513978 0.490451
vt 0.399404 0.565341
vt 0.386416 0.525556
vt 0.509215 0.490451
vt 0.506810 0.496219
vt 0.390306 0.569333
vt 0.468387 0.526981
vt 0.459499 0.569333
vt 0.444785 0.490451
vt 0.489772 0.588815
vt 0.511572 0.496219
vt 0.395069 0.569333
vt 0.470329 0.490451
vt 0.536916 0.569333
vt 0.648513 0.569333
vt 0.527914 0.490450
vt 0.505463 0.490450
vt 0.603062 0.525556
vt 0.560707 0.496461
vt 0.496276 0.608057
vt 0.667961 0.235473
vt 0.408710 0.235473
vt 0.334976 0.235473
vt 0.667961 0.234252
vt 0.460377 0.588076
vt 0.588076 0.569333
vt 0.467477 0.490451
vt 0.431028 0.525556
vt 0.556623 0.490451
vt 0.547621 0.569333
vt 0.454737 0.436024
vn -0.5000 0.8660 0.0000
vn 0.8660 0.5000 0.0000
vn 0.5000 -0.8660 0.0000
vn -0.8660 -0.5000 0.0000
vn -0.0000 0.0000 -1.0000
vn 0.0000 0.0000 1.0000
vn 0.2169 -0.3758 0.9010
vn 0.4875 -0.8443 0.2225
vn 0.3909 -0.6771 -0.6235
vn -0.3909 0.6771 -0.6235
vn -0.4875 0.8443 0.2225
vn -0.2169 0.3758 0.9010
vn 0.5880 -0.1064 0.8019
vn -0.2018 -0.5624 0.8019
vn 0.8287 -0.5235 0.1980
vn 0.0390 -0.9794 0.1980
vn 0.7428 -0.3746 -0.5549
vn -0.0470 -0.8306 -0.5549
vn 0.3949 0.2280 -0.8900
vn -0.3949 -0.2280 -0.8900
vn 0.0470 0.8306 -0.5549
vn -0.7428 0.3746 -0.5549
vn -0.0390 0.9794 0.1980
vn -0.8287 0.5235 0.1980
vn 0.2018 0.5624 0.8019
vn -0.5880 0.1064 0.8019
vn 0.3216 0.1857 0.9285
vn -0.1284 -0.9914 0.0265
vn -0.9747 -0.2219 0.0258
vn -0.4998 0.8657 0.0270
vn 0.6796 0.7332 0.0258
vn 0.9227 -0.3845 0.0265
vn -0.9747 -0.2220 0.0258
vn -0.1284 -0.9917 0.0000
vn -0.9750 -0.2220 0.0000
vn 0.6798 0.7334 0.0000
vn 0.9231 -0.3847 0.0000
vn 0.2169 -0.3757 0.9010
vn -0.2170 0.3758 0.9010
usemtl Building.001
s off
f 2/1/1 3/2/1 1/3/1
f 4/4/2 7/5/2 3/6/2
f 8/7/3 5/8/3 7/9/3
f 6/10/4 1/11/4 5/12/4
f 7/13/5 1/14/5 3/15/5
f 4/16/6 6/17/6 8/18/6
f 26/19/7 41/20/7 40/21/7
f 25/22/8 45/23/8 41/24/8
f 28/25/9 49/26/9 45/23/9
f 30/27/5 53/28/5 49/29/5
f 32/30/10 57/31/10 53/32/10
f 18/33/4 16/34/4 10/35/4
f 34/36/11 61/37/11 57/31/11
f 61/38/12 26/19/12 40/21/12
f 21/39/2 11/40/2 15/41/2
f 9/42/13 24/43/13 11/44/13
f 10/45/14 25/46/14 26/19/14
f 11/40/15 27/47/15 13/48/15
f 12/49/16 28/25/16 25/22/16
f 15/41/17 27/47/17 29/50/17
f 14/51/18 30/52/18 28/25/18
f 15/53/19 31/54/19 17/55/19
f 18/56/20 30/27/20 16/57/20
f 17/58/21 33/59/21 19/60/21
f 18/33/22 34/61/22 32/62/22
f 21/63/23 33/59/23 35/64/23
f 22/65/24 34/61/24 20/66/24
f 9/42/25 35/67/25 23/68/25
f 10/45/26 36/69/26 22/70/26
f 35/67/12 37/71/12 23/68/12
f 62/72/12 38/73/12 63/74/12
f 33/59/11 64/75/11 35/64/11
f 58/76/11 63/77/11 59/78/11
f 56/79/10 33/59/10 31/80/10
f 54/81/10 59/78/10 55/82/10
f 52/83/5 31/54/5 29/84/5
f 50/85/5 55/86/5 51/87/5
f 48/88/9 29/89/9 27/90/9
f 47/91/9 50/92/9 51/93/9
f 44/94/8 27/90/8 24/95/8
f 42/96/8 47/91/8 43/97/8
f 23/68/7 44/98/7 24/43/7
f 38/73/7 42/99/7 43/100/7
f 79/101/5 84/102/5 80/103/5
f 77/104/5 82/105/5 78/106/5
f 94/107/1 95/108/1 93/109/1
f 96/110/2 99/111/2 95/112/2
f 100/113/3 97/114/3 99/115/3
f 98/116/4 93/117/4 97/118/4
f 99/119/5 93/120/5 95/121/5
f 96/122/6 98/123/6 100/124/6
f 102/125/2 110/126/2 109/127/2
f 104/128/3 111/129/3 110/130/3
f 112/131/1 102/132/1 109/133/1
f 107/134/5 101/135/5 103/136/5
f 108/137/27 102/138/27 106/139/27
f 181/140/2 190/141/2 189/142/2
f 182/143/3 191/144/3 190/145/3
f 183/146/4 192/147/4 191/148/4
f 184/149/1 189/150/1 192/151/1
f 180/152/2 188/153/2 178/154/2
f 174/155/6 182/156/6 181/157/6
f 180/158/6 182/156/6 176/159/6
f 180/158/6 184/160/6 183/161/6
f 174/155/6 184/160/6 178/162/6
f 186/163/6 188/164/6 187/165/6
f 174/166/4 186/167/4 176/168/4
f 178/169/3 185/170/3 174/171/3
f 176/172/1 187/173/1 180/174/1
f 201/175/2 210/176/2 209/177/2
f 202/178/3 211/179/3 210/180/3
f 203/181/4 212/182/4 211/183/4
f 198/184/3 205/185/3 194/186/3
f 196/187/6 201/188/6 194/189/6
f 200/190/6 202/191/6 196/187/6
f 198/192/6 203/193/6 200/190/6
f 194/189/6 204/194/6 198/192/6
f 206/195/6 208/196/6 207/197/6
f 196/198/1 207/199/1 200/200/1
f 200/201/2 208/202/2 198/203/2
f 194/204/4 206/205/4 196/206/4
f 222/207/28 232/208/28 231/209/28
f 232/210/29 226/211/29 233/212/29
f 226/213/30 234/214/30 233/215/30
f 230/216/6 228/217/6 226/218/6
f 228/219/31 235/220/31 234/214/31
f 235/221/32 222/222/32 231/223/32
f 240/224/28 241/225/28 245/226/28
f 241/227/33 237/228/33 242/229/33
f 237/230/30 243/231/30 242/232/30
f 238/233/31 244/234/31 243/231/31
f 244/235/32 240/236/32 245/237/32
f 250/238/28 223/239/28 221/240/28
f 223/241/33 247/242/33 225/243/33
f 247/244/30 227/245/30 225/246/30
f 248/247/31 229/248/31 227/245/31
f 229/249/32 250/250/32 221/251/32
f 256/252/34 266/253/34 265/254/34
f 258/255/35 267/256/35 266/257/35
f 260/258/1 268/259/1 267/260/1
f 262/261/6 258/262/6 264/263/6
f 262/264/36 269/265/36 268/259/36
f 264/266/37 265/267/37 269/268/37
f 351/269/1 352/270/1 350/271/1
f 353/272/2 356/273/2 352/274/2
f 357/275/3 354/276/3 356/277/3
f 355/278/4 350/279/4 354/280/4
f 356/281/5 350/282/5 352/283/5
f 357/284/6 351/285/6 355/286/6
f 375/287/7 390/288/7 389/289/7
f 374/290/8 394/291/8 390/292/8
f 377/293/9 398/294/9 394/291/9
f 398/295/5 381/296/5 402/297/5
f 381/298/10 406/299/10 402/300/10
f 367/301/4 365/302/4 359/303/4
f 383/304/11 410/305/11 406/299/11
f 385/306/12 389/289/12 410/307/12
f 368/308/2 370/309/2 360/310/2
f 358/311/13 373/312/13 360/313/13
f 359/314/14 374/315/14 375/287/14
f 360/310/15 376/316/15 362/317/15
f 363/318/16 374/290/16 361/319/16
f 364/320/17 376/316/17 378/321/17
f 365/322/18 377/293/18 363/318/18
f 366/323/19 378/324/19 380/325/19
f 367/326/20 379/327/20 365/328/20
f 366/329/21 382/330/21 368/331/21
f 367/301/22 383/332/22 381/333/22
f 370/334/23 382/330/23 384/335/23
f 371/336/24 383/332/24 369/337/24
f 370/338/25 372/339/25 358/311/25
f 359/314/26 385/306/26 371/340/26
f 413/341/12 372/339/12 384/342/12
f 411/343/12 387/344/12 412/345/12
f 409/346/11 384/335/11 382/330/11
f 407/347/11 412/348/11 408/349/11
f 405/350/10 382/330/10 380/351/10
f 403/352/10 408/349/10 404/353/10
f 401/354/5 380/325/5 378/324/5
f 399/355/5 404/356/5 400/357/5
f 397/358/9 378/359/9 376/360/9
f 396/361/9 399/362/9 400/363/9
f 393/364/8 376/360/8 373/365/8
f 391/366/8 396/361/8 392/367/8
f 386/368/7 373/312/7 372/339/7
f 387/344/7 391/369/7 392/370/7
f 429/371/5 432/372/5 433/373/5
f 426/374/5 431/375/5 427/376/5
f 443/377/1 444/378/1 442/379/1
f 445/380/2 448/381/2 444/382/2
f 449/383/3 446/384/3 448/385/3
f 447/386/4 442/387/4 446/388/4
f 448/389/5 442/390/5 444/391/5
f 449/392/6 443/393/6 447/394/6
f 2/1/1 4/395/1 3/2/1
f 4/4/2 8/396/2 7/5/2
f 8/7/3 6/397/3 5/8/3
f 6/10/4 2/398/4 1/11/4
f 7/13/5 5/399/5 1/14/5
f 4/16/6 2/400/6 6/17/6
f 26/19/38 25/46/38 41/20/38
f 25/22/8 28/25/8 45/23/8
f 28/25/9 30/52/9 49/26/9
f 30/27/5 32/401/5 53/28/5
f 32/30/10 34/36/10 57/31/10
f 14/402/4 12/403/4 16/34/4
f 12/403/4 10/35/4 16/34/4
f 10/35/4 22/65/4 20/66/4
f 20/66/4 18/33/4 10/35/4
f 34/36/11 36/404/11 61/37/11
f 61/38/12 36/69/12 26/19/12
f 21/39/2 9/405/2 11/40/2
f 11/40/2 13/48/2 15/41/2
f 15/41/2 17/406/2 19/407/2
f 19/407/2 21/39/2 15/41/2
f 9/42/13 23/68/13 24/43/13
f 10/45/14 12/408/14 25/46/14
f 11/40/15 24/409/15 27/47/15
f 12/49/16 14/51/16 28/25/16
f 15/41/17 13/48/17 27/47/17
f 14/51/18 16/410/18 30/52/18
f 15/53/19 29/84/19 31/54/19
f 18/56/20 32/401/20 30/27/20
f 17/58/21 31/80/21 33/59/21
f 18/33/22 20/66/22 34/61/22
f 21/63/23 19/60/23 33/59/23
f 22/65/24 36/411/24 34/61/24
f 9/42/25 21/412/25 35/67/25
f 10/45/26 26/19/26 36/69/26
f 35/67/12 64/413/12 37/71/12
f 62/72/12 39/414/12 38/73/12
f 33/59/11 60/415/11 64/75/11
f 58/76/11 62/416/11 63/77/11
f 56/79/10 60/415/10 33/59/10
f 54/81/10 58/76/10 59/78/10
f 52/83/5 56/417/5 31/54/5
f 50/85/5 54/418/5 55/86/5
f 48/88/9 52/419/9 29/89/9
f 47/91/9 46/420/9 50/92/9
f 44/94/8 48/88/8 27/90/8
f 42/96/8 46/420/8 47/91/8
f 23/68/7 37/71/7 44/98/7
f 38/73/7 39/414/7 42/99/7
f 79/101/5 83/421/5 84/102/5
f 77/104/5 81/422/5 82/105/5
f 94/107/1 96/423/1 95/108/1
f 96/110/2 100/424/2 99/111/2
f 100/113/3 98/425/3 97/114/3
f 98/116/4 94/426/4 93/117/4
f 99/119/5 97/427/5 93/120/5
f 96/122/6 94/428/6 98/123/6
f 102/125/2 104/429/2 110/126/2
f 104/128/3 108/430/3 111/129/3
f 112/131/1 106/431/1 102/132/1
f 107/134/5 105/432/5 101/135/5
f 108/137/27 104/433/27 102/138/27
f 181/140/2 182/434/2 190/141/2
f 182/143/3 183/435/3 191/144/3
f 183/146/4 184/436/4 192/147/4
f 184/149/1 181/437/1 189/150/1
f 180/152/2 187/438/2 188/153/2
f 174/155/6 176/159/6 182/156/6
f 180/158/6 183/161/6 182/156/6
f 180/158/6 178/162/6 184/160/6
f 174/155/6 181/157/6 184/160/6
f 186/163/6 185/439/6 188/164/6
f 174/166/4 185/440/4 186/167/4
f 178/169/3 188/441/3 185/170/3
f 176/172/1 186/442/1 187/173/1
f 201/175/2 202/443/2 210/176/2
f 202/178/3 203/444/3 211/179/3
f 203/181/4 204/445/4 212/182/4
f 198/184/3 208/446/3 205/185/3
f 196/187/6 202/191/6 201/188/6
f 200/190/6 203/193/6 202/191/6
f 198/192/6 204/194/6 203/193/6
f 194/189/6 201/188/6 204/194/6
f 206/195/6 205/447/6 208/196/6
f 196/198/1 206/448/1 207/199/1
f 200/201/2 207/449/2 208/202/2
f 194/204/4 205/450/4 206/205/4
f 222/207/28 224/451/28 232/208/28
f 232/210/33 224/452/33 226/211/33
f 226/213/30 228/219/30 234/214/30
f 226/218/6 224/453/6 230/216/6
f 224/453/6 222/454/6 230/216/6
f 228/219/31 230/455/31 235/220/31
f 235/221/32 230/456/32 222/222/32
f 240/224/28 236/457/28 241/225/28
f 241/227/33 236/458/33 237/228/33
f 237/230/30 238/233/30 243/231/30
f 238/233/31 239/459/31 244/234/31
f 244/235/32 239/460/32 240/236/32
f 250/238/28 246/461/28 223/239/28
f 223/241/33 246/462/33 247/242/33
f 247/244/30 248/247/30 227/245/30
f 248/247/31 249/463/31 229/248/31
f 229/249/32 249/464/32 250/250/32
f 256/252/34 258/465/34 266/253/34
f 258/255/35 260/466/35 267/256/35
f 260/258/1 262/264/1 268/259/1
f 260/467/6 258/262/6 262/261/6
f 258/262/6 256/468/6 264/263/6
f 262/264/36 264/469/36 269/265/36
f 264/266/37 256/470/37 265/267/37
f 351/269/1 353/471/1 352/270/1
f 353/272/2 357/472/2 356/273/2
f 357/275/3 355/473/3 354/276/3
f 355/278/4 351/474/4 350/279/4
f 356/281/5 354/475/5 350/282/5
f 357/284/6 353/476/6 351/285/6
f 375/287/7 374/315/7 390/288/7
f 374/290/8 377/293/8 394/291/8
f 377/293/9 379/477/9 398/294/9
f 398/295/5 379/327/5 381/296/5
f 381/298/10 383/304/10 406/299/10
f 363/478/4 361/479/4 365/302/4
f 361/479/4 359/303/4 365/302/4
f 359/303/4 371/336/4 369/337/4
f 369/337/4 367/301/4 359/303/4
f 383/304/11 385/480/11 410/305/11
f 385/306/39 375/287/39 389/289/39
f 370/309/2 358/481/2 360/310/2
f 360/310/2 362/317/2 364/320/2
f 364/320/2 366/482/2 360/310/2
f 366/482/2 368/308/2 360/310/2
f 358/311/13 372/339/13 373/312/13
f 359/314/14 361/483/14 374/315/14
f 360/310/15 373/484/15 376/316/15
f 363/318/16 377/293/16 374/290/16
f 364/320/17 362/317/17 376/316/17
f 365/322/18 379/477/18 377/293/18
f 366/323/19 364/485/19 378/324/19
f 367/326/20 381/296/20 379/327/20
f 366/329/21 380/351/21 382/330/21
f 367/301/22 369/337/22 383/332/22
f 370/334/23 368/331/23 382/330/23
f 371/336/24 385/486/24 383/332/24
f 370/338/25 384/342/25 372/339/25
f 359/314/26 375/287/26 385/306/26
f 413/341/12 386/368/12 372/339/12
f 411/343/12 388/487/12 387/344/12
f 409/346/11 413/488/11 384/335/11
f 407/347/11 411/489/11 412/348/11
f 405/350/10 409/346/10 382/330/10
f 403/352/10 407/347/10 408/349/10
f 401/354/5 405/490/5 380/325/5
f 399/355/5 403/491/5 404/356/5
f 397/358/9 401/492/9 378/359/9
f 396/361/9 395/493/9 399/362/9
f 393/364/8 397/358/8 376/360/8
f 391/366/8 395/493/8 396/361/8
f 386/368/7 393/494/7 373/312/7
f 387/344/7 388/487/7 391/369/7
f 429/371/5 428/495/5 432/372/5
f 426/374/5 430/496/5 431/375/5
f 443/377/1 445/497/1 444/378/1
f 445/380/2 449/498/2 448/381/2
f 449/383/3 447/499/3 446/384/3
f 447/386/4 443/500/4 442/387/4
f 448/389/5 446/501/5 442/390/5
f 449/392/6 445/502/6 443/393/6
usemtl Wood
f 62/503/2 86/504/2 90/505/2
f 49/506/4 73/507/4 45/508/4
f 63/509/4 87/510/4 59/511/4
f 50/512/2 74/513/2 78/514/2
f 64/515/2 88/516/2 92/517/2
f 51/518/4 75/519/4 47/520/4
f 40/521/4 89/522/4 61/523/4
f 48/524/2 80/525/2 52/526/2
f 39/527/2 90/505/2 67/528/2
f 49/506/4 81/529/4 77/530/4
f 38/531/4 91/532/4 63/509/4
f 50/512/2 82/533/2 54/534/2
f 41/535/4 68/536/4 40/521/4
f 37/537/2 92/517/2 65/538/2
f 91/539/12 65/540/12 92/541/12
f 89/542/12 67/543/12 90/544/12
f 87/545/11 92/546/11 88/547/11
f 85/548/11 90/549/11 86/550/11
f 84/551/10 87/545/10 88/547/10
f 81/552/10 86/550/10 82/553/10
f 75/554/9 80/555/9 76/556/9
f 74/557/9 77/558/9 78/559/9
f 71/560/8 76/556/8 72/561/8
f 69/562/8 74/557/8 70/563/8
f 66/564/7 72/565/7 65/540/7
f 68/566/7 70/567/7 67/543/7
f 44/568/2 76/569/2 48/524/2
f 61/523/4 85/570/4 57/571/4
f 43/572/4 75/519/4 71/573/4
f 56/574/2 88/516/2 60/575/2
f 42/576/2 74/513/2 46/577/2
f 59/511/4 83/578/4 55/579/4
f 45/508/4 69/580/4 41/535/4
f 54/534/2 86/504/2 58/581/2
f 37/537/2 72/582/2 44/568/2
f 53/583/4 85/570/4 81/529/4
f 43/572/4 66/584/4 38/531/4
f 52/526/2 84/585/2 56/574/2
f 39/527/2 70/586/2 42/576/2
f 55/579/4 79/587/4 51/518/4
f 112/131/1 101/588/1 105/589/1
f 110/130/3 107/590/3 103/591/3
f 109/127/2 103/592/2 101/593/2
f 192/151/1 173/594/1 177/595/1
f 191/148/4 177/596/4 179/597/4
f 190/145/3 179/598/3 175/599/3
f 189/142/2 175/600/2 173/601/2
f 211/183/4 197/602/4 199/603/4
f 210/180/3 199/604/3 195/605/3
f 209/177/2 195/606/2 193/607/2
f 214/608/2 215/609/2 213/610/2
f 216/611/3 219/612/3 215/613/3
f 218/614/1 213/615/1 217/616/1
f 220/617/6 214/618/6 218/619/6
f 239/460/32 231/223/32 240/236/32
f 234/214/31 239/459/31 238/233/31
f 233/215/30 238/233/30 237/230/30
f 236/458/33 233/212/33 237/228/33
f 231/209/28 236/457/28 240/224/28
f 249/464/32 245/237/32 250/250/32
f 243/231/31 249/463/31 248/247/31
f 242/232/30 248/247/30 247/244/30
f 246/462/33 242/229/33 247/242/33
f 245/226/28 246/461/28 250/238/28
f 269/268/37 255/620/37 263/621/37
f 268/259/36 263/622/36 261/623/36
f 267/260/1 261/623/1 259/624/1
f 266/257/35 259/625/35 257/626/35
f 265/254/34 257/627/34 255/628/34
f 411/629/2 435/630/2 439/631/2
f 394/632/4 426/633/4 422/634/4
f 412/635/4 436/636/4 408/637/4
f 395/638/2 427/639/2 399/640/2
f 413/641/2 437/642/2 441/643/2
f 400/644/4 424/645/4 396/646/4
f 389/647/4 438/648/4 410/649/4
f 401/650/2 425/651/2 429/652/2
f 388/653/2 439/631/2 416/654/2
f 402/655/4 426/633/4 398/656/4
f 387/657/4 440/658/4 412/635/4
f 399/640/2 431/659/2 403/660/2
f 390/661/4 417/662/4 389/647/4
f 386/663/2 441/643/2 414/664/2
f 440/665/12 414/666/12 441/667/12
f 439/668/12 417/669/12 416/670/12
f 437/671/11 440/672/11 441/673/11
f 434/674/11 439/675/11 435/676/11
f 433/677/10 436/678/10 437/671/10
f 430/679/10 435/676/10 431/680/10
f 425/681/9 428/682/9 429/683/9
f 422/684/9 427/685/9 423/686/9
f 420/687/8 425/681/8 421/688/8
f 419/689/8 422/684/8 423/686/8
f 415/690/7 421/691/7 414/666/7
f 416/670/7 418/692/7 419/693/7
f 393/694/2 425/651/2 397/695/2
f 410/649/4 434/696/4 406/697/4
f 396/646/4 420/698/4 392/699/4
f 409/700/2 433/701/2 437/642/2
f 391/702/2 423/703/2 395/638/2
f 408/637/4 432/704/4 404/705/4
f 390/661/4 422/634/4 418/706/4
f 407/707/2 431/659/2 435/630/2
f 386/663/2 421/708/2 393/694/2
f 406/697/4 430/709/4 402/655/4
f 387/657/4 420/698/4 415/710/4
f 405/711/2 429/652/2 433/701/2
f 388/653/2 419/712/2 391/702/2
f 404/705/4 428/713/4 400/644/4
f 62/503/2 58/581/2 86/504/2
f 49/506/4 77/530/4 73/507/4
f 63/509/4 91/532/4 87/510/4
f 50/512/2 46/577/2 74/513/2
f 64/515/2 60/575/2 88/516/2
f 51/518/4 79/587/4 75/519/4
f 40/521/4 68/536/4 89/522/4
f 48/524/2 76/569/2 80/525/2
f 39/527/2 62/503/2 90/505/2
f 49/506/4 53/583/4 81/529/4
f 38/531/4 66/584/4 91/532/4
f 50/512/2 78/514/2 82/533/2
f 41/535/4 69/580/4 68/536/4
f 37/537/2 64/515/2 92/517/2
f 91/539/12 66/564/12 65/540/12
f 89/542/12 68/566/12 67/543/12
f 87/545/11 91/714/11 92/546/11
f 85/548/11 89/715/11 90/549/11
f 84/551/10 83/716/10 87/545/10
f 81/552/10 85/548/10 86/550/10
f 75/554/9 79/717/9 80/555/9
f 74/557/9 73/718/9 77/558/9
f 71/560/8 75/554/8 76/556/8
f 69/562/8 73/718/8 74/557/8
f 66/564/7 71/719/7 72/565/7
f 68/566/7 69/720/7 70/567/7
f 44/568/2 72/582/2 76/569/2
f 61/523/4 89/522/4 85/570/4
f 43/572/4 47/520/4 75/519/4
f 56/574/2 84/585/2 88/516/2
f 42/576/2 70/586/2 74/513/2
f 59/511/4 87/510/4 83/578/4
f 45/508/4 73/507/4 69/580/4
f 54/534/2 82/533/2 86/504/2
f 37/537/2 65/538/2 72/582/2
f 53/583/4 57/571/4 85/570/4
f 43/572/4 71/573/4 66/584/4
f 52/526/2 80/525/2 84/585/2
f 39/527/2 67/528/2 70/586/2
f 55/579/4 83/578/4 79/587/4
f 112/131/1 109/133/1 101/588/1
f 110/130/3 111/129/3 107/590/3
f 109/127/2 110/126/2 103/592/2
f 192/151/1 189/150/1 173/594/1
f 191/148/4 192/147/4 177/596/4
f 190/145/3 191/144/3 179/598/3
f 189/142/2 190/141/2 175/600/2
f 211/183/4 212/182/4 197/602/4
f 210/180/3 211/179/3 199/604/3
f 209/177/2 210/176/2 195/606/2
f 214/608/2 216/721/2 215/609/2
f 216/611/3 220/722/3 219/612/3
f 218/614/1 214/723/1 213/615/1
f 220/617/6 216/724/6 214/618/6
f 239/460/32 235/221/32 231/223/32
f 234/214/31 235/220/31 239/459/31
f 233/215/30 234/214/30 238/233/30
f 236/458/29 232/210/29 233/212/29
f 231/209/28 232/208/28 236/457/28
f 249/464/32 244/235/32 245/237/32
f 243/231/31 244/234/31 249/463/31
f 242/232/30 243/231/30 248/247/30
f 246/462/33 241/227/33 242/229/33
f 245/226/28 241/225/28 246/461/28
f 269/268/37 265/267/37 255/620/37
f 268/259/36 269/265/36 263/622/36
f 267/260/1 268/259/1 261/623/1
f 266/257/35 267/256/35 259/625/35
f 265/254/34 266/253/34 257/627/34
f 411/629/2 407/707/2 435/630/2
f 394/632/4 398/656/4 426/633/4
f 412/635/4 440/658/4 436/636/4
f 395/638/2 423/703/2 427/639/2
f 413/641/2 409/700/2 437/642/2
f 400/644/4 428/713/4 424/645/4
f 389/647/4 417/662/4 438/648/4
f 401/650/2 397/695/2 425/651/2
f 388/653/2 411/629/2 439/631/2
f 402/655/4 430/709/4 426/633/4
f 387/657/4 415/710/4 440/658/4
f 399/640/2 427/639/2 431/659/2
f 390/661/4 418/706/4 417/662/4
f 386/663/2 413/641/2 441/643/2
f 440/665/12 415/690/12 414/666/12
f 439/668/12 438/725/12 417/669/12
f 437/671/11 436/678/11 440/672/11
f 434/674/11 438/726/11 439/675/11
f 433/677/10 432/727/10 436/678/10
f 430/679/10 434/674/10 435/676/10
f 425/681/9 424/728/9 428/682/9
f 422/684/9 426/729/9 427/685/9
f 420/687/8 424/728/8 425/681/8
f 419/689/8 418/730/8 422/684/8
f 415/690/7 420/731/7 421/691/7
f 416/670/7 417/669/7 418/692/7
f 393/694/2 421/708/2 425/651/2
f 410/649/4 438/648/4 434/696/4
f 396/646/4 424/645/4 420/698/4
f 409/700/2 405/711/2 433/701/2
f 391/702/2 419/712/2 423/703/2
f 408/637/4 436/636/4 432/704/4
f 390/661/4 394/632/4 422/634/4
f 407/707/2 403/660/2 431/659/2
f 386/663/2 414/664/2 421/708/2
f 406/697/4 434/696/4 430/709/4
f 387/657/4 392/699/4 420/698/4
f 405/711/2 401/650/2 429/652/2
f 388/653/2 416/654/2 419/712/2
f 404/705/4 432/704/4 428/713/4
