# Blender v2.80 (sub 75) OBJ File: 'game_assets.blend'
# www.blender.org
mtllib hospital.mtl
o Cube_Cube.002
v -0.312778 0.312778 0.446786
v -0.372321 0.372321 0.000000
v 0.312778 0.312778 0.446786
v 0.372321 0.372321 0.000000
v -0.312778 -0.312778 0.446786
v -0.372321 -0.372321 0.000000
v 0.312778 -0.312778 0.446786
v 0.372321 -0.372321 0.000000
v -0.372321 0.372321 0.297857
v -0.372321 0.372321 0.148928
v 0.372321 -0.372321 0.148929
v 0.372321 -0.372321 0.297857
v 0.372321 0.372321 0.297857
v 0.372321 0.372321 0.148928
v -0.372321 -0.372321 0.297857
v -0.372321 -0.372321 0.148928
v 0.372321 0.372321 0.446786
v 0.372321 -0.372321 0.446786
v -0.372321 0.372321 0.446786
v -0.372321 -0.372321 0.446786
v 0.312778 0.312778 0.414916
v 0.312778 -0.312778 0.414916
v -0.312778 0.312778 0.414916
v -0.312778 -0.312778 0.414916
v -0.335735 0.335735 0.297857
v -0.335735 0.335735 0.148928
v 0.335735 -0.335735 0.148929
v 0.335735 -0.335735 0.297857
v 0.335735 0.335735 0.297857
v 0.335735 0.335735 0.148928
v -0.335735 -0.335735 0.297857
v -0.335735 -0.335735 0.148928
v 0.312778 0.187667 0.414916
v 0.312778 0.062556 0.414916
v 0.312778 -0.062556 0.414916
v 0.312778 -0.187667 0.414916
v -0.187667 0.312778 0.414916
v -0.062556 0.312778 0.414916
v 0.062556 0.312778 0.414916
v 0.187667 0.312778 0.414916
v 0.187667 -0.312778 0.414916
v 0.062556 -0.312778 0.414916
v -0.062556 -0.312778 0.414916
v -0.187667 -0.312778 0.414916
v -0.312778 -0.187667 0.414916
v -0.312778 -0.062556 0.414916
v -0.312778 0.062556 0.414916
v -0.312778 0.187667 0.414916
v -0.187667 0.187667 0.414916
v -0.062556 0.187667 0.414916
v 0.062556 0.187667 0.414916
v 0.187667 0.187667 0.414916
v -0.187667 0.062556 0.414916
v -0.062556 0.062556 0.414916
v 0.062556 0.062556 0.414916
v 0.187667 0.062556 0.414916
v -0.187667 -0.062556 0.414916
v -0.062556 -0.062556 0.414916
v 0.062556 -0.062556 0.414916
v 0.187667 -0.062556 0.414916
v -0.187667 -0.187667 0.414916
v -0.062556 -0.187667 0.414916
v 0.062556 -0.187667 0.414916
v 0.187667 -0.187667 0.414916
vt 0.605009 0.019991
vt 0.563006 0.019991
vt 0.521002 0.019991
vt 0.625000 0.250000
vt 0.541667 0.500000
vt 0.541667 0.250000
vt 0.625000 0.500000
vt 0.541667 0.750000
vt 0.375000 0.500000
vt 0.291667 0.750000
vt 0.291667 0.500000
vt 0.875000 0.500000
vt 0.791667 0.750000
vt 0.791667 0.500000
vt 0.708333 0.500000
vt 0.625000 0.750000
vt 0.625000 0.500000
vt 0.208333 0.500000
vt 0.125000 0.750000
vt 0.125000 0.500000
vt 0.458333 0.500000
vt 0.375000 0.750000
vt 0.375000 0.500000
vt 0.458333 0.250000
vt 0.375000 0.250000
vt 0.708333 0.750000
vt 0.708333 0.750000
vt 0.605009 0.230009
vt 0.375000 0.250000
vt 0.394991 0.230009
vt 0.375000 0.000000
vt 0.394991 0.019991
vt 0.625000 0.250000
vt 0.625000 0.000000
vt 0.563006 0.188006
vt 0.605009 0.230009
vt 0.563006 0.230009
vt 0.394991 0.061994
vt 0.394991 0.103998
vt 0.605009 0.188006
vt 0.605009 0.146002
vt 0.436994 0.230009
vt 0.478998 0.230009
vt 0.458333 0.500000
vt 0.458333 0.750000
vt 0.458333 0.750000
vt 0.208333 0.750000
vt 0.208333 0.750000
vt 0.436994 0.188006
vt 0.394991 0.230009
vt 0.394991 0.188006
vt 0.478998 0.188006
vt 0.521002 0.188006
vt 0.521002 0.230009
vt 0.436994 0.019991
vt 0.394991 0.019991
vt 0.436994 0.061994
vt 0.436994 0.103998
vt 0.394991 0.146002
vt 0.436994 0.146002
vt 0.478998 0.019991
vt 0.478998 0.061994
vt 0.478998 0.146002
vt 0.521002 0.061994
vt 0.563006 0.061994
vt 0.521002 0.103998
vt 0.563006 0.146002
vt 0.521002 0.146002
vt 0.605009 0.019991
vt 0.605009 0.061994
vt 0.563006 0.103998
vt 0.605009 0.103998
vt 0.625000 0.750000
vt 0.375000 0.750000
vt 0.875000 0.750000
vt 0.708333 0.500000
vt 0.458333 0.250000
vt 0.208333 0.500000
vt 0.478998 0.103998
vt 0.791667 0.500000
vt 0.291667 0.500000
vt 0.541667 0.500000
vt 0.541667 0.250000
vt 0.791667 0.750000
vt 0.291667 0.750000
vt 0.541667 0.750000
vn 1.0000 0.0000 0.0000
vn 0.0000 -1.0000 0.0000
vn 0.0000 1.0000 0.0000
vn -1.0000 0.0000 0.0000
vn 0.0000 0.0000 1.0000
usemtl Material
s off
f 5/1/1 45/2/1 46/3/1
f 17/4/1 12/5/1 13/6/1
f 18/7/2 15/8/2 12/5/2
f 19/9/3 13/10/3 9/11/3
f 20/12/4 9/13/4 15/14/4
f 16/15/4 2/16/4 6/17/4
f 10/18/3 4/19/3 2/20/3
f 11/21/2 6/22/2 8/23/2
f 14/24/1 8/23/1 4/25/1
f 16/15/5 26/26/5 10/27/5
f 7/28/5 17/29/5 3/30/5
f 3/30/5 19/31/5 1/32/5
f 5/1/5 18/33/5 7/28/5
f 1/32/5 20/34/5 5/1/5
f 64/35/5 22/36/5 36/37/5
f 1/32/2 37/38/2 38/39/2
f 7/28/3 41/40/3 42/41/3
f 3/30/4 33/42/4 34/43/4
f 14/24/5 27/44/5 11/21/5
f 11/21/5 32/45/5 16/46/5
f 10/18/5 30/47/5 14/48/5
f 52/49/5 21/50/5 40/51/5
f 56/52/5 33/42/5 52/49/5
f 60/53/5 34/43/5 56/52/5
f 64/35/5 35/54/5 60/53/5
f 48/55/5 37/38/5 23/56/5
f 49/57/5 38/39/5 37/38/5
f 50/58/5 39/59/5 38/39/5
f 51/60/5 40/51/5 39/59/5
f 47/61/5 49/57/5 48/55/5
f 53/62/5 50/58/5 49/57/5
f 55/63/5 52/49/5 51/60/5
f 46/3/5 53/62/5 47/61/5
f 45/2/5 57/64/5 46/3/5
f 61/65/5 58/66/5 57/64/5
f 63/67/5 60/53/5 59/68/5
f 24/69/5 61/65/5 45/2/5
f 44/70/5 62/71/5 61/65/5
f 43/72/5 63/67/5 62/71/5
f 42/41/5 64/35/5 63/67/5
f 23/56/1 1/32/1 48/55/1
f 1/32/1 5/1/1 47/61/1
f 48/55/1 1/32/1 47/61/1
f 5/1/1 24/69/1 45/2/1
f 46/3/1 47/61/1 5/1/1
f 17/4/1 18/7/1 12/5/1
f 18/7/2 20/73/2 15/8/2
f 19/9/3 17/74/3 13/10/3
f 20/12/4 19/75/4 9/13/4
f 16/15/4 10/27/4 2/16/4
f 10/18/3 14/48/3 4/19/3
f 11/21/2 16/46/2 6/22/2
f 14/24/1 11/21/1 8/23/1
f 16/15/5 32/76/5 26/26/5
f 7/28/5 18/33/5 17/29/5
f 3/30/5 17/29/5 19/31/5
f 5/1/5 20/34/5 18/33/5
f 1/32/5 19/31/5 20/34/5
f 64/35/5 41/40/5 22/36/5
f 21/50/2 3/30/2 40/51/2
f 3/30/2 1/32/2 39/59/2
f 40/51/2 3/30/2 39/59/2
f 1/32/2 23/56/2 37/38/2
f 38/39/2 39/59/2 1/32/2
f 24/69/3 5/1/3 44/70/3
f 5/1/3 7/28/3 43/72/3
f 44/70/3 5/1/3 43/72/3
f 7/28/3 22/36/3 41/40/3
f 42/41/3 43/72/3 7/28/3
f 22/36/4 7/28/4 36/37/4
f 7/28/4 3/30/4 35/54/4
f 36/37/4 7/28/4 35/54/4
f 3/30/4 21/50/4 33/42/4
f 34/43/4 35/54/4 3/30/4
f 14/24/5 30/77/5 27/44/5
f 11/21/5 27/44/5 32/45/5
f 10/18/5 26/78/5 30/47/5
f 52/49/5 33/42/5 21/50/5
f 56/52/5 34/43/5 33/42/5
f 60/53/5 35/54/5 34/43/5
f 64/35/5 36/37/5 35/54/5
f 48/55/5 49/57/5 37/38/5
f 49/57/5 50/58/5 38/39/5
f 50/58/5 51/60/5 39/59/5
f 51/60/5 52/49/5 40/51/5
f 47/61/5 53/62/5 49/57/5
f 53/62/5 54/79/5 50/58/5
f 55/63/5 56/52/5 52/49/5
f 46/3/5 57/64/5 53/62/5
f 45/2/5 61/65/5 57/64/5
f 61/65/5 62/71/5 58/66/5
f 63/67/5 64/35/5 60/53/5
f 24/69/5 44/70/5 61/65/5
f 44/70/5 43/72/5 62/71/5
f 43/72/5 42/41/5 63/67/5
f 42/41/5 41/40/5 64/35/5
usemtl Wood
f 31/80/4 26/26/4 32/76/4
f 25/81/3 30/47/3 26/78/3
f 28/82/2 32/45/2 27/44/2
f 29/83/1 27/44/1 30/77/1
f 54/79/5 51/60/5 50/58/5
f 57/64/5 54/79/5 53/62/5
f 58/66/5 55/63/5 54/79/5
f 59/68/5 56/52/5 55/63/5
f 58/66/5 63/67/5 59/68/5
f 31/80/4 25/84/4 26/26/4
f 25/81/3 29/85/3 30/47/3
f 28/82/2 31/86/2 32/45/2
f 29/83/1 28/82/1 27/44/1
f 54/79/5 55/63/5 51/60/5
f 57/64/5 58/66/5 54/79/5
f 58/66/5 59/68/5 55/63/5
f 59/68/5 60/53/5 56/52/5
f 58/66/5 62/71/5 63/67/5
