# Blender v2.80 (sub 75) OBJ File: 'game_assets.blend'
# www.blender.org
mtllib mineral.mtl
o Cube.023_Cube.048
v 0.301799 0.258168 -0.064500
v 0.301799 0.258168 0.055500
v 0.221799 0.258168 -0.064500
v 0.221799 0.258168 0.055500
v 0.301799 0.338168 -0.064500
v 0.301799 0.338168 0.055500
v 0.221799 0.338168 -0.064500
v 0.221799 0.338168 0.055500
v -0.160647 0.197720 -0.067995
v -0.160647 0.197720 0.052005
v -0.240647 0.197720 -0.067995
v -0.240647 0.197720 0.052005
v -0.160647 0.277720 -0.067995
v -0.160647 0.277720 0.052005
v -0.240647 0.277720 -0.067995
v -0.240647 0.277720 0.052005
v -0.128972 -0.270491 -0.017129
v -0.128972 -0.270491 0.102871
v -0.208972 -0.270491 -0.017129
v -0.208972 -0.270491 0.102871
v -0.128972 -0.190491 -0.017129
v -0.128972 -0.190491 0.102871
v -0.208972 -0.190491 -0.017129
v -0.208972 -0.190491 0.102871
v 0.334564 -0.295573 -0.044988
v 0.334564 -0.295573 0.075012
v 0.254564 -0.295573 -0.044988
v 0.254564 -0.295573 0.075012
v 0.334564 -0.215573 -0.044988
v 0.334564 -0.215573 0.075012
v 0.254564 -0.215573 -0.044988
v 0.254564 -0.215573 0.075012
v 0.096685 0.010787 -0.027982
v 0.096685 0.010787 0.092018
v 0.016685 0.010787 -0.027982
v 0.016685 0.010787 0.092018
v 0.096685 0.090787 -0.027982
v 0.096685 0.090787 0.092018
v 0.016685 0.090787 -0.027982
v 0.016685 0.090787 0.092018
vt 0.625000 0.000000
vt 0.375000 0.250000
vt 0.375000 0.000000
vt 0.625000 0.250000
vt 0.375000 0.500000
vt 0.625000 0.500000
vt 0.375000 0.750000
vt 0.625000 0.750000
vt 0.375000 1.000000
vt 0.875000 0.500000
vt 0.625000 0.000000
vt 0.375000 0.250000
vt 0.375000 0.000000
vt 0.625000 0.250000
vt 0.375000 0.500000
vt 0.625000 0.500000
vt 0.375000 0.750000
vt 0.625000 0.750000
vt 0.375000 1.000000
vt 0.875000 0.500000
vt 0.625000 0.000000
vt 0.375000 0.250000
vt 0.375000 0.000000
vt 0.625000 0.250000
vt 0.375000 0.500000
vt 0.625000 0.500000
vt 0.375000 0.750000
vt 0.625000 0.750000
vt 0.375000 1.000000
vt 0.875000 0.500000
vt 0.625000 0.000000
vt 0.375000 0.250000
vt 0.375000 0.000000
vt 0.625000 0.250000
vt 0.375000 0.500000
vt 0.625000 0.500000
vt 0.375000 0.750000
vt 0.625000 0.750000
vt 0.375000 1.000000
vt 0.875000 0.500000
vt 0.625000 0.000000
vt 0.375000 0.250000
vt 0.375000 0.000000
vt 0.625000 0.250000
vt 0.375000 0.500000
vt 0.625000 0.500000
vt 0.375000 0.750000
vt 0.625000 0.750000
vt 0.375000 1.000000
vt 0.875000 0.500000
vt 0.625000 1.000000
vt 0.875000 0.750000
vt 0.625000 1.000000
vt 0.875000 0.750000
vt 0.625000 1.000000
vt 0.875000 0.750000
vt 0.625000 1.000000
vt 0.875000 0.750000
vt 0.625000 1.000000
vt 0.875000 0.750000
vn 0.0000 -1.0000 0.0000
vn -1.0000 0.0000 0.0000
vn 0.0000 1.0000 0.0000
vn 1.0000 0.0000 0.0000
vn 0.0000 0.0000 1.0000
usemtl Water
s off
f 2/1/1 3/2/1 1/3/1
f 4/4/2 7/5/2 3/2/2
f 8/6/3 5/7/3 7/5/3
f 6/8/4 1/9/4 5/7/4
f 4/10/5 6/8/5 8/6/5
f 10/11/1 11/12/1 9/13/1
f 12/14/2 15/15/2 11/12/2
f 16/16/3 13/17/3 15/15/3
f 14/18/4 9/19/4 13/17/4
f 12/20/5 14/18/5 16/16/5
f 18/21/1 19/22/1 17/23/1
f 20/24/2 23/25/2 19/22/2
f 24/26/3 21/27/3 23/25/3
f 22/28/4 17/29/4 21/27/4
f 20/30/5 22/28/5 24/26/5
f 26/31/1 27/32/1 25/33/1
f 28/34/2 31/35/2 27/32/2
f 32/36/3 29/37/3 31/35/3
f 30/38/4 25/39/4 29/37/4
f 28/40/5 30/38/5 32/36/5
f 34/41/1 35/42/1 33/43/1
f 36/44/2 39/45/2 35/42/2
f 40/46/3 37/47/3 39/45/3
f 38/48/4 33/49/4 37/47/4
f 36/50/5 38/48/5 40/46/5
f 2/1/1 4/4/1 3/2/1
f 4/4/2 8/6/2 7/5/2
f 8/6/3 6/8/3 5/7/3
f 6/8/4 2/51/4 1/9/4
f 4/10/5 2/52/5 6/8/5
f 10/11/1 12/14/1 11/12/1
f 12/14/2 16/16/2 15/15/2
f 16/16/3 14/18/3 13/17/3
f 14/18/4 10/53/4 9/19/4
f 12/20/5 10/54/5 14/18/5
f 18/21/1 20/24/1 19/22/1
f 20/24/2 24/26/2 23/25/2
f 24/26/3 22/28/3 21/27/3
f 22/28/4 18/55/4 17/29/4
f 20/30/5 18/56/5 22/28/5
f 26/31/1 28/34/1 27/32/1
f 28/34/2 32/36/2 31/35/2
f 32/36/3 30/38/3 29/37/3
f 30/38/4 26/57/4 25/39/4
f 28/40/5 26/58/5 30/38/5
f 34/41/1 36/44/1 35/42/1
f 36/44/2 40/46/2 39/45/2
f 40/46/3 38/48/3 37/47/3
f 38/48/4 34/59/4 33/49/4
f 36/50/5 34/60/5 38/48/5
